<?xml version="1.0" encoding="UTF-8"?>
<svg xmlns="http://www.w3.org/2000/svg" xmlns:xlink="http://www.w3.org/1999/xlink" width="67.167" height="47.125" viewBox="0 0 67.167 47.125">
<defs>
<g>
<g id="glyph-0-0">
</g>
<g id="glyph-0-1">
<path d="M 4.078125 -2.296875 L 6.859375 -2.296875 C 7 -2.296875 7.1875 -2.296875 7.1875 -2.5 C 7.1875 -2.6875 7 -2.6875 6.859375 -2.6875 L 4.078125 -2.6875 L 4.078125 -5.484375 C 4.078125 -5.625 4.078125 -5.8125 3.875 -5.8125 C 3.671875 -5.8125 3.671875 -5.625 3.671875 -5.484375 L 3.671875 -2.6875 L 0.890625 -2.6875 C 0.75 -2.6875 0.5625 -2.6875 0.5625 -2.5 C 0.5625 -2.296875 0.75 -2.296875 0.890625 -2.296875 L 3.671875 -2.296875 L 3.671875 0.5 C 3.671875 0.640625 3.671875 0.828125 3.875 0.828125 C 4.078125 0.828125 4.078125 0.640625 4.078125 0.5 Z M 4.078125 -2.296875 "/>
</g>
</g>
<clipPath id="clip-0">
<path clip-rule="nonzero" d="M 6 0 L 13 0 L 13 7 L 6 7 Z M 6 0 "/>
</clipPath>
<clipPath id="clip-1">
<path clip-rule="nonzero" d="M 12.042969 3.1875 C 12.042969 1.535156 10.707031 0.199219 9.054688 0.199219 C 7.40625 0.199219 6.066406 1.535156 6.066406 3.1875 C 6.066406 4.839844 7.40625 6.175781 9.054688 6.175781 C 10.707031 6.175781 12.042969 4.839844 12.042969 3.1875 Z M 12.042969 3.1875 "/>
</clipPath>
<clipPath id="clip-2">
<path clip-rule="nonzero" d="M 0 0 L 22 0 L 22 47.125 L 0 47.125 Z M 0 0 "/>
</clipPath>
<clipPath id="clip-3">
<path clip-rule="nonzero" d="M 0 0 L 36 0 L 36 47.125 L 0 47.125 Z M 0 0 "/>
</clipPath>
<clipPath id="clip-4">
<path clip-rule="nonzero" d="M 7 44 L 11 44 L 11 47.125 L 7 47.125 Z M 7 44 "/>
</clipPath>
<clipPath id="clip-5">
<path clip-rule="nonzero" d="M 34 0 L 41 0 L 41 7 L 34 7 Z M 34 0 "/>
</clipPath>
<clipPath id="clip-6">
<path clip-rule="nonzero" d="M 40.390625 3.1875 C 40.390625 1.535156 39.054688 0.199219 37.402344 0.199219 C 35.753906 0.199219 34.414062 1.535156 34.414062 3.1875 C 34.414062 4.839844 35.753906 6.175781 37.402344 6.175781 C 39.054688 6.175781 40.390625 4.839844 40.390625 3.1875 Z M 40.390625 3.1875 "/>
</clipPath>
<clipPath id="clip-7">
<path clip-rule="nonzero" d="M 27 0 L 67.167969 0 L 67.167969 26 L 27 26 Z M 27 0 "/>
</clipPath>
<clipPath id="clip-8">
<path clip-rule="nonzero" d="M 28 0 L 67.167969 0 L 67.167969 38 L 28 38 Z M 28 0 "/>
</clipPath>
<clipPath id="clip-9">
<path clip-rule="nonzero" d="M 64 1 L 67.167969 1 L 67.167969 5 L 64 5 Z M 64 1 "/>
</clipPath>
</defs>
<g clip-path="url(#clip-0)">
<g clip-path="url(#clip-1)">
<path fill="none" stroke-width="0.3985" stroke-linecap="butt" stroke-linejoin="miter" stroke="rgb(94.900513%, 55.683899%, 0%)" stroke-opacity="1" stroke-miterlimit="10" d="M 2.986969 39.532219 L -2.989594 45.508781 M -2.989594 39.532219 L 2.986969 45.508781 " transform="matrix(1, 0, 0, -1, 9.056, 45.708)"/>
</g>
</g>
<path fill="none" stroke-width="0.3985" stroke-linecap="butt" stroke-linejoin="miter" stroke="rgb(94.900513%, 55.683899%, 0%)" stroke-opacity="1" stroke-miterlimit="10" d="M 2.986969 42.5205 C 2.986969 44.172844 1.651031 45.508781 -0.0013125 45.508781 C -1.64975 45.508781 -2.989594 44.172844 -2.989594 42.5205 C -2.989594 40.868156 -1.64975 39.532219 -0.0013125 39.532219 C 1.651031 39.532219 2.986969 40.868156 2.986969 42.5205 Z M 2.986969 42.5205 " transform="matrix(1, 0, 0, -1, 9.056, 45.708)"/>
<g clip-path="url(#clip-2)">
<path fill="none" stroke-width="0.79701" stroke-linecap="butt" stroke-linejoin="miter" stroke="rgb(0%, 65.098572%, 92.156982%)" stroke-opacity="1" stroke-miterlimit="10" d="M -0.0013125 0.00096875 C -0.0013125 0.708 -1.415375 1.063469 -1.415375 1.7705 C -1.415375 2.286125 -0.723969 2.727531 -0.0013125 3.188469 C 0.72525 3.649406 1.416656 4.094719 1.416656 4.606438 C 1.416656 5.118156 0.72525 5.563469 -0.0013125 6.024406 C -0.723969 6.485344 -1.415375 6.92675 -1.415375 7.442375 C -1.415375 7.954094 -0.723969 8.3955 -0.0013125 8.856438 C 0.72525 9.321281 1.416656 9.762688 1.416656 10.274406 C 1.416656 10.790031 0.72525 11.231438 -0.0013125 11.692375 C -0.723969 12.153313 -1.415375 12.598625 -1.415375 13.110344 C -1.415375 13.622063 -0.723969 14.067375 -0.0013125 14.528313 C 0.72525 14.98925 1.416656 15.430656 1.416656 15.946281 C 1.416656 16.458 0.72525 16.899406 -0.0013125 17.360344 C -0.723969 17.825188 -1.415375 18.266594 -1.415375 18.778313 C -1.415375 19.293938 -0.723969 19.735344 -0.0013125 20.196281 C 0.72525 20.657219 1.416656 21.102531 1.416656 21.61425 C 1.416656 22.125969 0.72525 22.571281 -0.0013125 23.032219 C -0.723969 23.493156 -1.415375 23.934563 -1.415375 24.450188 C -1.415375 24.961906 -0.723969 25.403313 -0.0013125 25.868156 C 0.72525 26.329094 1.416656 26.7705 1.416656 27.282219 C 1.416656 27.797844 0.72525 28.23925 -0.0013125 28.700188 C -0.723969 29.161125 -1.415375 29.606438 -1.415375 30.118156 C -1.415375 30.629875 -0.723969 31.075188 -0.0013125 31.536125 C 0.72525 31.997063 1.416656 32.438469 1.416656 32.954094 C 1.416656 33.465813 0.72525 33.907219 -0.0013125 34.372063 C -0.723969 34.833 -1.415375 35.274406 -1.415375 35.786125 C -1.415375 36.497063 -0.0013125 36.852531 -0.0013125 37.559563 L -0.0013125 39.333 " transform="matrix(1, 0, 0, -1, 9.056, 45.708)"/>
</g>
<g clip-path="url(#clip-3)">
<path fill="none" stroke-width="9.96277" stroke-linecap="butt" stroke-linejoin="miter" stroke="rgb(0%, 65.098572%, 92.156982%)" stroke-opacity="1" stroke-miterlimit="10" d="M -0.00682812 21.419336 L 21.428719 0.00820313 L -0.00682812 -21.427344 " transform="matrix(0, -0.16, -0.16, 0, 9.056, 26.66297)"/>
</g>
<g clip-path="url(#clip-4)">
<path fill-rule="nonzero" fill="rgb(94.900513%, 55.683899%, 0%)" fill-opacity="1" d="M 10.472656 45.707031 C 10.472656 44.925781 9.839844 44.289062 9.054688 44.289062 C 8.273438 44.289062 7.636719 44.925781 7.636719 45.707031 C 7.636719 46.492188 8.273438 47.125 9.054688 47.125 C 9.839844 47.125 10.472656 46.492188 10.472656 45.707031 Z M 10.472656 45.707031 "/>
</g>
<g fill="rgb(0%, 0%, 0%)" fill-opacity="1">
<use xlink:href="#glyph-0-1" x="22.19" y="26.938"/>
</g>
<g clip-path="url(#clip-5)">
<g clip-path="url(#clip-6)">
<path fill="none" stroke-width="0.3985" stroke-linecap="butt" stroke-linejoin="miter" stroke="rgb(94.900513%, 55.683899%, 0%)" stroke-opacity="1" stroke-miterlimit="10" d="M 31.334625 39.532219 L 25.358062 45.508781 M 25.358062 39.532219 L 31.334625 45.508781 " transform="matrix(1, 0, 0, -1, 9.056, 45.708)"/>
</g>
</g>
<path fill="none" stroke-width="0.3985" stroke-linecap="butt" stroke-linejoin="miter" stroke="rgb(94.900513%, 55.683899%, 0%)" stroke-opacity="1" stroke-miterlimit="10" d="M 31.334625 42.5205 C 31.334625 44.172844 29.998687 45.508781 28.346344 45.508781 C 26.697906 45.508781 25.358062 44.172844 25.358062 42.5205 C 25.358062 40.868156 26.697906 39.532219 28.346344 39.532219 C 29.998687 39.532219 31.334625 40.868156 31.334625 42.5205 Z M 31.334625 42.5205 " transform="matrix(1, 0, 0, -1, 9.056, 45.708)"/>
<g clip-path="url(#clip-7)">
<path fill="none" stroke-width="0.79701" stroke-linecap="butt" stroke-linejoin="miter" stroke="rgb(0%, 65.098572%, 92.156982%)" stroke-opacity="1" stroke-miterlimit="10" d="M 56.694 42.5205 C 56.404938 41.872063 57.553375 40.969719 57.264313 40.325188 C 56.986969 39.891594 56.166656 39.8955 55.303375 39.899406 C 54.444 39.903313 53.623688 39.903313 53.346344 39.473625 C 52.979156 39.11425 53.147125 38.309563 53.322906 37.465813 C 53.498688 36.625969 53.666656 35.821281 53.299469 35.461906 C 52.865875 35.184563 52.119781 35.524406 51.338531 35.883781 C 50.557281 36.243156 49.811188 36.583 49.377594 36.305656 C 48.904938 36.106438 48.768219 35.297844 48.623688 34.450188 C 48.479156 33.602531 48.342438 32.790031 47.869781 32.590813 C 47.373688 32.469719 46.776031 33.032219 46.154938 33.625969 C 45.529938 34.219719 44.936188 34.786125 44.436188 34.661125 C 43.928375 34.61425 43.553375 33.883781 43.158844 33.118156 C 42.768219 32.352531 42.393219 31.622063 41.8815 31.575188 C 41.369781 31.602531 40.967438 32.317375 40.545563 33.067375 C 40.123688 33.813469 39.717438 34.528313 39.205719 34.559563 C 38.705719 34.665031 38.127594 34.083 37.522125 33.469719 C 36.916656 32.860344 36.338531 32.278313 35.838531 32.383781 C 35.361969 32.579094 35.217438 33.387688 35.065094 34.235344 C 34.91275 35.083 34.768219 35.887688 34.291656 36.083 C 33.217438 38.379875 32.1315 37.403313 31.541656 37.797844 L 29.940094 39.758781 " transform="matrix(1, 0, 0, -1, 9.056, 45.708)"/>
</g>
<g clip-path="url(#clip-8)">
<path fill="none" stroke-width="9.96277" stroke-linecap="butt" stroke-linejoin="miter" stroke="rgb(0%, 65.098572%, 92.156982%)" stroke-opacity="1" stroke-miterlimit="10" d="M 0.00534222 21.423162 L 21.416286 -0.00431148 L -0.0111873 -21.415255 " transform="matrix(-0.15967, -0.01006, -0.01006, 0.15967, 54.46637, 11.71223)"/>
</g>
<g clip-path="url(#clip-9)">
<path fill-rule="nonzero" fill="rgb(94.900513%, 55.683899%, 0%)" fill-opacity="1" d="M 67.167969 3.1875 C 67.167969 2.40625 66.53125 1.769531 65.75 1.769531 C 64.964844 1.769531 64.332031 2.40625 64.332031 3.1875 C 64.332031 3.96875 64.964844 4.605469 65.75 4.605469 C 66.53125 4.605469 67.167969 3.96875 67.167969 3.1875 Z M 67.167969 3.1875 "/>
</g>
<path fill-rule="nonzero" fill="rgb(100%, 100%, 100%)" fill-opacity="1" d="M 37.6875 45.707031 C 37.6875 45.550781 37.558594 45.425781 37.402344 45.425781 C 37.246094 45.425781 37.121094 45.550781 37.121094 45.707031 C 37.121094 45.863281 37.246094 45.992188 37.402344 45.992188 C 37.558594 45.992188 37.6875 45.863281 37.6875 45.707031 Z M 37.6875 45.707031 "/>
</svg>
