# Fdb version 3
["pdflatex"] 1664704445 "graphsRad3.tex" "graphsRad3.pdf" "graphsRad3" 1664704446
  "/dev/null" 0 -1 0 ""
  "/usr/share/texmf-dist/fonts/map/fontname/texfonts.map" 1650183167 3524 cb3e574dea2d1052e39280babc910dc8 ""
  "/usr/share/texmf-dist/fonts/tfm/public/amsfonts/cmextra/cmex7.tfm" 1650183167 1004 54797486969f23fa377b128694d548df ""
  "/usr/share/texmf-dist/fonts/type1/public/amsfonts/cm/cmmi10.pfb" 1650183167 36299 5f9df58c2139e7edcf37c8fca4bd384d ""
  "/usr/share/texmf-dist/fonts/type1/public/amsfonts/cm/cmr10.pfb" 1650183167 35752 024fb6c41858982481f6968b5fc26508 ""
  "/usr/share/texmf-dist/tex/context/base/mkii/supp-pdf.mkii" 1650183167 71627 94eb9990bed73c364d7f53f960cc8c5b ""
  "/usr/share/texmf-dist/tex/generic/iftex/ifluatex.sty" 1650183167 492 1994775aa15b0d1289725a0b1bbc2d4c ""
  "/usr/share/texmf-dist/tex/generic/iftex/iftex.sty" 1650183167 7237 bdd120a32c8fdb4b433cf9ca2e7cd98a ""
  "/usr/share/texmf-dist/tex/generic/infwarerr/infwarerr.sty" 1650183167 8356 7bbb2c2373aa810be568c29e333da8ed ""
  "/usr/share/texmf-dist/tex/generic/ltxcmds/ltxcmds.sty" 1650183167 17859 4409f8f50cd365c68e684407e5350b1b ""
  "/usr/share/texmf-dist/tex/generic/pdftexcmds/pdftexcmds.sty" 1650183167 20089 80423eac55aa175305d35b49e04fe23b ""
  "/usr/share/texmf-dist/tex/generic/pgf/basiclayer/pgfcore.code.tex" 1650183167 992 855ff26741653ab54814101ca36e153c ""
  "/usr/share/texmf-dist/tex/generic/pgf/basiclayer/pgfcorearrows.code.tex" 1650183167 43820 1fef971b75380574ab35a0d37fd92608 ""
  "/usr/share/texmf-dist/tex/generic/pgf/basiclayer/pgfcoreexternal.code.tex" 1650183167 19324 f4e4c6403dd0f1605fd20ed22fa79dea ""
  "/usr/share/texmf-dist/tex/generic/pgf/basiclayer/pgfcoregraphicstate.code.tex" 1650183167 6038 ccb406740cc3f03bbfb58ad504fe8c27 ""
  "/usr/share/texmf-dist/tex/generic/pgf/basiclayer/pgfcoreimage.code.tex" 1650183167 6944 e12f8f7a7364ddf66f93ba30fb3a3742 ""
  "/usr/share/texmf-dist/tex/generic/pgf/basiclayer/pgfcorelayers.code.tex" 1650183167 4883 42daaf41e27c3735286e23e48d2d7af9 ""
  "/usr/share/texmf-dist/tex/generic/pgf/basiclayer/pgfcoreobjects.code.tex" 1650183167 2544 8c06d2a7f0f469616ac9e13db6d2f842 ""
  "/usr/share/texmf-dist/tex/generic/pgf/basiclayer/pgfcorepathconstruct.code.tex" 1650183167 44195 5e390c414de027626ca5e2df888fa68d ""
  "/usr/share/texmf-dist/tex/generic/pgf/basiclayer/pgfcorepathprocessing.code.tex" 1650183167 17311 2ef6b2e29e2fc6a2fc8d6d652176e257 ""
  "/usr/share/texmf-dist/tex/generic/pgf/basiclayer/pgfcorepathusage.code.tex" 1650183167 21302 788a79944eb22192a4929e46963a3067 ""
  "/usr/share/texmf-dist/tex/generic/pgf/basiclayer/pgfcorepatterns.code.tex" 1650183167 9690 01feb7cde25d4293ef36eef45123eb80 ""
  "/usr/share/texmf-dist/tex/generic/pgf/basiclayer/pgfcorepoints.code.tex" 1650183167 33335 dd1fa4814d4e51f18be97d88bf0da60c ""
  "/usr/share/texmf-dist/tex/generic/pgf/basiclayer/pgfcorequick.code.tex" 1650183167 2965 4c2b1f4e0826925746439038172e5d6f ""
  "/usr/share/texmf-dist/tex/generic/pgf/basiclayer/pgfcorerdf.code.tex" 1650183167 5196 2cc249e0ee7e03da5f5f6589257b1e5b ""
  "/usr/share/texmf-dist/tex/generic/pgf/basiclayer/pgfcorescopes.code.tex" 1650183167 20726 d4c8db1e2e53b72721d29916314a22ea ""
  "/usr/share/texmf-dist/tex/generic/pgf/basiclayer/pgfcoreshade.code.tex" 1650183167 35249 abd4adf948f960299a4b3d27c5dddf46 ""
  "/usr/share/texmf-dist/tex/generic/pgf/basiclayer/pgfcoretransformations.code.tex" 1650183167 21989 fdc867d05d228316de137a9fc5ec3bbe ""
  "/usr/share/texmf-dist/tex/generic/pgf/basiclayer/pgfcoretransparency.code.tex" 1650183167 8893 e851de2175338fdf7c17f3e091d94618 ""
  "/usr/share/texmf-dist/tex/generic/pgf/frontendlayer/tikz/libraries/tikzexternalshared.code.tex" 1650183167 68833 649cd89337897417a6195403a12daaae ""
  "/usr/share/texmf-dist/tex/generic/pgf/frontendlayer/tikz/libraries/tikzlibraryarrows.code.tex" 1650183167 319 225dfe354ba678ff3c194968db39d447 ""
  "/usr/share/texmf-dist/tex/generic/pgf/frontendlayer/tikz/libraries/tikzlibrarycalc.code.tex" 1650183167 15929 463535aa2c4268fead6674a75c0e8266 ""
  "/usr/share/texmf-dist/tex/generic/pgf/frontendlayer/tikz/libraries/tikzlibrarydecorations.code.tex" 1650183167 5493 23e371e6fe3e7e42533d6d6c15662e0d ""
  "/usr/share/texmf-dist/tex/generic/pgf/frontendlayer/tikz/libraries/tikzlibrarydecorations.markings.code.tex" 1650183167 788 fb28645a91ec7448ebe79bee60965a88 ""
  "/usr/share/texmf-dist/tex/generic/pgf/frontendlayer/tikz/libraries/tikzlibrarydecorations.pathmorphing.code.tex" 1650183167 321 cdd11262840e01e25374a2d458f15e99 ""
  "/usr/share/texmf-dist/tex/generic/pgf/frontendlayer/tikz/libraries/tikzlibrarydecorations.pathreplacing.code.tex" 1650183167 1319 0b2de5126c6cbc295f0eb77f7344b34d ""
  "/usr/share/texmf-dist/tex/generic/pgf/frontendlayer/tikz/libraries/tikzlibraryfadings.code.tex" 1650183167 1179 5483d86c1582c569e665c74efab6281f ""
  "/usr/share/texmf-dist/tex/generic/pgf/frontendlayer/tikz/libraries/tikzlibraryfixedpointarithmetic.code.tex" 1650183167 276 28500fee385c32be10c2ae84e45085dc ""
  "/usr/share/texmf-dist/tex/generic/pgf/frontendlayer/tikz/libraries/tikzlibrarypatterns.code.tex" 1650183167 770 82e332cc9cc48e06b8070d74393a185a ""
  "/usr/share/texmf-dist/tex/generic/pgf/frontendlayer/tikz/libraries/tikzlibrarypositioning.code.tex" 1650183167 3937 3f208572dd82c71103831da976d74f1a ""
  "/usr/share/texmf-dist/tex/generic/pgf/frontendlayer/tikz/libraries/tikzlibrarytopaths.code.tex" 1650183167 11518 738408f795261b70ce8dd47459171309 ""
  "/usr/share/texmf-dist/tex/generic/pgf/frontendlayer/tikz/tikz.code.tex" 1650183167 186007 6e7dfe0bd57520fd5f91641aa72dcac8 ""
  "/usr/share/texmf-dist/tex/generic/pgf/libraries/decorations/pgflibrarydecorations.markings.code.tex" 1650183167 5220 c70346acb7ff99702098460fd6c18993 ""
  "/usr/share/texmf-dist/tex/generic/pgf/libraries/decorations/pgflibrarydecorations.pathmorphing.code.tex" 1650183167 8843 5533436db3e30fbad1e0440db6027dac ""
  "/usr/share/texmf-dist/tex/generic/pgf/libraries/decorations/pgflibrarydecorations.pathreplacing.code.tex" 1650183167 7474 f05a7223b140f230922562ac6a9fede5 ""
  "/usr/share/texmf-dist/tex/generic/pgf/libraries/pgflibraryarrows.code.tex" 1650183167 31874 89148c383c49d4c72114a76fd0062299 ""
  "/usr/share/texmf-dist/tex/generic/pgf/libraries/pgflibraryarrows.meta.code.tex" 1650183167 58801 1e750fb0692eb99aaac45698bbec96b1 ""
  "/usr/share/texmf-dist/tex/generic/pgf/libraries/pgflibraryfadings.code.tex" 1650183167 2563 d5b174eb7709fd6bdcc2f70953dbdf8e ""
  "/usr/share/texmf-dist/tex/generic/pgf/libraries/pgflibraryfixedpointarithmetic.code.tex" 1650183167 15631 4fb2bb7afd28df2df99f74c13a68aaa9 ""
  "/usr/share/texmf-dist/tex/generic/pgf/libraries/pgflibrarypatterns.code.tex" 1650183167 7936 49e55444d57eb69a380c6baa35094828 ""
  "/usr/share/texmf-dist/tex/generic/pgf/libraries/pgflibraryplothandlers.code.tex" 1650183167 32995 ac577023e12c0e4bd8aa420b2e852d1a ""
  "/usr/share/texmf-dist/tex/generic/pgf/math/pgfint.code.tex" 1650183167 3063 8c415c68a0f3394e45cfeca0b65f6ee6 ""
  "/usr/share/texmf-dist/tex/generic/pgf/math/pgfmath.code.tex" 1650183167 521 8e224a7af69b7fee4451d1bf76b46654 ""
  "/usr/share/texmf-dist/tex/generic/pgf/math/pgfmathcalc.code.tex" 1650183167 13391 84d29568c13bdce4133ab4a214711112 ""
  "/usr/share/texmf-dist/tex/generic/pgf/math/pgfmathfloat.code.tex" 1650183167 104935 184ed87524e76d4957860df4ce0cd1c3 ""
  "/usr/share/texmf-dist/tex/generic/pgf/math/pgfmathfunctions.base.code.tex" 1650183167 10165 cec5fa73d49da442e56efc2d605ef154 ""
  "/usr/share/texmf-dist/tex/generic/pgf/math/pgfmathfunctions.basic.code.tex" 1650183167 28178 41c17713108e0795aac6fef3d275fbca ""
  "/usr/share/texmf-dist/tex/generic/pgf/math/pgfmathfunctions.code.tex" 1650183167 9989 c55967bf45126ff9b061fa2ca0c4694f ""
  "/usr/share/texmf-dist/tex/generic/pgf/math/pgfmathfunctions.comparison.code.tex" 1650183167 3865 ac538ab80c5cf82b345016e474786549 ""
  "/usr/share/texmf-dist/tex/generic/pgf/math/pgfmathfunctions.integerarithmetics.code.tex" 1650183167 3177 27d85c44fbfe09ff3b2cf2879e3ea434 ""
  "/usr/share/texmf-dist/tex/generic/pgf/math/pgfmathfunctions.misc.code.tex" 1650183167 11024 0179538121bc2dba172013a3ef89519f ""
  "/usr/share/texmf-dist/tex/generic/pgf/math/pgfmathfunctions.random.code.tex" 1650183167 7854 4176998eeefd8745ac6d2d4bd9c98451 ""
  "/usr/share/texmf-dist/tex/generic/pgf/math/pgfmathfunctions.round.code.tex" 1650183167 3379 781797a101f647bab82741a99944a229 ""
  "/usr/share/texmf-dist/tex/generic/pgf/math/pgfmathfunctions.trigonometric.code.tex" 1650183167 92405 f515f31275db273f97b9d8f52e1b0736 ""
  "/usr/share/texmf-dist/tex/generic/pgf/math/pgfmathparser.code.tex" 1650183167 37376 11cd75aac3da1c1b152b2848f30adc14 ""
  "/usr/share/texmf-dist/tex/generic/pgf/math/pgfmathutil.code.tex" 1650183167 8471 c2883569d03f69e8e1cabfef4999cfd7 ""
  "/usr/share/texmf-dist/tex/generic/pgf/modules/pgfmoduledecorations.code.tex" 1650183167 71722 aa25655703db0306f6401798e312b7b8 ""
  "/usr/share/texmf-dist/tex/generic/pgf/modules/pgfmodulematrix.code.tex" 1650183167 21201 08d231a2386e2b61d64641c50dc15abd ""
  "/usr/share/texmf-dist/tex/generic/pgf/modules/pgfmoduleplot.code.tex" 1650183167 16121 346f9013d34804439f7436ff6786cef7 ""
  "/usr/share/texmf-dist/tex/generic/pgf/modules/pgfmoduleshapes.code.tex" 1650183167 44784 cedaa399d15f95e68e22906e2cc09ef8 ""
  "/usr/share/texmf-dist/tex/generic/pgf/pgf.revision.tex" 1650183167 465 d68603f8b820ea4a08cce534944db581 ""
  "/usr/share/texmf-dist/tex/generic/pgf/systemlayer/pgf.cfg" 1650183167 926 2963ea0dcf6cc6c0a770b69ec46a477b ""
  "/usr/share/texmf-dist/tex/generic/pgf/systemlayer/pgfsys-common-pdf.def" 1650183167 5546 f3f24d7898386cb7daac70bdd2c4d6dc ""
  "/usr/share/texmf-dist/tex/generic/pgf/systemlayer/pgfsys-pdftex.def" 1650183167 12601 4786e597516eddd82097506db7cfa098 ""
  "/usr/share/texmf-dist/tex/generic/pgf/systemlayer/pgfsys.code.tex" 1650183167 61163 9b2eefc24e021323e0fc140e9826d016 ""
  "/usr/share/texmf-dist/tex/generic/pgf/systemlayer/pgfsysprotocol.code.tex" 1650183167 1896 b8e0ca0ac371d74c0ca05583f6313c91 ""
  "/usr/share/texmf-dist/tex/generic/pgf/systemlayer/pgfsyssoftpath.code.tex" 1650183167 7778 53c8b5623d80238f6a20aa1df1868e63 ""
  "/usr/share/texmf-dist/tex/generic/pgf/utilities/pgffor.code.tex" 1650183167 23997 a4bed72405fa644418bea7eac2887006 ""
  "/usr/share/texmf-dist/tex/generic/pgf/utilities/pgfkeys.code.tex" 1650183167 37060 797782f0eb50075c9bc952374d9a659a ""
  "/usr/share/texmf-dist/tex/generic/pgf/utilities/pgfkeysfiltered.code.tex" 1650183167 37431 9abe862035de1b29c7a677f3205e3d9f ""
  "/usr/share/texmf-dist/tex/generic/pgf/utilities/pgfrcs.code.tex" 1650183167 4494 af17fb7efeafe423710479858e42fa7e ""
  "/usr/share/texmf-dist/tex/generic/pgf/utilities/pgfutil-common-lists.tex" 1650183167 7251 fb18c67117e09c64de82267e12cd8aa4 ""
  "/usr/share/texmf-dist/tex/generic/pgf/utilities/pgfutil-common.tex" 1650183167 29274 e15c5b7157d21523bd9c9f1dfa146b8e ""
  "/usr/share/texmf-dist/tex/generic/pgf/utilities/pgfutil-latex.def" 1650183167 6825 a2b0ea5b539dda0625e99dd15785ab59 ""
  "/usr/share/texmf-dist/tex/generic/xkeyval/keyval.tex" 1650183167 2725 9f5d0b27f1f9a620c6ea983d6d41501d ""
  "/usr/share/texmf-dist/tex/generic/xkeyval/xkeyval.tex" 1650183167 19231 3cbf682090baecad8e17a66b7a271ed1 ""
  "/usr/share/texmf-dist/tex/generic/xkeyval/xkvutils.tex" 1650183167 7677 cf3e6aa6a8d444f55327f61df80bfa0c ""
  "/usr/share/texmf-dist/tex/latex/amsmath/amsbsy.sty" 1650183167 2222 da905dc1db75412efd2d8f67739f0596 ""
  "/usr/share/texmf-dist/tex/latex/amsmath/amsgen.sty" 1650183167 4173 bc0410bcccdff806d6132d3c1ef35481 ""
  "/usr/share/texmf-dist/tex/latex/amsmath/amsmath.sty" 1650183167 87648 07fbb6e9169e00cb2a2f40b31b2dbf3c ""
  "/usr/share/texmf-dist/tex/latex/amsmath/amsopn.sty" 1650183167 4128 8eea906621b6639f7ba476a472036bbe ""
  "/usr/share/texmf-dist/tex/latex/amsmath/amstext.sty" 1650183167 2444 926f379cc60fcf0c6e3fee2223b4370d ""
  "/usr/share/texmf-dist/tex/latex/atveryend/atveryend.sty" 1650183167 19336 ce7ae9438967282886b3b036cfad1e4d ""
  "/usr/share/texmf-dist/tex/latex/base/article.cls" 1650183167 20144 8a7de377ae7a11ee924a7499611f5a9d ""
  "/usr/share/texmf-dist/tex/latex/base/atveryend-ltx.sty" 1650183167 2462 754d6b31b2ab5a09bb72c348ace2ec75 ""
  "/usr/share/texmf-dist/tex/latex/base/size10.clo" 1650183167 8448 96f18c76bf608a36ee6fbf021ac1dd32 ""
  "/usr/share/texmf-dist/tex/latex/epstopdf-pkg/epstopdf-base.sty" 1650183167 13886 d1306dcf79a944f6988e688c1785f9ce ""
  "/usr/share/texmf-dist/tex/latex/fp/defpattern.sty" 1650183167 1081 6a8d78d0e6b2d89334f92fd122c1da99 ""
  "/usr/share/texmf-dist/tex/latex/fp/fp-addons.sty" 1650183167 1275 fe903646b72b3e877914d78f2db9ddda ""
  "/usr/share/texmf-dist/tex/latex/fp/fp-basic.sty" 1650183167 29695 b6366b50463dfb367cf560419d0cea8d ""
  "/usr/share/texmf-dist/tex/latex/fp/fp-eqn.sty" 1650183167 11336 afed7aa5dbc4bf246950282b95e522c2 ""
  "/usr/share/texmf-dist/tex/latex/fp/fp-eval.sty" 1650183167 6220 eeeffd00d1235e73c380c6dc9f30ac43 ""
  "/usr/share/texmf-dist/tex/latex/fp/fp-exp.sty" 1650183167 16965 df20a610ce368cd126fd73d1a4e4fef1 ""
  "/usr/share/texmf-dist/tex/latex/fp/fp-pas.sty" 1650183167 3006 6fd5da0dc83ba1d19525f1fb08dca7df ""
  "/usr/share/texmf-dist/tex/latex/fp/fp-random.sty" 1650183167 3702 6e54ac63212901d59e6ea2a32b0a7689 ""
  "/usr/share/texmf-dist/tex/latex/fp/fp-snap.sty" 1650183167 6519 c1e5d3c6aed32ba782f756d79578d87b ""
  "/usr/share/texmf-dist/tex/latex/fp/fp-trigo.sty" 1650183167 28969 342a2de338e342de95d2551557e50f06 ""
  "/usr/share/texmf-dist/tex/latex/fp/fp-upn.sty" 1650183167 7154 78a835a719e27a484e63f1f98ba4df11 ""
  "/usr/share/texmf-dist/tex/latex/fp/fp.sty" 1650183167 983 d84df22b060ce125f89a32c403dcab31 ""
  "/usr/share/texmf-dist/tex/latex/graphics-cfg/color.cfg" 1650183167 1213 620bba36b25224fa9b7e1ccb4ecb76fd ""
  "/usr/share/texmf-dist/tex/latex/graphics-cfg/graphics.cfg" 1650183167 1224 978390e9c2234eab29404bc21b268d1e ""
  "/usr/share/texmf-dist/tex/latex/graphics-def/pdftex.def" 1650183167 19103 48d29b6e2a64cb717117ef65f107b404 ""
  "/usr/share/texmf-dist/tex/latex/graphics/graphics.sty" 1650183167 18399 7e40f80366dffb22c0e7b70517db5cb4 ""
  "/usr/share/texmf-dist/tex/latex/graphics/graphicx.sty" 1650183167 7996 a8fb260d598dcaf305a7ae7b9c3e3229 ""
  "/usr/share/texmf-dist/tex/latex/graphics/keyval.sty" 1650183167 2671 4de6781a30211fe0ea4c672e4a2a8166 ""
  "/usr/share/texmf-dist/tex/latex/graphics/trig.sty" 1650183167 4009 187ea2dc3194cd5a76cd99a8d7a6c4d0 ""
  "/usr/share/texmf-dist/tex/latex/l3backend/l3backend-pdftex.def" 1650183167 31644 9b75b7ffdb38fbd7bb4502cd6b086a3c ""
  "/usr/share/texmf-dist/tex/latex/latexconfig/epstopdf-sys.cfg" 1650183167 678 4792914a8f45be57bb98413425e4c7af ""
  "/usr/share/texmf-dist/tex/latex/pgf/basiclayer/pgf.sty" 1650183167 1090 bae35ef70b3168089ef166db3e66f5b2 ""
  "/usr/share/texmf-dist/tex/latex/pgf/basiclayer/pgfcore.sty" 1650183167 410 615550c46f918fcbee37641b02a862d9 ""
  "/usr/share/texmf-dist/tex/latex/pgf/compatibility/pgfcomp-version-0-65.sty" 1650183167 21013 f4ff83d25bb56552493b030f27c075ae ""
  "/usr/share/texmf-dist/tex/latex/pgf/compatibility/pgfcomp-version-1-18.sty" 1650183167 989 c49c8ae06d96f8b15869da7428047b1e ""
  "/usr/share/texmf-dist/tex/latex/pgf/frontendlayer/libraries/tikzlibraryexternal.code.tex" 1650183167 4100 52e445a0af8f107c6a1d45e13bc2d417 ""
  "/usr/share/texmf-dist/tex/latex/pgf/frontendlayer/tikz.sty" 1650183167 339 c2e180022e3afdb99c7d0ea5ce469b7d ""
  "/usr/share/texmf-dist/tex/latex/pgf/math/pgfmath.sty" 1650183167 306 c56a323ca5bf9242f54474ced10fca71 ""
  "/usr/share/texmf-dist/tex/latex/pgf/systemlayer/pgfsys.sty" 1650183167 443 8c872229db56122037e86bcda49e14f3 ""
  "/usr/share/texmf-dist/tex/latex/pgf/utilities/pgffor.sty" 1650183167 348 ee405e64380c11319f0e249fed57e6c5 ""
  "/usr/share/texmf-dist/tex/latex/pgf/utilities/pgfkeys.sty" 1650183167 274 5ae372b7df79135d240456a1c6f2cf9a ""
  "/usr/share/texmf-dist/tex/latex/pgf/utilities/pgfrcs.sty" 1650183167 325 f9f16d12354225b7dd52a3321f085955 ""
  "/usr/share/texmf-dist/tex/latex/preview/preview.sty" 1650181202 14284 33875263c1014adf16559cae4ff4b8a3 ""
  "/usr/share/texmf-dist/tex/latex/standalone/standalone.cfg" 1650181202 1015 662b4d7ad816b857a598284525f5c75e ""
  "/usr/share/texmf-dist/tex/latex/standalone/standalone.cls" 1650181202 28890 df75e6d37f47b7e27bff3f37375336b3 ""
  "/usr/share/texmf-dist/tex/latex/tools/shellesc.sty" 1650183167 4118 0f286eca74ee36b7743ff20320e5479f ""
  "/usr/share/texmf-dist/tex/latex/xcolor/xcolor.sty" 1650183167 56029 3f7889dab51d620aa43177c391b7b190 ""
  "/usr/share/texmf-dist/tex/latex/xkeyval/xkeyval.sty" 1650183167 4902 efb3d66683a2da2a232f71e3a571a899 ""
  "/usr/share/texmf-dist/web2c/texmf.cnf" 1650183167 39911 2da6c67557ec033436fe5418a70a8a61 ""
  "/var/lib/texmf/fonts/map/pdftex/updmap/pdftex.map" 1652774233 4408072 42ceaa83bae76aebad711d3f3dd7f55f ""
  "/var/lib/texmf/web2c/pdftex/pdflatex.fmt" 1652774202 2927658 ce0db4867f51136653068fa2cb46aa01 ""
  "gTikZBeamer.tex" 1664703201 50401 e538f821aabf13bc4e2c3bc118da94e0 ""
  "graphsRad3.aux" 1664704446 32 3985256e7290058c681f74d7a3565a19 "pdflatex"
  "graphsRad3.tex" 1664704445 7962 f322b07028db8672f825e3ab89e10faa ""
  (generated)
  "graphsRad3.aux"
  "graphsRad3.log"
  "graphsRad3.pdf"
