PWD /home/gigi/Documents/talks/2023_grampa/figures
INPUT /usr/share/texmf-dist/web2c/texmf.cnf
INPUT /var/lib/texmf/web2c/pdftex/pdflatex.fmt
INPUT main.tex
OUTPUT main.log
INPUT /usr/share/texmf-dist/tex/latex/standalone/standalone.cls
INPUT /usr/share/texmf-dist/tex/latex/standalone/standalone.cls
INPUT /usr/share/texmf-dist/tex/latex/standalone/standalone.cls
INPUT /usr/share/texmf-dist/tex/latex/standalone/standalone.cls
INPUT /usr/share/texmf-dist/tex/latex/standalone/standalone.cls
INPUT /usr/share/texmf-dist/tex/latex/standalone/standalone.cls
INPUT /usr/share/texmf-dist/tex/latex/standalone/standalone.cls
INPUT /usr/share/texmf-dist/tex/latex/standalone/standalone.cls
INPUT /usr/share/texmf-dist/tex/latex/standalone/standalone.cls
INPUT /usr/share/texmf-dist/tex/latex/standalone/standalone.cls
INPUT /usr/share/texmf-dist/tex/latex/standalone/standalone.cls
INPUT /usr/share/texmf-dist/tex/latex/tools/shellesc.sty
INPUT /usr/share/texmf-dist/tex/latex/tools/shellesc.sty
INPUT /usr/share/texmf-dist/tex/latex/tools/shellesc.sty
INPUT /usr/share/texmf-dist/tex/latex/tools/shellesc.sty
INPUT /usr/share/texmf-dist/tex/latex/tools/shellesc.sty
INPUT /usr/share/texmf-dist/tex/latex/tools/shellesc.sty
INPUT /usr/share/texmf-dist/tex/latex/tools/shellesc.sty
INPUT /usr/share/texmf-dist/tex/latex/tools/shellesc.sty
INPUT /usr/share/texmf-dist/tex/latex/tools/shellesc.sty
INPUT /usr/share/texmf-dist/tex/latex/tools/shellesc.sty
INPUT /usr/share/texmf-dist/tex/latex/tools/shellesc.sty
INPUT /usr/share/texmf-dist/tex/latex/tools/shellesc.sty
INPUT /usr/share/texmf-dist/tex/latex/tools/shellesc.sty
INPUT /usr/share/texmf-dist/tex/generic/iftex/ifluatex.sty
INPUT /usr/share/texmf-dist/tex/generic/iftex/ifluatex.sty
INPUT /usr/share/texmf-dist/tex/generic/iftex/ifluatex.sty
INPUT /usr/share/texmf-dist/tex/generic/iftex/ifluatex.sty
INPUT /usr/share/texmf-dist/tex/generic/iftex/ifluatex.sty
INPUT /usr/share/texmf-dist/tex/generic/iftex/ifluatex.sty
INPUT /usr/share/texmf-dist/tex/generic/iftex/ifluatex.sty
INPUT /usr/share/texmf-dist/tex/generic/iftex/ifluatex.sty
INPUT /usr/share/texmf-dist/tex/generic/iftex/ifluatex.sty
INPUT /usr/share/texmf-dist/tex/generic/iftex/ifluatex.sty
INPUT /usr/share/texmf-dist/tex/generic/iftex/ifluatex.sty
INPUT /usr/share/texmf-dist/tex/generic/iftex/ifluatex.sty
INPUT /usr/share/texmf-dist/tex/generic/iftex/ifluatex.sty
INPUT /usr/share/texmf-dist/tex/generic/iftex/iftex.sty
INPUT /usr/share/texmf-dist/tex/generic/iftex/iftex.sty
INPUT /usr/share/texmf-dist/tex/generic/iftex/iftex.sty
INPUT /usr/share/texmf-dist/tex/generic/iftex/iftex.sty
INPUT /usr/share/texmf-dist/tex/generic/iftex/iftex.sty
INPUT /usr/share/texmf-dist/tex/generic/iftex/iftex.sty
INPUT /usr/share/texmf-dist/tex/generic/iftex/iftex.sty
INPUT /usr/share/texmf-dist/tex/generic/iftex/iftex.sty
INPUT /usr/share/texmf-dist/tex/generic/iftex/iftex.sty
INPUT /usr/share/texmf-dist/tex/generic/iftex/iftex.sty
INPUT /usr/share/texmf-dist/tex/generic/iftex/iftex.sty
INPUT /usr/share/texmf-dist/tex/latex/xkeyval/xkeyval.sty
INPUT /usr/share/texmf-dist/tex/latex/xkeyval/xkeyval.sty
INPUT /usr/share/texmf-dist/tex/latex/xkeyval/xkeyval.sty
INPUT /usr/share/texmf-dist/tex/latex/xkeyval/xkeyval.sty
INPUT /usr/share/texmf-dist/tex/latex/xkeyval/xkeyval.sty
INPUT /usr/share/texmf-dist/tex/latex/xkeyval/xkeyval.sty
INPUT /usr/share/texmf-dist/tex/latex/xkeyval/xkeyval.sty
INPUT /usr/share/texmf-dist/tex/latex/xkeyval/xkeyval.sty
INPUT /usr/share/texmf-dist/tex/latex/xkeyval/xkeyval.sty
INPUT /usr/share/texmf-dist/tex/latex/xkeyval/xkeyval.sty
INPUT /usr/share/texmf-dist/tex/latex/xkeyval/xkeyval.sty
INPUT /usr/share/texmf-dist/tex/generic/xkeyval/xkeyval.tex
INPUT /usr/share/texmf-dist/tex/generic/xkeyval/xkvutils.tex
INPUT /usr/share/texmf-dist/tex/generic/xkeyval/keyval.tex
INPUT /dev/null
INPUT /dev/null
INPUT /dev/null
INPUT /usr/share/texmf-dist/tex/latex/standalone/standalone.cfg
INPUT /usr/share/texmf-dist/tex/latex/standalone/standalone.cfg
INPUT /usr/share/texmf-dist/tex/latex/standalone/standalone.cfg
INPUT /usr/share/texmf-dist/tex/latex/standalone/standalone.cfg
INPUT /usr/share/texmf-dist/tex/latex/preview/preview.sty
INPUT /usr/share/texmf-dist/tex/latex/preview/preview.sty
INPUT /usr/share/texmf-dist/tex/latex/base/article.cls
INPUT /usr/share/texmf-dist/tex/latex/base/article.cls
INPUT /usr/share/texmf-dist/tex/latex/base/article.cls
INPUT /usr/share/texmf-dist/tex/latex/base/article.cls
INPUT /usr/share/texmf-dist/tex/latex/base/article.cls
INPUT /usr/share/texmf-dist/tex/latex/base/article.cls
INPUT /usr/share/texmf-dist/tex/latex/base/article.cls
INPUT /usr/share/texmf-dist/tex/latex/base/article.cls
INPUT /usr/share/texmf-dist/tex/latex/base/article.cls
INPUT /usr/share/texmf-dist/tex/latex/base/article.cls
INPUT /usr/share/texmf-dist/tex/latex/base/article.cls
INPUT /usr/share/texmf-dist/tex/latex/base/size10.clo
INPUT /usr/share/texmf-dist/tex/latex/base/size10.clo
INPUT /usr/share/texmf-dist/tex/latex/base/size10.clo
INPUT /usr/share/texmf-dist/tex/latex/base/size10.clo
INPUT /usr/share/texmf-dist/tex/latex/pgf/frontendlayer/tikz.sty
INPUT /usr/share/texmf-dist/tex/latex/pgf/frontendlayer/tikz.sty
INPUT /usr/share/texmf-dist/tex/latex/pgf/frontendlayer/tikz.sty
INPUT /usr/share/texmf-dist/tex/latex/pgf/frontendlayer/tikz.sty
INPUT /usr/share/texmf-dist/tex/latex/pgf/frontendlayer/tikz.sty
INPUT /usr/share/texmf-dist/tex/latex/pgf/frontendlayer/tikz.sty
INPUT /usr/share/texmf-dist/tex/latex/pgf/frontendlayer/tikz.sty
INPUT /usr/share/texmf-dist/tex/latex/pgf/frontendlayer/tikz.sty
INPUT /usr/share/texmf-dist/tex/latex/pgf/frontendlayer/tikz.sty
INPUT /usr/share/texmf-dist/tex/latex/pgf/frontendlayer/tikz.sty
INPUT /usr/share/texmf-dist/tex/latex/pgf/frontendlayer/tikz.sty
INPUT /usr/share/texmf-dist/tex/latex/pgf/basiclayer/pgf.sty
INPUT /usr/share/texmf-dist/tex/latex/pgf/basiclayer/pgf.sty
INPUT /usr/share/texmf-dist/tex/latex/pgf/basiclayer/pgf.sty
INPUT /usr/share/texmf-dist/tex/latex/pgf/basiclayer/pgf.sty
INPUT /usr/share/texmf-dist/tex/latex/pgf/basiclayer/pgf.sty
INPUT /usr/share/texmf-dist/tex/latex/pgf/basiclayer/pgf.sty
INPUT /usr/share/texmf-dist/tex/latex/pgf/basiclayer/pgf.sty
INPUT /usr/share/texmf-dist/tex/latex/pgf/basiclayer/pgf.sty
INPUT /usr/share/texmf-dist/tex/latex/pgf/basiclayer/pgf.sty
INPUT /usr/share/texmf-dist/tex/latex/pgf/basiclayer/pgf.sty
INPUT /usr/share/texmf-dist/tex/latex/pgf/basiclayer/pgf.sty
INPUT /usr/share/texmf-dist/tex/latex/pgf/utilities/pgfrcs.sty
INPUT /usr/share/texmf-dist/tex/latex/pgf/utilities/pgfrcs.sty
INPUT /usr/share/texmf-dist/tex/latex/pgf/utilities/pgfrcs.sty
INPUT /usr/share/texmf-dist/tex/latex/pgf/utilities/pgfrcs.sty
INPUT /usr/share/texmf-dist/tex/latex/pgf/utilities/pgfrcs.sty
INPUT /usr/share/texmf-dist/tex/latex/pgf/utilities/pgfrcs.sty
INPUT /usr/share/texmf-dist/tex/latex/pgf/utilities/pgfrcs.sty
INPUT /usr/share/texmf-dist/tex/latex/pgf/utilities/pgfrcs.sty
INPUT /usr/share/texmf-dist/tex/latex/pgf/utilities/pgfrcs.sty
INPUT /usr/share/texmf-dist/tex/latex/pgf/utilities/pgfrcs.sty
INPUT /usr/share/texmf-dist/tex/latex/pgf/utilities/pgfrcs.sty
INPUT /usr/share/texmf-dist/tex/generic/pgf/utilities/pgfutil-common.tex
INPUT /usr/share/texmf-dist/tex/generic/pgf/utilities/pgfutil-latex.def
INPUT /usr/share/texmf-dist/tex/generic/pgf/utilities/pgfrcs.code.tex
INPUT /usr/share/texmf-dist/tex/generic/pgf/utilities/pgfrcs.code.tex
INPUT /usr/share/texmf-dist/tex/generic/pgf/utilities/pgfrcs.code.tex
INPUT /usr/share/texmf-dist/tex/generic/pgf/utilities/pgfrcs.code.tex
INPUT /usr/share/texmf-dist/tex/generic/pgf/pgf.revision.tex
INPUT /usr/share/texmf-dist/tex/generic/pgf/pgf.revision.tex
INPUT /usr/share/texmf-dist/tex/latex/pgf/basiclayer/pgfcore.sty
INPUT /usr/share/texmf-dist/tex/latex/pgf/basiclayer/pgfcore.sty
INPUT /usr/share/texmf-dist/tex/latex/pgf/basiclayer/pgfcore.sty
INPUT /usr/share/texmf-dist/tex/latex/pgf/basiclayer/pgfcore.sty
INPUT /usr/share/texmf-dist/tex/latex/pgf/basiclayer/pgfcore.sty
INPUT /usr/share/texmf-dist/tex/latex/pgf/basiclayer/pgfcore.sty
INPUT /usr/share/texmf-dist/tex/latex/pgf/basiclayer/pgfcore.sty
INPUT /usr/share/texmf-dist/tex/latex/pgf/basiclayer/pgfcore.sty
INPUT /usr/share/texmf-dist/tex/latex/pgf/basiclayer/pgfcore.sty
INPUT /usr/share/texmf-dist/tex/latex/pgf/basiclayer/pgfcore.sty
INPUT /usr/share/texmf-dist/tex/latex/pgf/basiclayer/pgfcore.sty
INPUT /usr/share/texmf-dist/tex/latex/graphics/graphicx.sty
INPUT /usr/share/texmf-dist/tex/latex/graphics/graphicx.sty
INPUT /usr/share/texmf-dist/tex/latex/graphics/graphicx.sty
INPUT /usr/share/texmf-dist/tex/latex/graphics/graphicx.sty
INPUT /usr/share/texmf-dist/tex/latex/graphics/graphicx.sty
INPUT /usr/share/texmf-dist/tex/latex/graphics/graphicx.sty
INPUT /usr/share/texmf-dist/tex/latex/graphics/graphicx.sty
INPUT /usr/share/texmf-dist/tex/latex/graphics/graphicx.sty
INPUT /usr/share/texmf-dist/tex/latex/graphics/graphicx.sty
INPUT /usr/share/texmf-dist/tex/latex/graphics/graphicx.sty
INPUT /usr/share/texmf-dist/tex/latex/graphics/graphicx.sty
INPUT /usr/share/texmf-dist/tex/latex/graphics/keyval.sty
INPUT /usr/share/texmf-dist/tex/latex/graphics/graphics.sty
INPUT /usr/share/texmf-dist/tex/latex/graphics/graphics.sty
INPUT /usr/share/texmf-dist/tex/latex/graphics/graphics.sty
INPUT /usr/share/texmf-dist/tex/latex/graphics/graphics.sty
INPUT /usr/share/texmf-dist/tex/latex/graphics/graphics.sty
INPUT /usr/share/texmf-dist/tex/latex/graphics/graphics.sty
INPUT /usr/share/texmf-dist/tex/latex/graphics/graphics.sty
INPUT /usr/share/texmf-dist/tex/latex/graphics/graphics.sty
INPUT /usr/share/texmf-dist/tex/latex/graphics/graphics.sty
INPUT /usr/share/texmf-dist/tex/latex/graphics/graphics.sty
INPUT /usr/share/texmf-dist/tex/latex/graphics/graphics.sty
INPUT /usr/share/texmf-dist/tex/latex/graphics/trig.sty
INPUT /usr/share/texmf-dist/tex/latex/graphics/trig.sty
INPUT /usr/share/texmf-dist/tex/latex/graphics/trig.sty
INPUT /usr/share/texmf-dist/tex/latex/graphics/trig.sty
INPUT /usr/share/texmf-dist/tex/latex/graphics/trig.sty
INPUT /usr/share/texmf-dist/tex/latex/graphics/trig.sty
INPUT /usr/share/texmf-dist/tex/latex/graphics/trig.sty
INPUT /usr/share/texmf-dist/tex/latex/graphics/trig.sty
INPUT /usr/share/texmf-dist/tex/latex/graphics/trig.sty
INPUT /usr/share/texmf-dist/tex/latex/graphics/trig.sty
INPUT /usr/share/texmf-dist/tex/latex/graphics/trig.sty
INPUT /usr/share/texmf-dist/tex/latex/graphics-cfg/graphics.cfg
INPUT /usr/share/texmf-dist/tex/latex/graphics-cfg/graphics.cfg
INPUT /usr/share/texmf-dist/tex/latex/graphics-cfg/graphics.cfg
INPUT /usr/share/texmf-dist/tex/latex/graphics-cfg/graphics.cfg
INPUT /usr/share/texmf-dist/tex/latex/graphics-def/pdftex.def
INPUT /usr/share/texmf-dist/tex/latex/graphics-def/pdftex.def
INPUT /usr/share/texmf-dist/tex/latex/graphics-def/pdftex.def
INPUT /usr/share/texmf-dist/tex/latex/graphics-def/pdftex.def
INPUT /usr/share/texmf-dist/tex/latex/pgf/systemlayer/pgfsys.sty
INPUT /usr/share/texmf-dist/tex/latex/pgf/systemlayer/pgfsys.sty
INPUT /usr/share/texmf-dist/tex/latex/pgf/systemlayer/pgfsys.sty
INPUT /usr/share/texmf-dist/tex/latex/pgf/systemlayer/pgfsys.sty
INPUT /usr/share/texmf-dist/tex/latex/pgf/systemlayer/pgfsys.sty
INPUT /usr/share/texmf-dist/tex/latex/pgf/systemlayer/pgfsys.sty
INPUT /usr/share/texmf-dist/tex/latex/pgf/systemlayer/pgfsys.sty
INPUT /usr/share/texmf-dist/tex/latex/pgf/systemlayer/pgfsys.sty
INPUT /usr/share/texmf-dist/tex/latex/pgf/systemlayer/pgfsys.sty
INPUT /usr/share/texmf-dist/tex/latex/pgf/systemlayer/pgfsys.sty
INPUT /usr/share/texmf-dist/tex/latex/pgf/systemlayer/pgfsys.sty
INPUT /usr/share/texmf-dist/tex/latex/pgf/utilities/pgfrcs.sty
INPUT /usr/share/texmf-dist/tex/generic/pgf/systemlayer/pgfsys.code.tex
INPUT /usr/share/texmf-dist/tex/generic/pgf/systemlayer/pgfsys.code.tex
INPUT /usr/share/texmf-dist/tex/generic/pgf/systemlayer/pgfsys.code.tex
INPUT /usr/share/texmf-dist/tex/generic/pgf/systemlayer/pgfsys.code.tex
INPUT /usr/share/texmf-dist/tex/generic/pgf/utilities/pgfkeys.code.tex
INPUT /usr/share/texmf-dist/tex/generic/pgf/utilities/pgfkeyslibraryfiltered.code.tex
INPUT /usr/share/texmf-dist/tex/generic/pgf/systemlayer/pgf.cfg
INPUT /usr/share/texmf-dist/tex/generic/pgf/systemlayer/pgfsys-pdftex.def
INPUT /usr/share/texmf-dist/tex/generic/pgf/systemlayer/pgfsys-pdftex.def
INPUT /usr/share/texmf-dist/tex/generic/pgf/systemlayer/pgfsys-common-pdf.def
INPUT /usr/share/texmf-dist/tex/generic/pgf/systemlayer/pgfsyssoftpath.code.tex
INPUT /usr/share/texmf-dist/tex/generic/pgf/systemlayer/pgfsyssoftpath.code.tex
INPUT /usr/share/texmf-dist/tex/generic/pgf/systemlayer/pgfsyssoftpath.code.tex
INPUT /usr/share/texmf-dist/tex/generic/pgf/systemlayer/pgfsyssoftpath.code.tex
INPUT /usr/share/texmf-dist/tex/generic/pgf/systemlayer/pgfsysprotocol.code.tex
INPUT /usr/share/texmf-dist/tex/generic/pgf/systemlayer/pgfsysprotocol.code.tex
INPUT /usr/share/texmf-dist/tex/generic/pgf/systemlayer/pgfsysprotocol.code.tex
INPUT /usr/share/texmf-dist/tex/generic/pgf/systemlayer/pgfsysprotocol.code.tex
INPUT /usr/share/texmf-dist/tex/latex/graphics/keyval.sty
INPUT /usr/share/texmf-dist/tex/latex/xcolor/xcolor.sty
INPUT /usr/share/texmf-dist/tex/latex/xcolor/xcolor.sty
INPUT /usr/share/texmf-dist/tex/latex/xcolor/xcolor.sty
INPUT /usr/share/texmf-dist/tex/latex/xcolor/xcolor.sty
INPUT /usr/share/texmf-dist/tex/latex/xcolor/xcolor.sty
INPUT /usr/share/texmf-dist/tex/latex/xcolor/xcolor.sty
INPUT /usr/share/texmf-dist/tex/latex/xcolor/xcolor.sty
INPUT /usr/share/texmf-dist/tex/latex/xcolor/xcolor.sty
INPUT /usr/share/texmf-dist/tex/latex/xcolor/xcolor.sty
INPUT /usr/share/texmf-dist/tex/latex/xcolor/xcolor.sty
INPUT /usr/share/texmf-dist/tex/latex/xcolor/xcolor.sty
INPUT /usr/share/texmf-dist/tex/latex/graphics-cfg/color.cfg
INPUT /usr/share/texmf-dist/tex/latex/graphics-cfg/color.cfg
INPUT /usr/share/texmf-dist/tex/latex/graphics-cfg/color.cfg
INPUT /usr/share/texmf-dist/tex/latex/graphics-cfg/color.cfg
INPUT /usr/share/texmf-dist/tex/latex/graphics/mathcolor.ltx
INPUT /usr/share/texmf-dist/tex/latex/graphics/mathcolor.ltx
INPUT /usr/share/texmf-dist/tex/latex/graphics/mathcolor.ltx
INPUT /usr/share/texmf-dist/tex/latex/graphics/mathcolor.ltx
INPUT /usr/share/texmf-dist/tex/generic/pgf/basiclayer/pgfcore.code.tex
INPUT /usr/share/texmf-dist/tex/generic/pgf/basiclayer/pgfcore.code.tex
INPUT /usr/share/texmf-dist/tex/generic/pgf/basiclayer/pgfcore.code.tex
INPUT /usr/share/texmf-dist/tex/generic/pgf/basiclayer/pgfcore.code.tex
INPUT /usr/share/texmf-dist/tex/generic/pgf/math/pgfmath.code.tex
INPUT /usr/share/texmf-dist/tex/generic/pgf/math/pgfmathutil.code.tex
INPUT /usr/share/texmf-dist/tex/generic/pgf/math/pgfmathparser.code.tex
INPUT /usr/share/texmf-dist/tex/generic/pgf/math/pgfmathfunctions.code.tex
INPUT /usr/share/texmf-dist/tex/generic/pgf/math/pgfmathfunctions.basic.code.tex
INPUT /usr/share/texmf-dist/tex/generic/pgf/math/pgfmathfunctions.trigonometric.code.tex
INPUT /usr/share/texmf-dist/tex/generic/pgf/math/pgfmathfunctions.random.code.tex
INPUT /usr/share/texmf-dist/tex/generic/pgf/math/pgfmathfunctions.comparison.code.tex
INPUT /usr/share/texmf-dist/tex/generic/pgf/math/pgfmathfunctions.base.code.tex
INPUT /usr/share/texmf-dist/tex/generic/pgf/math/pgfmathfunctions.round.code.tex
INPUT /usr/share/texmf-dist/tex/generic/pgf/math/pgfmathfunctions.misc.code.tex
INPUT /usr/share/texmf-dist/tex/generic/pgf/math/pgfmathfunctions.integerarithmetics.code.tex
INPUT /usr/share/texmf-dist/tex/generic/pgf/math/pgfmathcalc.code.tex
INPUT /usr/share/texmf-dist/tex/generic/pgf/math/pgfmathfloat.code.tex
INPUT /usr/share/texmf-dist/tex/generic/pgf/math/pgfint.code.tex
INPUT /usr/share/texmf-dist/tex/generic/pgf/basiclayer/pgfcorepoints.code.tex
INPUT /usr/share/texmf-dist/tex/generic/pgf/basiclayer/pgfcorepathconstruct.code.tex
INPUT /usr/share/texmf-dist/tex/generic/pgf/basiclayer/pgfcorepathusage.code.tex
INPUT /usr/share/texmf-dist/tex/generic/pgf/basiclayer/pgfcorescopes.code.tex
INPUT /usr/share/texmf-dist/tex/generic/pgf/basiclayer/pgfcoregraphicstate.code.tex
INPUT /usr/share/texmf-dist/tex/generic/pgf/basiclayer/pgfcoretransformations.code.tex
INPUT /usr/share/texmf-dist/tex/generic/pgf/basiclayer/pgfcorequick.code.tex
INPUT /usr/share/texmf-dist/tex/generic/pgf/basiclayer/pgfcoreobjects.code.tex
INPUT /usr/share/texmf-dist/tex/generic/pgf/basiclayer/pgfcorepathprocessing.code.tex
INPUT /usr/share/texmf-dist/tex/generic/pgf/basiclayer/pgfcorearrows.code.tex
INPUT /usr/share/texmf-dist/tex/generic/pgf/basiclayer/pgfcoreshade.code.tex
INPUT /usr/share/texmf-dist/tex/generic/pgf/basiclayer/pgfcoreimage.code.tex
INPUT /usr/share/texmf-dist/tex/generic/pgf/basiclayer/pgfcoreexternal.code.tex
INPUT /usr/share/texmf-dist/tex/generic/pgf/basiclayer/pgfcorelayers.code.tex
INPUT /usr/share/texmf-dist/tex/generic/pgf/basiclayer/pgfcoretransparency.code.tex
INPUT /usr/share/texmf-dist/tex/generic/pgf/basiclayer/pgfcorepatterns.code.tex
INPUT /usr/share/texmf-dist/tex/generic/pgf/basiclayer/pgfcorerdf.code.tex
INPUT /usr/share/texmf-dist/tex/generic/pgf/modules/pgfmoduleshapes.code.tex
INPUT /usr/share/texmf-dist/tex/generic/pgf/modules/pgfmoduleplot.code.tex
INPUT /usr/share/texmf-dist/tex/latex/pgf/compatibility/pgfcomp-version-0-65.sty
INPUT /usr/share/texmf-dist/tex/latex/pgf/compatibility/pgfcomp-version-0-65.sty
INPUT /usr/share/texmf-dist/tex/latex/pgf/compatibility/pgfcomp-version-0-65.sty
INPUT /usr/share/texmf-dist/tex/latex/pgf/compatibility/pgfcomp-version-0-65.sty
INPUT /usr/share/texmf-dist/tex/latex/pgf/compatibility/pgfcomp-version-0-65.sty
INPUT /usr/share/texmf-dist/tex/latex/pgf/compatibility/pgfcomp-version-0-65.sty
INPUT /usr/share/texmf-dist/tex/latex/pgf/compatibility/pgfcomp-version-0-65.sty
INPUT /usr/share/texmf-dist/tex/latex/pgf/compatibility/pgfcomp-version-0-65.sty
INPUT /usr/share/texmf-dist/tex/latex/pgf/compatibility/pgfcomp-version-0-65.sty
INPUT /usr/share/texmf-dist/tex/latex/pgf/compatibility/pgfcomp-version-0-65.sty
INPUT /usr/share/texmf-dist/tex/latex/pgf/compatibility/pgfcomp-version-0-65.sty
INPUT /usr/share/texmf-dist/tex/latex/pgf/utilities/pgfrcs.sty
INPUT /usr/share/texmf-dist/tex/latex/pgf/compatibility/pgfcomp-version-1-18.sty
INPUT /usr/share/texmf-dist/tex/latex/pgf/compatibility/pgfcomp-version-1-18.sty
INPUT /usr/share/texmf-dist/tex/latex/pgf/compatibility/pgfcomp-version-1-18.sty
INPUT /usr/share/texmf-dist/tex/latex/pgf/compatibility/pgfcomp-version-1-18.sty
INPUT /usr/share/texmf-dist/tex/latex/pgf/compatibility/pgfcomp-version-1-18.sty
INPUT /usr/share/texmf-dist/tex/latex/pgf/compatibility/pgfcomp-version-1-18.sty
INPUT /usr/share/texmf-dist/tex/latex/pgf/compatibility/pgfcomp-version-1-18.sty
INPUT /usr/share/texmf-dist/tex/latex/pgf/compatibility/pgfcomp-version-1-18.sty
INPUT /usr/share/texmf-dist/tex/latex/pgf/compatibility/pgfcomp-version-1-18.sty
INPUT /usr/share/texmf-dist/tex/latex/pgf/compatibility/pgfcomp-version-1-18.sty
INPUT /usr/share/texmf-dist/tex/latex/pgf/compatibility/pgfcomp-version-1-18.sty
INPUT /usr/share/texmf-dist/tex/latex/pgf/utilities/pgfrcs.sty
INPUT /usr/share/texmf-dist/tex/latex/pgf/utilities/pgffor.sty
INPUT /usr/share/texmf-dist/tex/latex/pgf/utilities/pgffor.sty
INPUT /usr/share/texmf-dist/tex/latex/pgf/utilities/pgffor.sty
INPUT /usr/share/texmf-dist/tex/latex/pgf/utilities/pgffor.sty
INPUT /usr/share/texmf-dist/tex/latex/pgf/utilities/pgffor.sty
INPUT /usr/share/texmf-dist/tex/latex/pgf/utilities/pgffor.sty
INPUT /usr/share/texmf-dist/tex/latex/pgf/utilities/pgffor.sty
INPUT /usr/share/texmf-dist/tex/latex/pgf/utilities/pgffor.sty
INPUT /usr/share/texmf-dist/tex/latex/pgf/utilities/pgffor.sty
INPUT /usr/share/texmf-dist/tex/latex/pgf/utilities/pgffor.sty
INPUT /usr/share/texmf-dist/tex/latex/pgf/utilities/pgffor.sty
INPUT /usr/share/texmf-dist/tex/latex/pgf/utilities/pgfrcs.sty
INPUT /usr/share/texmf-dist/tex/latex/pgf/utilities/pgfkeys.sty
INPUT /usr/share/texmf-dist/tex/latex/pgf/utilities/pgfkeys.sty
INPUT /usr/share/texmf-dist/tex/latex/pgf/utilities/pgfkeys.sty
INPUT /usr/share/texmf-dist/tex/latex/pgf/utilities/pgfkeys.sty
INPUT /usr/share/texmf-dist/tex/latex/pgf/utilities/pgfkeys.sty
INPUT /usr/share/texmf-dist/tex/latex/pgf/utilities/pgfkeys.sty
INPUT /usr/share/texmf-dist/tex/latex/pgf/utilities/pgfkeys.sty
INPUT /usr/share/texmf-dist/tex/latex/pgf/utilities/pgfkeys.sty
INPUT /usr/share/texmf-dist/tex/latex/pgf/utilities/pgfkeys.sty
INPUT /usr/share/texmf-dist/tex/latex/pgf/utilities/pgfkeys.sty
INPUT /usr/share/texmf-dist/tex/latex/pgf/utilities/pgfkeys.sty
INPUT /usr/share/texmf-dist/tex/generic/pgf/utilities/pgfkeys.code.tex
INPUT /usr/share/texmf-dist/tex/generic/pgf/utilities/pgfkeys.code.tex
INPUT /usr/share/texmf-dist/tex/generic/pgf/utilities/pgfkeys.code.tex
INPUT /usr/share/texmf-dist/tex/generic/pgf/utilities/pgfkeys.code.tex
INPUT /usr/share/texmf-dist/tex/latex/pgf/math/pgfmath.sty
INPUT /usr/share/texmf-dist/tex/latex/pgf/math/pgfmath.sty
INPUT /usr/share/texmf-dist/tex/latex/pgf/math/pgfmath.sty
INPUT /usr/share/texmf-dist/tex/latex/pgf/math/pgfmath.sty
INPUT /usr/share/texmf-dist/tex/latex/pgf/math/pgfmath.sty
INPUT /usr/share/texmf-dist/tex/latex/pgf/math/pgfmath.sty
INPUT /usr/share/texmf-dist/tex/latex/pgf/math/pgfmath.sty
INPUT /usr/share/texmf-dist/tex/latex/pgf/math/pgfmath.sty
INPUT /usr/share/texmf-dist/tex/latex/pgf/math/pgfmath.sty
INPUT /usr/share/texmf-dist/tex/latex/pgf/math/pgfmath.sty
INPUT /usr/share/texmf-dist/tex/latex/pgf/math/pgfmath.sty
INPUT /usr/share/texmf-dist/tex/latex/pgf/utilities/pgfrcs.sty
INPUT /usr/share/texmf-dist/tex/latex/pgf/utilities/pgfkeys.sty
INPUT /usr/share/texmf-dist/tex/generic/pgf/math/pgfmath.code.tex
INPUT /usr/share/texmf-dist/tex/generic/pgf/math/pgfmath.code.tex
INPUT /usr/share/texmf-dist/tex/generic/pgf/math/pgfmath.code.tex
INPUT /usr/share/texmf-dist/tex/generic/pgf/math/pgfmath.code.tex
INPUT /usr/share/texmf-dist/tex/generic/pgf/utilities/pgffor.code.tex
INPUT /usr/share/texmf-dist/tex/generic/pgf/utilities/pgffor.code.tex
INPUT /usr/share/texmf-dist/tex/generic/pgf/utilities/pgffor.code.tex
INPUT /usr/share/texmf-dist/tex/generic/pgf/utilities/pgffor.code.tex
INPUT /usr/share/texmf-dist/tex/generic/pgf/frontendlayer/tikz/tikz.code.tex
INPUT /usr/share/texmf-dist/tex/generic/pgf/frontendlayer/tikz/tikz.code.tex
INPUT /usr/share/texmf-dist/tex/generic/pgf/frontendlayer/tikz/tikz.code.tex
INPUT /usr/share/texmf-dist/tex/generic/pgf/frontendlayer/tikz/tikz.code.tex
INPUT /usr/share/texmf-dist/tex/generic/pgf/libraries/pgflibraryplothandlers.code.tex
INPUT /usr/share/texmf-dist/tex/generic/pgf/libraries/pgflibraryplothandlers.code.tex
INPUT /usr/share/texmf-dist/tex/generic/pgf/modules/pgfmodulematrix.code.tex
INPUT /usr/share/texmf-dist/tex/generic/pgf/frontendlayer/tikz/libraries/tikzlibrarytopaths.code.tex
INPUT /usr/share/texmf-dist/tex/generic/pgf/frontendlayer/tikz/libraries/tikzlibrarytopaths.code.tex
INPUT /usr/share/texmf-dist/tex/latex/amsmath/amsmath.sty
INPUT /usr/share/texmf-dist/tex/latex/amsmath/amsmath.sty
INPUT /usr/share/texmf-dist/tex/latex/amsmath/amsmath.sty
INPUT /usr/share/texmf-dist/tex/latex/amsmath/amsmath.sty
INPUT /usr/share/texmf-dist/tex/latex/amsmath/amsmath.sty
INPUT /usr/share/texmf-dist/tex/latex/amsmath/amsmath.sty
INPUT /usr/share/texmf-dist/tex/latex/amsmath/amsmath.sty
INPUT /usr/share/texmf-dist/tex/latex/amsmath/amsmath.sty
INPUT /usr/share/texmf-dist/tex/latex/amsmath/amsmath.sty
INPUT /usr/share/texmf-dist/tex/latex/amsmath/amsmath.sty
INPUT /usr/share/texmf-dist/tex/latex/amsmath/amsmath.sty
INPUT /usr/share/texmf-dist/tex/latex/amsmath/amsopn.sty
INPUT /usr/share/texmf-dist/tex/latex/amsmath/amsopn.sty
INPUT /usr/share/texmf-dist/tex/latex/amsmath/amstext.sty
INPUT /usr/share/texmf-dist/tex/latex/amsmath/amstext.sty
INPUT /usr/share/texmf-dist/tex/latex/amsmath/amstext.sty
INPUT /usr/share/texmf-dist/tex/latex/amsmath/amstext.sty
INPUT /usr/share/texmf-dist/tex/latex/amsmath/amstext.sty
INPUT /usr/share/texmf-dist/tex/latex/amsmath/amstext.sty
INPUT /usr/share/texmf-dist/tex/latex/amsmath/amstext.sty
INPUT /usr/share/texmf-dist/tex/latex/amsmath/amstext.sty
INPUT /usr/share/texmf-dist/tex/latex/amsmath/amstext.sty
INPUT /usr/share/texmf-dist/tex/latex/amsmath/amstext.sty
INPUT /usr/share/texmf-dist/tex/latex/amsmath/amstext.sty
INPUT /usr/share/texmf-dist/tex/latex/amsmath/amsgen.sty
INPUT /usr/share/texmf-dist/tex/latex/amsmath/amsgen.sty
INPUT /usr/share/texmf-dist/tex/latex/amsmath/amsgen.sty
INPUT /usr/share/texmf-dist/tex/latex/amsmath/amsgen.sty
INPUT /usr/share/texmf-dist/tex/latex/amsmath/amsgen.sty
INPUT /usr/share/texmf-dist/tex/latex/amsmath/amsgen.sty
INPUT /usr/share/texmf-dist/tex/latex/amsmath/amsgen.sty
INPUT /usr/share/texmf-dist/tex/latex/amsmath/amsgen.sty
INPUT /usr/share/texmf-dist/tex/latex/amsmath/amsgen.sty
INPUT /usr/share/texmf-dist/tex/latex/amsmath/amsgen.sty
INPUT /usr/share/texmf-dist/tex/latex/amsmath/amsgen.sty
INPUT /usr/share/texmf-dist/tex/latex/amsmath/amsbsy.sty
INPUT /usr/share/texmf-dist/tex/latex/amsmath/amsbsy.sty
INPUT /usr/share/texmf-dist/tex/latex/amsmath/amsbsy.sty
INPUT /usr/share/texmf-dist/tex/latex/amsmath/amsbsy.sty
INPUT /usr/share/texmf-dist/tex/latex/amsmath/amsbsy.sty
INPUT /usr/share/texmf-dist/tex/latex/amsmath/amsbsy.sty
INPUT /usr/share/texmf-dist/tex/latex/amsmath/amsbsy.sty
INPUT /usr/share/texmf-dist/tex/latex/amsmath/amsbsy.sty
INPUT /usr/share/texmf-dist/tex/latex/amsmath/amsbsy.sty
INPUT /usr/share/texmf-dist/tex/latex/amsmath/amsbsy.sty
INPUT /usr/share/texmf-dist/tex/latex/amsmath/amsbsy.sty
INPUT /usr/share/texmf-dist/tex/latex/amsmath/amsgen.sty
INPUT /usr/share/texmf-dist/tex/latex/amsmath/amsopn.sty
INPUT /usr/share/texmf-dist/tex/latex/amsmath/amsopn.sty
INPUT /usr/share/texmf-dist/tex/latex/amsmath/amsopn.sty
INPUT /usr/share/texmf-dist/tex/latex/amsmath/amsopn.sty
INPUT /usr/share/texmf-dist/tex/latex/amsmath/amsopn.sty
INPUT /usr/share/texmf-dist/tex/latex/amsmath/amsopn.sty
INPUT /usr/share/texmf-dist/tex/latex/amsmath/amsopn.sty
INPUT /usr/share/texmf-dist/tex/latex/amsmath/amsopn.sty
INPUT /usr/share/texmf-dist/tex/latex/amsmath/amsopn.sty
INPUT /usr/share/texmf-dist/tex/latex/amsmath/amsopn.sty
INPUT /usr/share/texmf-dist/tex/latex/amsmath/amsopn.sty
INPUT /usr/share/texmf-dist/tex/latex/amsmath/amsgen.sty
INPUT /usr/share/texmf-dist/tex/latex/amsfonts/amssymb.sty
INPUT /usr/share/texmf-dist/tex/latex/amsfonts/amssymb.sty
INPUT /usr/share/texmf-dist/tex/latex/amsfonts/amssymb.sty
INPUT /usr/share/texmf-dist/tex/latex/amsfonts/amssymb.sty
INPUT /usr/share/texmf-dist/tex/latex/amsfonts/amssymb.sty
INPUT /usr/share/texmf-dist/tex/latex/amsfonts/amssymb.sty
INPUT /usr/share/texmf-dist/tex/latex/amsfonts/amssymb.sty
INPUT /usr/share/texmf-dist/tex/latex/amsfonts/amssymb.sty
INPUT /usr/share/texmf-dist/tex/latex/amsfonts/amssymb.sty
INPUT /usr/share/texmf-dist/tex/latex/amsfonts/amssymb.sty
INPUT /usr/share/texmf-dist/tex/latex/amsfonts/amssymb.sty
INPUT /usr/share/texmf-dist/tex/latex/amsfonts/amsfonts.sty
INPUT /usr/share/texmf-dist/tex/latex/amsfonts/amsfonts.sty
INPUT /usr/share/texmf-dist/tex/latex/amsfonts/amsfonts.sty
INPUT /usr/share/texmf-dist/tex/latex/amsfonts/amsfonts.sty
INPUT /usr/share/texmf-dist/tex/latex/amsfonts/amsfonts.sty
INPUT /usr/share/texmf-dist/tex/latex/amsfonts/amsfonts.sty
INPUT /usr/share/texmf-dist/tex/latex/amsfonts/amsfonts.sty
INPUT /usr/share/texmf-dist/tex/latex/amsfonts/amsfonts.sty
INPUT /usr/share/texmf-dist/tex/latex/amsfonts/amsfonts.sty
INPUT /usr/share/texmf-dist/tex/latex/amsfonts/amsfonts.sty
INPUT /usr/share/texmf-dist/tex/latex/amsfonts/amsfonts.sty
INPUT /usr/share/texmf-dist/tex/latex/xcolor/xcolor.sty
INPUT /usr/share/texmf-dist/tex/latex/varwidth/varwidth.sty
INPUT /usr/share/texmf-dist/tex/latex/varwidth/varwidth.sty
INPUT /usr/share/texmf-dist/tex/latex/varwidth/varwidth.sty
INPUT /usr/share/texmf-dist/tex/latex/varwidth/varwidth.sty
INPUT /usr/share/texmf-dist/tex/latex/varwidth/varwidth.sty
INPUT /usr/share/texmf-dist/tex/latex/varwidth/varwidth.sty
INPUT /usr/share/texmf-dist/tex/latex/varwidth/varwidth.sty
INPUT /usr/share/texmf-dist/tex/latex/varwidth/varwidth.sty
INPUT /usr/share/texmf-dist/tex/latex/varwidth/varwidth.sty
INPUT /usr/share/texmf-dist/tex/latex/varwidth/varwidth.sty
INPUT /usr/share/texmf-dist/tex/latex/varwidth/varwidth.sty
INPUT ./gTikZBeamer.tex
INPUT ./gTikZBeamer.tex
INPUT ./gTikZBeamer.tex
INPUT gTikZBeamer.tex
INPUT ./gTikZBeamer.tex
INPUT ./gTikZBeamer.tex
INPUT gTikZBeamer.tex
INPUT /usr/share/texmf-dist/tex/latex/xkeyval/xkeyval.sty
INPUT /usr/share/texmf-dist/tex/latex/pgf/frontendlayer/tikz.sty
INPUT /usr/share/texmf-dist/tex/latex/fp/fp.sty
INPUT /usr/share/texmf-dist/tex/latex/fp/fp.sty
INPUT /usr/share/texmf-dist/tex/latex/fp/fp.sty
INPUT /usr/share/texmf-dist/tex/latex/fp/fp.sty
INPUT /usr/share/texmf-dist/tex/latex/fp/fp.sty
INPUT /usr/share/texmf-dist/tex/latex/fp/fp.sty
INPUT /usr/share/texmf-dist/tex/latex/fp/fp.sty
INPUT /usr/share/texmf-dist/tex/latex/fp/fp.sty
INPUT /usr/share/texmf-dist/tex/latex/fp/fp.sty
INPUT /usr/share/texmf-dist/tex/latex/fp/fp.sty
INPUT /usr/share/texmf-dist/tex/latex/fp/fp.sty
INPUT /usr/share/texmf-dist/tex/latex/fp/defpattern.sty
INPUT /usr/share/texmf-dist/tex/latex/fp/defpattern.sty
INPUT /usr/share/texmf-dist/tex/latex/fp/defpattern.sty
INPUT /usr/share/texmf-dist/tex/latex/fp/defpattern.sty
INPUT /usr/share/texmf-dist/tex/latex/fp/defpattern.sty
INPUT /usr/share/texmf-dist/tex/latex/fp/defpattern.sty
INPUT /usr/share/texmf-dist/tex/latex/fp/defpattern.sty
INPUT /usr/share/texmf-dist/tex/latex/fp/defpattern.sty
INPUT /usr/share/texmf-dist/tex/latex/fp/defpattern.sty
INPUT /usr/share/texmf-dist/tex/latex/fp/defpattern.sty
INPUT /usr/share/texmf-dist/tex/latex/fp/defpattern.sty
INPUT /usr/share/texmf-dist/tex/latex/fp/fp-basic.sty
INPUT /usr/share/texmf-dist/tex/latex/fp/fp-basic.sty
INPUT /usr/share/texmf-dist/tex/latex/fp/fp-basic.sty
INPUT /usr/share/texmf-dist/tex/latex/fp/fp-basic.sty
INPUT /usr/share/texmf-dist/tex/latex/fp/fp-basic.sty
INPUT /usr/share/texmf-dist/tex/latex/fp/fp-basic.sty
INPUT /usr/share/texmf-dist/tex/latex/fp/fp-basic.sty
INPUT /usr/share/texmf-dist/tex/latex/fp/fp-basic.sty
INPUT /usr/share/texmf-dist/tex/latex/fp/fp-basic.sty
INPUT /usr/share/texmf-dist/tex/latex/fp/fp-basic.sty
INPUT /usr/share/texmf-dist/tex/latex/fp/fp-basic.sty
INPUT /usr/share/texmf-dist/tex/latex/fp/fp-addons.sty
INPUT /usr/share/texmf-dist/tex/latex/fp/fp-addons.sty
INPUT /usr/share/texmf-dist/tex/latex/fp/fp-addons.sty
INPUT /usr/share/texmf-dist/tex/latex/fp/fp-addons.sty
INPUT /usr/share/texmf-dist/tex/latex/fp/fp-addons.sty
INPUT /usr/share/texmf-dist/tex/latex/fp/fp-addons.sty
INPUT /usr/share/texmf-dist/tex/latex/fp/fp-addons.sty
INPUT /usr/share/texmf-dist/tex/latex/fp/fp-addons.sty
INPUT /usr/share/texmf-dist/tex/latex/fp/fp-addons.sty
INPUT /usr/share/texmf-dist/tex/latex/fp/fp-addons.sty
INPUT /usr/share/texmf-dist/tex/latex/fp/fp-addons.sty
INPUT /usr/share/texmf-dist/tex/latex/fp/fp-snap.sty
INPUT /usr/share/texmf-dist/tex/latex/fp/fp-snap.sty
INPUT /usr/share/texmf-dist/tex/latex/fp/fp-snap.sty
INPUT /usr/share/texmf-dist/tex/latex/fp/fp-snap.sty
INPUT /usr/share/texmf-dist/tex/latex/fp/fp-snap.sty
INPUT /usr/share/texmf-dist/tex/latex/fp/fp-snap.sty
INPUT /usr/share/texmf-dist/tex/latex/fp/fp-snap.sty
INPUT /usr/share/texmf-dist/tex/latex/fp/fp-snap.sty
INPUT /usr/share/texmf-dist/tex/latex/fp/fp-snap.sty
INPUT /usr/share/texmf-dist/tex/latex/fp/fp-snap.sty
INPUT /usr/share/texmf-dist/tex/latex/fp/fp-snap.sty
INPUT /usr/share/texmf-dist/tex/latex/fp/fp-basic.sty
INPUT /usr/share/texmf-dist/tex/latex/fp/fp-exp.sty
INPUT /usr/share/texmf-dist/tex/latex/fp/fp-exp.sty
INPUT /usr/share/texmf-dist/tex/latex/fp/fp-exp.sty
INPUT /usr/share/texmf-dist/tex/latex/fp/fp-exp.sty
INPUT /usr/share/texmf-dist/tex/latex/fp/fp-exp.sty
INPUT /usr/share/texmf-dist/tex/latex/fp/fp-exp.sty
INPUT /usr/share/texmf-dist/tex/latex/fp/fp-exp.sty
INPUT /usr/share/texmf-dist/tex/latex/fp/fp-exp.sty
INPUT /usr/share/texmf-dist/tex/latex/fp/fp-exp.sty
INPUT /usr/share/texmf-dist/tex/latex/fp/fp-exp.sty
INPUT /usr/share/texmf-dist/tex/latex/fp/fp-exp.sty
INPUT /usr/share/texmf-dist/tex/latex/fp/fp-basic.sty
INPUT /usr/share/texmf-dist/tex/latex/fp/fp-trigo.sty
INPUT /usr/share/texmf-dist/tex/latex/fp/fp-trigo.sty
INPUT /usr/share/texmf-dist/tex/latex/fp/fp-trigo.sty
INPUT /usr/share/texmf-dist/tex/latex/fp/fp-trigo.sty
INPUT /usr/share/texmf-dist/tex/latex/fp/fp-trigo.sty
INPUT /usr/share/texmf-dist/tex/latex/fp/fp-trigo.sty
INPUT /usr/share/texmf-dist/tex/latex/fp/fp-trigo.sty
INPUT /usr/share/texmf-dist/tex/latex/fp/fp-trigo.sty
INPUT /usr/share/texmf-dist/tex/latex/fp/fp-trigo.sty
INPUT /usr/share/texmf-dist/tex/latex/fp/fp-trigo.sty
INPUT /usr/share/texmf-dist/tex/latex/fp/fp-trigo.sty
INPUT /usr/share/texmf-dist/tex/latex/fp/fp-basic.sty
INPUT /usr/share/texmf-dist/tex/latex/fp/fp-pas.sty
INPUT /usr/share/texmf-dist/tex/latex/fp/fp-pas.sty
INPUT /usr/share/texmf-dist/tex/latex/fp/fp-pas.sty
INPUT /usr/share/texmf-dist/tex/latex/fp/fp-pas.sty
INPUT /usr/share/texmf-dist/tex/latex/fp/fp-pas.sty
INPUT /usr/share/texmf-dist/tex/latex/fp/fp-pas.sty
INPUT /usr/share/texmf-dist/tex/latex/fp/fp-pas.sty
INPUT /usr/share/texmf-dist/tex/latex/fp/fp-pas.sty
INPUT /usr/share/texmf-dist/tex/latex/fp/fp-pas.sty
INPUT /usr/share/texmf-dist/tex/latex/fp/fp-pas.sty
INPUT /usr/share/texmf-dist/tex/latex/fp/fp-pas.sty
INPUT /usr/share/texmf-dist/tex/latex/fp/fp-basic.sty
INPUT /usr/share/texmf-dist/tex/latex/fp/fp-random.sty
INPUT /usr/share/texmf-dist/tex/latex/fp/fp-random.sty
INPUT /usr/share/texmf-dist/tex/latex/fp/fp-random.sty
INPUT /usr/share/texmf-dist/tex/latex/fp/fp-random.sty
INPUT /usr/share/texmf-dist/tex/latex/fp/fp-random.sty
INPUT /usr/share/texmf-dist/tex/latex/fp/fp-random.sty
INPUT /usr/share/texmf-dist/tex/latex/fp/fp-random.sty
INPUT /usr/share/texmf-dist/tex/latex/fp/fp-random.sty
INPUT /usr/share/texmf-dist/tex/latex/fp/fp-random.sty
INPUT /usr/share/texmf-dist/tex/latex/fp/fp-random.sty
INPUT /usr/share/texmf-dist/tex/latex/fp/fp-random.sty
INPUT /usr/share/texmf-dist/tex/latex/fp/fp-basic.sty
INPUT /usr/share/texmf-dist/tex/latex/fp/fp-eqn.sty
INPUT /usr/share/texmf-dist/tex/latex/fp/fp-eqn.sty
INPUT /usr/share/texmf-dist/tex/latex/fp/fp-eqn.sty
INPUT /usr/share/texmf-dist/tex/latex/fp/fp-eqn.sty
INPUT /usr/share/texmf-dist/tex/latex/fp/fp-eqn.sty
INPUT /usr/share/texmf-dist/tex/latex/fp/fp-eqn.sty
INPUT /usr/share/texmf-dist/tex/latex/fp/fp-eqn.sty
INPUT /usr/share/texmf-dist/tex/latex/fp/fp-eqn.sty
INPUT /usr/share/texmf-dist/tex/latex/fp/fp-eqn.sty
INPUT /usr/share/texmf-dist/tex/latex/fp/fp-eqn.sty
INPUT /usr/share/texmf-dist/tex/latex/fp/fp-eqn.sty
INPUT /usr/share/texmf-dist/tex/latex/fp/fp.sty
INPUT /usr/share/texmf-dist/tex/latex/fp/fp-upn.sty
INPUT /usr/share/texmf-dist/tex/latex/fp/fp-upn.sty
INPUT /usr/share/texmf-dist/tex/latex/fp/fp-upn.sty
INPUT /usr/share/texmf-dist/tex/latex/fp/fp-upn.sty
INPUT /usr/share/texmf-dist/tex/latex/fp/fp-upn.sty
INPUT /usr/share/texmf-dist/tex/latex/fp/fp-upn.sty
INPUT /usr/share/texmf-dist/tex/latex/fp/fp-upn.sty
INPUT /usr/share/texmf-dist/tex/latex/fp/fp-upn.sty
INPUT /usr/share/texmf-dist/tex/latex/fp/fp-upn.sty
INPUT /usr/share/texmf-dist/tex/latex/fp/fp-upn.sty
INPUT /usr/share/texmf-dist/tex/latex/fp/fp-upn.sty
INPUT /usr/share/texmf-dist/tex/latex/fp/fp.sty
INPUT /usr/share/texmf-dist/tex/latex/fp/defpattern.sty
INPUT /usr/share/texmf-dist/tex/latex/fp/fp-eval.sty
INPUT /usr/share/texmf-dist/tex/latex/fp/fp-eval.sty
INPUT /usr/share/texmf-dist/tex/latex/fp/fp-eval.sty
INPUT /usr/share/texmf-dist/tex/latex/fp/fp-eval.sty
INPUT /usr/share/texmf-dist/tex/latex/fp/fp-eval.sty
INPUT /usr/share/texmf-dist/tex/latex/fp/fp-eval.sty
INPUT /usr/share/texmf-dist/tex/latex/fp/fp-eval.sty
INPUT /usr/share/texmf-dist/tex/latex/fp/fp-eval.sty
INPUT /usr/share/texmf-dist/tex/latex/fp/fp-eval.sty
INPUT /usr/share/texmf-dist/tex/latex/fp/fp-eval.sty
INPUT /usr/share/texmf-dist/tex/latex/fp/fp-eval.sty
INPUT /usr/share/texmf-dist/tex/latex/fp/defpattern.sty
INPUT /usr/share/texmf-dist/tex/latex/fp/fp-upn.sty
INPUT /usr/share/texmf-dist/tex/latex/pgf/frontendlayer/libraries/tikzlibraryexternal.code.tex
INPUT /usr/share/texmf-dist/tex/latex/pgf/frontendlayer/libraries/tikzlibraryexternal.code.tex
INPUT /usr/share/texmf-dist/tex/generic/pdftexcmds/pdftexcmds.sty
INPUT /usr/share/texmf-dist/tex/generic/pdftexcmds/pdftexcmds.sty
INPUT /usr/share/texmf-dist/tex/generic/pdftexcmds/pdftexcmds.sty
INPUT /usr/share/texmf-dist/tex/generic/pdftexcmds/pdftexcmds.sty
INPUT /usr/share/texmf-dist/tex/generic/pdftexcmds/pdftexcmds.sty
INPUT /usr/share/texmf-dist/tex/generic/pdftexcmds/pdftexcmds.sty
INPUT /usr/share/texmf-dist/tex/generic/pdftexcmds/pdftexcmds.sty
INPUT /usr/share/texmf-dist/tex/generic/pdftexcmds/pdftexcmds.sty
INPUT /usr/share/texmf-dist/tex/generic/pdftexcmds/pdftexcmds.sty
INPUT /usr/share/texmf-dist/tex/generic/pdftexcmds/pdftexcmds.sty
INPUT /usr/share/texmf-dist/tex/generic/pdftexcmds/pdftexcmds.sty
INPUT /usr/share/texmf-dist/tex/generic/infwarerr/infwarerr.sty
INPUT /usr/share/texmf-dist/tex/generic/infwarerr/infwarerr.sty
INPUT /usr/share/texmf-dist/tex/generic/infwarerr/infwarerr.sty
INPUT /usr/share/texmf-dist/tex/generic/infwarerr/infwarerr.sty
INPUT /usr/share/texmf-dist/tex/generic/infwarerr/infwarerr.sty
INPUT /usr/share/texmf-dist/tex/generic/infwarerr/infwarerr.sty
INPUT /usr/share/texmf-dist/tex/generic/infwarerr/infwarerr.sty
INPUT /usr/share/texmf-dist/tex/generic/infwarerr/infwarerr.sty
INPUT /usr/share/texmf-dist/tex/generic/infwarerr/infwarerr.sty
INPUT /usr/share/texmf-dist/tex/generic/infwarerr/infwarerr.sty
INPUT /usr/share/texmf-dist/tex/generic/infwarerr/infwarerr.sty
INPUT /usr/share/texmf-dist/tex/generic/iftex/iftex.sty
INPUT /usr/share/texmf-dist/tex/generic/ltxcmds/ltxcmds.sty
INPUT /usr/share/texmf-dist/tex/generic/ltxcmds/ltxcmds.sty
INPUT /usr/share/texmf-dist/tex/generic/ltxcmds/ltxcmds.sty
INPUT /usr/share/texmf-dist/tex/generic/ltxcmds/ltxcmds.sty
INPUT /usr/share/texmf-dist/tex/generic/ltxcmds/ltxcmds.sty
INPUT /usr/share/texmf-dist/tex/generic/ltxcmds/ltxcmds.sty
INPUT /usr/share/texmf-dist/tex/generic/ltxcmds/ltxcmds.sty
INPUT /usr/share/texmf-dist/tex/generic/ltxcmds/ltxcmds.sty
INPUT /usr/share/texmf-dist/tex/generic/ltxcmds/ltxcmds.sty
INPUT /usr/share/texmf-dist/tex/generic/ltxcmds/ltxcmds.sty
INPUT /usr/share/texmf-dist/tex/generic/ltxcmds/ltxcmds.sty
INPUT /usr/share/texmf-dist/tex/latex/atveryend/atveryend.sty
INPUT /usr/share/texmf-dist/tex/latex/atveryend/atveryend.sty
INPUT /usr/share/texmf-dist/tex/latex/atveryend/atveryend.sty
INPUT /usr/share/texmf-dist/tex/latex/atveryend/atveryend.sty
INPUT /usr/share/texmf-dist/tex/latex/base/atveryend-ltx.sty
INPUT /usr/share/texmf-dist/tex/latex/atveryend/atveryend.sty
INPUT /usr/share/texmf-dist/tex/latex/atveryend/atveryend.sty
INPUT /usr/share/texmf-dist/tex/latex/base/atveryend-ltx.sty
INPUT /usr/share/texmf-dist/tex/latex/atveryend/atveryend.sty
INPUT /usr/share/texmf-dist/tex/latex/base/atveryend-ltx.sty
INPUT /usr/share/texmf-dist/tex/latex/base/atveryend-ltx.sty
INPUT /usr/share/texmf-dist/tex/latex/atveryend/atveryend.sty
INPUT /usr/share/texmf-dist/tex/latex/atveryend/atveryend.sty
INPUT /usr/share/texmf-dist/tex/latex/base/atveryend-ltx.sty
INPUT /usr/share/texmf-dist/tex/latex/base/atveryend-ltx.sty
INPUT /usr/share/texmf-dist/tex/latex/atveryend/atveryend.sty
INPUT /usr/share/texmf-dist/tex/latex/base/atveryend-ltx.sty
INPUT /usr/share/texmf-dist/tex/generic/pgf/frontendlayer/tikz/libraries/tikzexternalshared.code.tex
INPUT /usr/share/texmf-dist/tex/generic/pgf/frontendlayer/tikz/libraries/tikzlibraryfixedpointarithmetic.code.tex
INPUT /usr/share/texmf-dist/tex/generic/pgf/frontendlayer/tikz/libraries/tikzlibraryfixedpointarithmetic.code.tex
INPUT /usr/share/texmf-dist/tex/generic/pgf/libraries/pgflibraryfixedpointarithmetic.code.tex
INPUT /usr/share/texmf-dist/tex/generic/pgf/libraries/pgflibraryfixedpointarithmetic.code.tex
INPUT /usr/share/texmf-dist/tex/generic/pgf/frontendlayer/tikz/libraries/tikzlibrarydecorations.pathmorphing.code.tex
INPUT /usr/share/texmf-dist/tex/generic/pgf/frontendlayer/tikz/libraries/tikzlibrarydecorations.pathmorphing.code.tex
INPUT /usr/share/texmf-dist/tex/generic/pgf/frontendlayer/tikz/libraries/tikzlibrarydecorations.code.tex
INPUT /usr/share/texmf-dist/tex/generic/pgf/frontendlayer/tikz/libraries/tikzlibrarydecorations.code.tex
INPUT /usr/share/texmf-dist/tex/generic/pgf/modules/pgfmoduledecorations.code.tex
INPUT /usr/share/texmf-dist/tex/generic/pgf/libraries/decorations/pgflibrarydecorations.pathmorphing.code.tex
INPUT /usr/share/texmf-dist/tex/generic/pgf/libraries/decorations/pgflibrarydecorations.pathmorphing.code.tex
INPUT /usr/share/texmf-dist/tex/generic/pgf/frontendlayer/tikz/libraries/tikzlibrarypositioning.code.tex
INPUT /usr/share/texmf-dist/tex/generic/pgf/frontendlayer/tikz/libraries/tikzlibrarypositioning.code.tex
INPUT /usr/share/texmf-dist/tex/generic/pgf/frontendlayer/tikz/libraries/tikzlibrarycalc.code.tex
INPUT /usr/share/texmf-dist/tex/generic/pgf/frontendlayer/tikz/libraries/tikzlibrarycalc.code.tex
INPUT /usr/share/texmf-dist/tex/generic/pgf/frontendlayer/tikz/libraries/tikzlibraryfadings.code.tex
INPUT /usr/share/texmf-dist/tex/generic/pgf/frontendlayer/tikz/libraries/tikzlibraryfadings.code.tex
INPUT /usr/share/texmf-dist/tex/generic/pgf/libraries/pgflibraryfadings.code.tex
INPUT /usr/share/texmf-dist/tex/generic/pgf/libraries/pgflibraryfadings.code.tex
OUTPUT main.pdf
INPUT /usr/share/texmf-dist/tex/generic/pgf/frontendlayer/tikz/libraries/tikzlibrarydecorations.markings.code.tex
INPUT /usr/share/texmf-dist/tex/generic/pgf/frontendlayer/tikz/libraries/tikzlibrarydecorations.markings.code.tex
INPUT /usr/share/texmf-dist/tex/generic/pgf/libraries/decorations/pgflibrarydecorations.markings.code.tex
INPUT /usr/share/texmf-dist/tex/generic/pgf/libraries/decorations/pgflibrarydecorations.markings.code.tex
INPUT /usr/share/texmf-dist/tex/generic/pgf/frontendlayer/tikz/libraries/tikzlibrarydecorations.pathreplacing.code.tex
INPUT /usr/share/texmf-dist/tex/generic/pgf/frontendlayer/tikz/libraries/tikzlibrarydecorations.pathreplacing.code.tex
INPUT /usr/share/texmf-dist/tex/generic/pgf/libraries/decorations/pgflibrarydecorations.pathreplacing.code.tex
INPUT /usr/share/texmf-dist/tex/generic/pgf/libraries/decorations/pgflibrarydecorations.pathreplacing.code.tex
INPUT /usr/share/texmf-dist/tex/generic/pgf/frontendlayer/tikz/libraries/tikzlibrarypatterns.code.tex
INPUT /usr/share/texmf-dist/tex/generic/pgf/frontendlayer/tikz/libraries/tikzlibrarypatterns.code.tex
INPUT /usr/share/texmf-dist/tex/generic/pgf/libraries/pgflibrarypatterns.code.tex
INPUT /usr/share/texmf-dist/tex/generic/pgf/libraries/pgflibrarypatterns.code.tex
INPUT /usr/share/texmf-dist/tex/generic/pgf/frontendlayer/tikz/libraries/tikzlibraryarrows.code.tex
INPUT /usr/share/texmf-dist/tex/generic/pgf/frontendlayer/tikz/libraries/tikzlibraryarrows.code.tex
INPUT /usr/share/texmf-dist/tex/generic/pgf/libraries/pgflibraryarrows.code.tex
INPUT /usr/share/texmf-dist/tex/generic/pgf/libraries/pgflibraryarrows.code.tex
INPUT /usr/share/texmf-dist/tex/generic/pgf/libraries/pgflibraryarrows.meta.code.tex
INPUT /usr/share/texmf-dist/tex/generic/pgf/libraries/pgflibraryarrows.meta.code.tex
INPUT /usr/share/texmf-dist/tex/generic/pgf/libraries/pgflibraryarrows.meta.code.tex
INPUT /usr/share/texmf-dist/tex/latex/xcolor/xcolor.sty
INPUT /usr/share/texmf-dist/tex/latex/l3backend/l3backend-pdftex.def
INPUT /usr/share/texmf-dist/tex/latex/l3backend/l3backend-pdftex.def
INPUT /usr/share/texmf-dist/tex/latex/l3backend/l3backend-pdftex.def
INPUT /usr/share/texmf-dist/tex/latex/l3backend/l3backend-pdftex.def
INPUT /usr/share/texmf-dist/tex/latex/l3backend/l3backend-pdftex.def
INPUT /usr/share/texmf-dist/tex/latex/l3backend/l3backend-pdftex.def
INPUT /usr/share/texmf-dist/tex/latex/l3backend/l3backend-pdftex.def
INPUT /usr/share/texmf-dist/tex/latex/l3backend/l3backend-pdftex.def
INPUT /usr/share/texmf-dist/tex/latex/l3backend/l3backend-pdftex.def
INPUT /usr/share/texmf-dist/tex/latex/l3backend/l3backend-pdftex.def
INPUT /usr/share/texmf-dist/tex/latex/l3backend/l3backend-pdftex.def
INPUT ./main.aux
INPUT main.aux
INPUT main.aux
OUTPUT main.aux
INPUT /usr/share/texmf-dist/tex/context/base/mkii/supp-pdf.mkii
INPUT /usr/share/texmf-dist/tex/context/base/mkii/supp-pdf.mkii
INPUT /usr/share/texmf-dist/tex/context/base/mkii/supp-pdf.mkii
INPUT /usr/share/texmf-dist/tex/context/base/mkii/supp-pdf.mkii
INPUT /usr/share/texmf-dist/tex/latex/epstopdf-pkg/epstopdf-base.sty
INPUT /usr/share/texmf-dist/tex/latex/epstopdf-pkg/epstopdf-base.sty
INPUT /usr/share/texmf-dist/tex/latex/epstopdf-pkg/epstopdf-base.sty
INPUT /usr/share/texmf-dist/tex/latex/epstopdf-pkg/epstopdf-base.sty
INPUT /usr/share/texmf-dist/tex/latex/epstopdf-pkg/epstopdf-base.sty
INPUT /usr/share/texmf-dist/tex/latex/epstopdf-pkg/epstopdf-base.sty
INPUT /usr/share/texmf-dist/tex/latex/epstopdf-pkg/epstopdf-base.sty
INPUT /usr/share/texmf-dist/tex/latex/epstopdf-pkg/epstopdf-base.sty
INPUT /usr/share/texmf-dist/tex/latex/epstopdf-pkg/epstopdf-base.sty
INPUT /usr/share/texmf-dist/tex/latex/epstopdf-pkg/epstopdf-base.sty
INPUT /usr/share/texmf-dist/tex/latex/epstopdf-pkg/epstopdf-base.sty
INPUT /usr/share/texmf-dist/tex/latex/latexconfig/epstopdf-sys.cfg
INPUT /usr/share/texmf-dist/tex/latex/latexconfig/epstopdf-sys.cfg
INPUT /usr/share/texmf-dist/tex/latex/latexconfig/epstopdf-sys.cfg
INPUT /usr/share/texmf-dist/tex/latex/latexconfig/epstopdf-sys.cfg
INPUT /usr/share/texmf-dist/fonts/map/fontname/texfonts.map
INPUT /usr/share/texmf-dist/fonts/tfm/public/amsfonts/cmextra/cmex7.tfm
INPUT /usr/share/texmf-dist/fonts/tfm/public/amsfonts/cmextra/cmex7.tfm
INPUT /usr/share/texmf-dist/tex/latex/amsfonts/umsa.fd
INPUT /usr/share/texmf-dist/tex/latex/amsfonts/umsa.fd
INPUT /usr/share/texmf-dist/tex/latex/amsfonts/umsa.fd
INPUT /usr/share/texmf-dist/tex/latex/amsfonts/umsa.fd
INPUT /usr/share/texmf-dist/fonts/tfm/public/amsfonts/symbols/msam10.tfm
INPUT /usr/share/texmf-dist/fonts/tfm/public/amsfonts/symbols/msam7.tfm
INPUT /usr/share/texmf-dist/fonts/tfm/public/amsfonts/symbols/msam5.tfm
INPUT /usr/share/texmf-dist/tex/latex/amsfonts/umsb.fd
INPUT /usr/share/texmf-dist/tex/latex/amsfonts/umsb.fd
INPUT /usr/share/texmf-dist/tex/latex/amsfonts/umsb.fd
INPUT /usr/share/texmf-dist/tex/latex/amsfonts/umsb.fd
INPUT /usr/share/texmf-dist/fonts/tfm/public/amsfonts/symbols/msbm10.tfm
INPUT /usr/share/texmf-dist/fonts/tfm/public/amsfonts/symbols/msbm7.tfm
INPUT /usr/share/texmf-dist/fonts/tfm/public/amsfonts/symbols/msbm5.tfm
INPUT /usr/share/texmf-dist/fonts/tfm/public/cm/cmr12.tfm
INPUT /usr/share/texmf-dist/fonts/tfm/public/cm/cmmi12.tfm
INPUT /usr/share/texmf-dist/fonts/tfm/public/cm/cmsy10.tfm
INPUT /usr/share/texmf-dist/fonts/tfm/public/cm/cmex10.tfm
INPUT /usr/share/texmf-dist/fonts/tfm/public/amsfonts/symbols/msam10.tfm
INPUT /usr/share/texmf-dist/fonts/tfm/public/amsfonts/symbols/msbm10.tfm
INPUT /usr/share/texmf-dist/fonts/tfm/public/cm/cmr17.tfm
INPUT /usr/share/texmf-dist/fonts/tfm/public/cm/cmr12.tfm
INPUT /usr/share/texmf-dist/fonts/tfm/public/cm/cmmi12.tfm
INPUT /usr/share/texmf-dist/fonts/tfm/public/cm/cmmi12.tfm
INPUT /usr/share/texmf-dist/fonts/tfm/public/cm/cmsy10.tfm
INPUT /usr/share/texmf-dist/fonts/tfm/public/cm/cmsy10.tfm
INPUT /usr/share/texmf-dist/fonts/tfm/public/cm/cmex10.tfm
INPUT /usr/share/texmf-dist/fonts/tfm/public/cm/cmex10.tfm
INPUT /usr/share/texmf-dist/fonts/tfm/public/amsfonts/symbols/msam10.tfm
INPUT /usr/share/texmf-dist/fonts/tfm/public/amsfonts/symbols/msam10.tfm
INPUT /usr/share/texmf-dist/fonts/tfm/public/amsfonts/symbols/msbm10.tfm
INPUT /usr/share/texmf-dist/fonts/tfm/public/amsfonts/symbols/msbm10.tfm
INPUT /usr/share/texmf-dist/fonts/tfm/public/cm/cmbx10.tfm
INPUT /usr/share/texmf-dist/fonts/tfm/public/cm/cmr9.tfm
INPUT /usr/share/texmf-dist/fonts/tfm/public/cm/cmr6.tfm
INPUT /usr/share/texmf-dist/fonts/tfm/public/cm/cmmi9.tfm
INPUT /usr/share/texmf-dist/fonts/tfm/public/cm/cmmi6.tfm
INPUT /usr/share/texmf-dist/fonts/tfm/public/cm/cmsy9.tfm
INPUT /usr/share/texmf-dist/fonts/tfm/public/cm/cmsy6.tfm
INPUT /usr/share/texmf-dist/fonts/tfm/public/amsfonts/cmextra/cmex9.tfm
INPUT /usr/share/texmf-dist/fonts/tfm/public/amsfonts/cmextra/cmex7.tfm
INPUT /usr/share/texmf-dist/fonts/tfm/public/amsfonts/symbols/msam10.tfm
INPUT /usr/share/texmf-dist/fonts/tfm/public/amsfonts/symbols/msam7.tfm
INPUT /usr/share/texmf-dist/fonts/tfm/public/amsfonts/symbols/msbm10.tfm
INPUT /usr/share/texmf-dist/fonts/tfm/public/amsfonts/symbols/msbm7.tfm
INPUT /usr/share/texmf-dist/fonts/tfm/public/cm/cmbx7.tfm
INPUT /usr/share/texmf-dist/fonts/tfm/public/cm/cmbx5.tfm
INPUT /usr/share/texmf-dist/fonts/tfm/public/cm/cmmib10.tfm
INPUT /usr/share/texmf-dist/fonts/tfm/public/amsfonts/cmextra/cmmib7.tfm
INPUT /usr/share/texmf-dist/fonts/tfm/public/amsfonts/cmextra/cmmib5.tfm
INPUT /usr/share/texmf-dist/fonts/tfm/public/cm/cmbsy10.tfm
INPUT /usr/share/texmf-dist/fonts/tfm/public/amsfonts/cmextra/cmbsy7.tfm
INPUT /usr/share/texmf-dist/fonts/tfm/public/amsfonts/cmextra/cmbsy5.tfm
INPUT /var/lib/texmf/fonts/map/pdftex/updmap/pdftex.map
INPUT main.aux
INPUT /usr/share/texmf-dist/fonts/type1/public/amsfonts/cm/cmbx10.pfb
INPUT /usr/share/texmf-dist/fonts/type1/public/amsfonts/cm/cmex10.pfb
INPUT /usr/share/texmf-dist/fonts/type1/public/amsfonts/cm/cmmi10.pfb
INPUT /usr/share/texmf-dist/fonts/type1/public/amsfonts/cm/cmmi12.pfb
INPUT /usr/share/texmf-dist/fonts/type1/public/amsfonts/cm/cmmi5.pfb
INPUT /usr/share/texmf-dist/fonts/type1/public/amsfonts/cm/cmmi7.pfb
INPUT /usr/share/texmf-dist/fonts/type1/public/amsfonts/cm/cmmib10.pfb
INPUT /usr/share/texmf-dist/fonts/type1/public/amsfonts/cm/cmr10.pfb
INPUT /usr/share/texmf-dist/fonts/type1/public/amsfonts/cm/cmr12.pfb
INPUT /usr/share/texmf-dist/fonts/type1/public/amsfonts/cm/cmr7.pfb
INPUT /usr/share/texmf-dist/fonts/type1/public/amsfonts/cm/cmr9.pfb
INPUT /usr/share/texmf-dist/fonts/type1/public/amsfonts/cm/cmsy10.pfb
INPUT /usr/share/texmf-dist/fonts/type1/public/amsfonts/cm/cmsy7.pfb
