<?xml version="1.0" encoding="UTF-8"?>
<svg xmlns="http://www.w3.org/2000/svg" xmlns:xlink="http://www.w3.org/1999/xlink" width="228.937" height="106.807" viewBox="0 0 228.937 106.807">
<defs>
<g>
<g id="glyph-0-0">
</g>
<g id="glyph-0-1">
<path d="M 4.078125 -2.296875 L 6.859375 -2.296875 C 7 -2.296875 7.1875 -2.296875 7.1875 -2.5 C 7.1875 -2.6875 7 -2.6875 6.859375 -2.6875 L 4.078125 -2.6875 L 4.078125 -5.484375 C 4.078125 -5.625 4.078125 -5.8125 3.875 -5.8125 C 3.671875 -5.8125 3.671875 -5.625 3.671875 -5.484375 L 3.671875 -2.6875 L 0.890625 -2.6875 C 0.75 -2.6875 0.5625 -2.6875 0.5625 -2.5 C 0.5625 -2.296875 0.75 -2.296875 0.890625 -2.296875 L 3.671875 -2.296875 L 3.671875 0.5 C 3.671875 0.640625 3.671875 0.828125 3.875 0.828125 C 4.078125 0.828125 4.078125 0.640625 4.078125 0.5 Z M 4.078125 -2.296875 "/>
</g>
<g id="glyph-1-0">
</g>
<g id="glyph-1-1">
<path d="M 1.90625 -0.53125 C 1.90625 -0.8125 1.671875 -1.0625 1.390625 -1.0625 C 1.09375 -1.0625 0.859375 -0.8125 0.859375 -0.53125 C 0.859375 -0.234375 1.09375 0 1.390625 0 C 1.671875 0 1.90625 -0.234375 1.90625 -0.53125 Z M 1.90625 -0.53125 "/>
</g>
</g>
<clipPath id="clip-0">
<path clip-rule="nonzero" d="M 28 1 L 35 1 L 35 8 L 28 8 Z M 28 1 "/>
</clipPath>
<clipPath id="clip-1">
<path clip-rule="nonzero" d="M 34.578125 4.683594 C 34.578125 3.03125 33.238281 1.691406 31.589844 1.691406 C 29.9375 1.691406 28.601562 3.03125 28.601562 4.683594 C 28.601562 6.332031 29.9375 7.671875 31.589844 7.671875 C 33.238281 7.671875 34.578125 6.332031 34.578125 4.683594 Z M 34.578125 4.683594 "/>
</clipPath>
<clipPath id="clip-2">
<path clip-rule="nonzero" d="M 63 1 L 70 1 L 70 8 L 63 8 Z M 63 1 "/>
</clipPath>
<clipPath id="clip-3">
<path clip-rule="nonzero" d="M 69.578125 4.683594 C 69.578125 3.03125 68.242188 1.691406 66.589844 1.691406 C 64.941406 1.691406 63.601562 3.03125 63.601562 4.683594 C 63.601562 6.332031 64.941406 7.671875 66.589844 7.671875 C 68.242188 7.671875 69.578125 6.332031 69.578125 4.683594 Z M 69.578125 4.683594 "/>
</clipPath>
<clipPath id="clip-4">
<path clip-rule="nonzero" d="M 173 1 L 180 1 L 180 8 L 173 8 Z M 173 1 "/>
</clipPath>
<clipPath id="clip-5">
<path clip-rule="nonzero" d="M 179.675781 4.683594 C 179.675781 3.03125 178.339844 1.691406 176.6875 1.691406 C 175.039062 1.691406 173.699219 3.03125 173.699219 4.683594 C 173.699219 6.332031 175.039062 7.671875 176.6875 7.671875 C 178.339844 7.671875 179.675781 6.332031 179.675781 4.683594 Z M 179.675781 4.683594 "/>
</clipPath>
<clipPath id="clip-6">
<path clip-rule="nonzero" d="M 191 1 L 198 1 L 198 8 L 191 8 Z M 191 1 "/>
</clipPath>
<clipPath id="clip-7">
<path clip-rule="nonzero" d="M 197.859375 4.683594 C 197.859375 3.03125 196.523438 1.691406 194.871094 1.691406 C 193.222656 1.691406 191.882812 3.03125 191.882812 4.683594 C 191.882812 6.332031 193.222656 7.671875 194.871094 7.671875 C 196.523438 7.671875 197.859375 6.332031 197.859375 4.683594 Z M 197.859375 4.683594 "/>
</clipPath>
<clipPath id="clip-8">
<path clip-rule="nonzero" d="M 210 0 L 228.9375 0 L 228.9375 38 L 210 38 Z M 210 0 "/>
</clipPath>
<clipPath id="clip-9">
<path clip-rule="nonzero" d="M 197 0 L 228.9375 0 L 228.9375 39 L 197 39 Z M 197 0 "/>
</clipPath>
<clipPath id="clip-10">
<path clip-rule="nonzero" d="M 183 13 L 228.9375 13 L 228.9375 39 L 183 39 Z M 183 13 "/>
</clipPath>
<clipPath id="clip-11">
<path clip-rule="nonzero" d="M 184 0 L 228.9375 0 L 228.9375 52 L 184 52 Z M 184 0 "/>
</clipPath>
<clipPath id="clip-12">
<path clip-rule="nonzero" d="M 210 14 L 228.9375 14 L 228.9375 59 L 210 59 Z M 210 14 "/>
</clipPath>
<clipPath id="clip-13">
<path clip-rule="nonzero" d="M 197 13 L 228.9375 13 L 228.9375 62 L 197 62 Z M 197 13 "/>
</clipPath>
<clipPath id="clip-14">
<path clip-rule="nonzero" d="M 9 58 L 16 58 L 16 65 L 9 65 Z M 9 58 "/>
</clipPath>
<clipPath id="clip-15">
<path clip-rule="nonzero" d="M 15.011719 61.375 C 15.011719 59.722656 13.671875 58.386719 12.023438 58.386719 C 10.371094 58.386719 9.035156 59.722656 9.035156 61.375 C 9.035156 63.027344 10.371094 64.363281 12.023438 64.363281 C 13.671875 64.363281 15.011719 63.027344 15.011719 61.375 Z M 15.011719 61.375 "/>
</clipPath>
<clipPath id="clip-16">
<path clip-rule="nonzero" d="M 0 59 L 53 59 L 53 106.808594 L 0 106.808594 Z M 0 59 "/>
</clipPath>
<clipPath id="clip-17">
<path clip-rule="nonzero" d="M 0 78 L 38 78 L 38 106.808594 L 0 106.808594 Z M 0 78 "/>
</clipPath>
<clipPath id="clip-18">
<path clip-rule="nonzero" d="M 14 78 L 52 78 L 52 106.808594 L 14 106.808594 Z M 14 78 "/>
</clipPath>
<clipPath id="clip-19">
<path clip-rule="nonzero" d="M 73 58 L 80 58 L 80 65 L 73 65 Z M 73 58 "/>
</clipPath>
<clipPath id="clip-20">
<path clip-rule="nonzero" d="M 79.222656 61.375 C 79.222656 59.722656 77.886719 58.386719 76.234375 58.386719 C 74.585938 58.386719 73.246094 59.722656 73.246094 61.375 C 73.246094 63.027344 74.585938 64.363281 76.234375 64.363281 C 77.886719 64.363281 79.222656 63.027344 79.222656 61.375 Z M 79.222656 61.375 "/>
</clipPath>
<clipPath id="clip-21">
<path clip-rule="nonzero" d="M 43 71 L 88 71 L 88 106.808594 L 43 106.808594 Z M 43 71 "/>
</clipPath>
<clipPath id="clip-22">
<path clip-rule="nonzero" d="M 63 71 L 89 71 L 89 106.808594 L 63 106.808594 Z M 63 71 "/>
</clipPath>
<clipPath id="clip-23">
<path clip-rule="nonzero" d="M 50 69 L 103 69 L 103 106.808594 L 50 106.808594 Z M 50 69 "/>
</clipPath>
<clipPath id="clip-24">
<path clip-rule="nonzero" d="M 64 71 L 109 71 L 109 106.808594 L 64 106.808594 Z M 64 71 "/>
</clipPath>
<clipPath id="clip-25">
<path clip-rule="nonzero" d="M 108 58 L 115 58 L 115 65 L 108 65 Z M 108 58 "/>
</clipPath>
<clipPath id="clip-26">
<path clip-rule="nonzero" d="M 114.222656 61.375 C 114.222656 59.722656 112.886719 58.386719 111.234375 58.386719 C 109.585938 58.386719 108.246094 59.722656 108.246094 61.375 C 108.246094 63.027344 109.585938 64.363281 111.234375 64.363281 C 112.886719 64.363281 114.222656 63.027344 114.222656 61.375 Z M 114.222656 61.375 "/>
</clipPath>
<clipPath id="clip-27">
<path clip-rule="nonzero" d="M 99 71 L 137 71 L 137 106.808594 L 99 106.808594 Z M 99 71 "/>
</clipPath>
<clipPath id="clip-28">
<path clip-rule="nonzero" d="M 91 69 L 143 69 L 143 106.808594 L 91 106.808594 Z M 91 69 "/>
</clipPath>
<clipPath id="clip-29">
<path clip-rule="nonzero" d="M 114 71 L 151 71 L 151 106.808594 L 114 106.808594 Z M 114 71 "/>
</clipPath>
<clipPath id="clip-30">
<path clip-rule="nonzero" d="M 108 69 L 160 69 L 160 106.808594 L 108 106.808594 Z M 108 69 "/>
</clipPath>
<clipPath id="clip-31">
<path clip-rule="nonzero" d="M 149 58 L 156 58 L 156 65 L 149 65 Z M 149 58 "/>
</clipPath>
<clipPath id="clip-32">
<path clip-rule="nonzero" d="M 155.328125 61.375 C 155.328125 59.722656 153.988281 58.386719 152.339844 58.386719 C 150.6875 58.386719 149.347656 59.722656 149.347656 61.375 C 149.347656 63.027344 150.6875 64.363281 152.339844 64.363281 C 153.988281 64.363281 155.328125 63.027344 155.328125 61.375 Z M 155.328125 61.375 "/>
</clipPath>
<clipPath id="clip-33">
<path clip-rule="nonzero" d="M 160 71 L 187 71 L 187 106.808594 L 160 106.808594 Z M 160 71 "/>
</clipPath>
<clipPath id="clip-34">
<path clip-rule="nonzero" d="M 147 69 L 200 69 L 200 106.808594 L 147 106.808594 Z M 147 69 "/>
</clipPath>
</defs>
<g clip-path="url(#clip-0)">
<g clip-path="url(#clip-1)">
<path fill="none" stroke-width="0.3985" stroke-linecap="butt" stroke-linejoin="miter" stroke="rgb(94.900513%, 55.683899%, 0%)" stroke-opacity="1" stroke-miterlimit="10" d="M 2.989125 18.270125 L -2.987437 24.250594 M -2.987437 18.270125 L 2.989125 24.250594 " transform="matrix(1, 0, 0, -1, 31.589, 25.942)"/>
</g>
</g>
<path fill="none" stroke-width="0.3985" stroke-linecap="butt" stroke-linejoin="miter" stroke="rgb(94.900513%, 55.683899%, 0%)" stroke-opacity="1" stroke-miterlimit="10" d="M 2.989125 21.258406 C 2.989125 22.91075 1.649281 24.250594 0.00084375 24.250594 C -1.6515 24.250594 -2.987437 22.91075 -2.987437 21.258406 C -2.987437 19.609969 -1.6515 18.270125 0.00084375 18.270125 C 1.649281 18.270125 2.989125 19.609969 2.989125 21.258406 Z M 2.989125 21.258406 " transform="matrix(1, 0, 0, -1, 31.589, 25.942)"/>
<path fill="none" stroke-width="0.79701" stroke-linecap="butt" stroke-linejoin="miter" stroke="rgb(0%, 65.098572%, 92.156982%)" stroke-opacity="1" stroke-miterlimit="10" d="M 0.00084375 7.086531 C 0.00084375 7.793563 -1.417125 8.149031 -1.417125 8.859969 C -1.417125 9.371688 -0.725719 9.813094 0.00084375 10.274031 C 0.727406 10.738875 1.418813 11.180281 1.418813 11.692 C 1.418813 12.207625 0.727406 12.649031 0.00084375 13.109969 C -0.725719 13.570906 -1.417125 14.016219 -1.417125 14.527938 C -1.417125 15.234969 0.00084375 15.590438 0.00084375 16.297469 L 0.00084375 18.070906 " transform="matrix(1, 0, 0, -1, 31.589, 25.942)"/>
<path fill="none" stroke-width="9.96277" stroke-linecap="butt" stroke-linejoin="miter" stroke="rgb(0%, 65.098572%, 92.156982%)" stroke-opacity="1" stroke-miterlimit="10" d="M -0.0111406 21.430273 L 21.424406 -0.00527344 L -0.0111406 -21.416406 " transform="matrix(0, -0.16, -0.16, 0, 31.589, 16.81853)"/>
<path fill="none" stroke-width="0.79701" stroke-linecap="butt" stroke-linejoin="miter" stroke="rgb(0%, 65.098572%, 92.156982%)" stroke-opacity="1" stroke-miterlimit="10" d="M -28.346812 -21.261125 C -27.846812 -20.757219 -28.596812 -19.507219 -28.096812 -19.003312 C -27.733531 -18.643937 -26.93275 -18.819719 -26.092906 -19.003312 C -25.253062 -19.190812 -24.448375 -19.366594 -24.089 -19.003312 C -23.725719 -18.643937 -23.9015 -17.83925 -24.089 -16.999406 C -24.272594 -16.159562 -24.448375 -15.358781 -24.089 -14.9955 C -23.725719 -14.632219 -22.921031 -14.811906 -22.081187 -14.9955 C -21.241344 -15.183 -20.440562 -15.358781 -20.077281 -14.9955 C -19.714 -14.632219 -19.893687 -13.831437 -20.077281 -12.991594 C -20.264781 -12.15175 -20.440562 -11.350969 -20.077281 -10.987687 C -19.714 -10.624406 -18.913219 -10.800187 -18.073375 -10.987687 C -17.233531 -11.175187 -16.43275 -11.350969 -16.069469 -10.987687 C -15.569469 -10.487687 -16.319469 -9.233781 -15.819469 -8.733781 L -14.174937 -7.085344 " transform="matrix(1, 0, 0, -1, 31.589, 25.942)"/>
<path fill="none" stroke-width="9.96277" stroke-linecap="butt" stroke-linejoin="miter" stroke="rgb(0%, 65.098572%, 92.156982%)" stroke-opacity="1" stroke-miterlimit="10" d="M 0.00197229 21.420639 L 21.42713 -0.00451914 L 0.00197229 -21.429677 " transform="matrix(0.11313, -0.11313, -0.11313, -0.11313, 8.52075, 41.92354)"/>
<path fill="none" stroke-width="0.79701" stroke-linecap="butt" stroke-linejoin="miter" stroke="rgb(0%, 65.098572%, 92.156982%)" stroke-opacity="1" stroke-miterlimit="10" d="M -14.174937 -7.085344 C -13.671031 -6.585344 -14.424937 -5.331437 -13.921031 -4.831437 C -13.561656 -4.468156 -12.756969 -4.643937 -11.917125 -4.831437 C -11.077281 -5.018937 -10.2765 -5.194719 -9.913219 -4.831437 C -9.549937 -4.468156 -9.725719 -3.667375 -9.913219 -2.827531 C -10.100719 -1.987687 -10.2765 -1.186906 -9.913219 -0.823625 C -9.549937 -0.460344 -8.749156 -0.636125 -7.909312 -0.823625 C -7.069469 -1.011125 -6.268687 -1.186906 -5.905406 -0.823625 C -5.542125 -0.460344 -5.717906 0.340438 -5.905406 1.180281 C -6.092906 2.020125 -6.268687 2.824813 -5.905406 3.184188 C -5.542125 3.547469 -4.741344 3.371688 -3.9015 3.184188 C -3.061656 3.000594 -2.260875 2.824813 -1.897594 3.184188 C -1.393687 3.688094 -2.147594 4.938094 -1.647594 5.442 L 0.00084375 7.086531 " transform="matrix(1, 0, 0, -1, 31.589, 25.942)"/>
<path fill="none" stroke-width="9.96277" stroke-linecap="butt" stroke-linejoin="miter" stroke="rgb(0%, 65.098572%, 92.156982%)" stroke-opacity="1" stroke-miterlimit="10" d="M -0.0114636 21.420683 L 21.413694 -0.00447494 L 0.00580085 -21.412369 " transform="matrix(0.11313, -0.11313, -0.11313, -0.11313, 22.69415, 27.75015)"/>
<path fill="none" stroke-width="0.79701" stroke-linecap="butt" stroke-linejoin="miter" stroke="rgb(0%, 65.098572%, 92.156982%)" stroke-opacity="1" stroke-miterlimit="10" d="M 0.00084375 -21.261125 C -0.499156 -20.757219 -1.753062 -21.511125 -2.253062 -21.011125 C -2.616344 -20.647844 -2.440562 -19.843156 -2.253062 -19.003312 C -2.069469 -18.163469 -1.893687 -17.362687 -2.253062 -16.999406 C -2.616344 -16.636125 -3.421031 -16.815812 -4.260875 -16.999406 C -5.100719 -17.186906 -5.9015 -17.362687 -6.264781 -16.999406 C -6.628062 -16.636125 -6.448375 -15.835344 -6.264781 -14.9955 C -6.077281 -14.155656 -5.9015 -13.354875 -6.264781 -12.991594 C -6.628062 -12.628312 -7.428844 -12.804094 -8.268687 -12.991594 C -9.108531 -13.179094 -9.909312 -13.354875 -10.272594 -12.991594 C -10.635875 -12.628312 -10.460094 -11.827531 -10.272594 -10.987687 C -10.085094 -10.147844 -9.909312 -9.347062 -10.272594 -8.983781 C -10.772594 -8.483781 -12.0265 -9.233781 -12.5265 -8.733781 L -14.174937 -7.085344 " transform="matrix(1, 0, 0, -1, 31.589, 25.942)"/>
<path fill="none" stroke-width="9.96277" stroke-linecap="butt" stroke-linejoin="miter" stroke="rgb(0%, 65.098572%, 92.156982%)" stroke-opacity="1" stroke-miterlimit="10" d="M -0.00170158 21.426003 L 21.423456 0.000845267 L -0.00170158 -21.424313 " transform="matrix(-0.11313, -0.11313, -0.11313, 0.11313, 26.31045, 41.92354)"/>
<path fill="none" stroke-width="0.79701" stroke-linecap="butt" stroke-linejoin="miter" stroke="rgb(0%, 65.098572%, 92.156982%)" stroke-opacity="1" stroke-miterlimit="10" d="M 21.258656 -21.261125 C 20.836781 -20.694719 19.489125 -21.261125 19.063344 -20.694719 C 18.75475 -20.284562 19.043813 -19.515031 19.3485 -18.710344 C 19.649281 -17.905656 19.938344 -17.136125 19.62975 -16.725969 C 19.321156 -16.315812 18.50475 -16.374406 17.645375 -16.440812 C 16.789906 -16.507219 15.969594 -16.569719 15.661 -16.159562 C 15.352406 -15.749406 15.641469 -14.979875 15.946156 -14.175187 C 16.246938 -13.3705 16.536 -12.600969 16.227406 -12.190812 C 15.922719 -11.780656 15.102406 -11.83925 14.243031 -11.905656 C 13.387563 -11.972062 12.56725 -12.034562 12.258656 -11.624406 C 11.953969 -11.210344 12.239125 -10.444719 12.543813 -9.640031 C 12.8485 -8.835344 13.133656 -8.065812 12.828969 -7.655656 C 12.520375 -7.2455 11.700063 -7.304094 10.844594 -7.3705 C 9.985219 -7.436906 9.164906 -7.499406 8.860219 -7.08925 C 8.551625 -6.675187 8.840688 -5.909562 9.141469 -5.104875 C 9.446156 -4.300187 9.735219 -3.530656 9.426625 -3.1205 C 9.118031 -2.710344 8.297719 -2.768937 7.44225 -2.835344 C 6.582875 -2.90175 5.766469 -2.96425 5.457875 -2.554094 C 5.149281 -2.140031 5.438344 -1.374406 5.739125 -0.569719 C 6.043813 0.234969 6.332875 1.0045 6.024281 1.414656 C 5.715688 1.824813 4.899281 1.766219 4.039906 1.699813 C 3.180531 1.633406 2.364125 1.570906 2.055531 1.981063 C 1.746938 2.395125 2.036 3.16075 2.340688 3.965438 C 2.641469 4.774031 2.930531 5.539656 2.621938 5.949813 C 2.196156 6.520125 0.852406 5.949813 0.426625 6.520125 L 0.00084375 7.086531 " transform="matrix(1, 0, 0, -1, 31.589, 25.942)"/>
<path fill="none" stroke-width="9.96277" stroke-linecap="butt" stroke-linejoin="miter" stroke="rgb(0%, 65.098572%, 92.156982%)" stroke-opacity="1" stroke-miterlimit="10" d="M 0.0076959 21.421966 L 21.414213 -0.00568925 L 0.00608898 -21.426856 " transform="matrix(-0.096, -0.12799, -0.12799, 0.096, 42.83238, 33.84682)"/>
<path fill-rule="nonzero" fill="rgb(94.900513%, 55.683899%, 0%)" fill-opacity="1" d="M 4.660156 47.203125 C 4.660156 46.417969 4.023438 45.785156 3.242188 45.785156 C 2.460938 45.785156 1.824219 46.417969 1.824219 47.203125 C 1.824219 47.984375 2.460938 48.621094 3.242188 48.621094 C 4.023438 48.621094 4.660156 47.984375 4.660156 47.203125 Z M 4.660156 47.203125 "/>
<path fill-rule="nonzero" fill="rgb(94.900513%, 55.683899%, 0%)" fill-opacity="1" d="M 33.007812 47.203125 C 33.007812 46.417969 32.371094 45.785156 31.589844 45.785156 C 30.804688 45.785156 30.171875 46.417969 30.171875 47.203125 C 30.171875 47.984375 30.804688 48.621094 31.589844 48.621094 C 32.371094 48.621094 33.007812 47.984375 33.007812 47.203125 Z M 33.007812 47.203125 "/>
<path fill-rule="nonzero" fill="rgb(94.900513%, 55.683899%, 0%)" fill-opacity="1" d="M 54.265625 47.203125 C 54.265625 46.417969 53.632812 45.785156 52.847656 45.785156 C 52.066406 45.785156 51.433594 46.417969 51.433594 47.203125 C 51.433594 47.984375 52.066406 48.621094 52.847656 48.621094 C 53.632812 48.621094 54.265625 47.984375 54.265625 47.203125 Z M 54.265625 47.203125 "/>
<g fill="rgb(0%, 0%, 0%)" fill-opacity="1">
<use xlink:href="#glyph-0-1" x="55.353" y="27.548"/>
</g>
<g clip-path="url(#clip-2)">
<g clip-path="url(#clip-3)">
<path fill="none" stroke-width="0.3985" stroke-linecap="butt" stroke-linejoin="miter" stroke="rgb(94.900513%, 55.683899%, 0%)" stroke-opacity="1" stroke-miterlimit="10" d="M -25.358875 18.270125 L -31.335437 24.250594 M -31.335437 18.270125 L -25.358875 24.250594 " transform="matrix(1, 0, 0, -1, 94.937, 25.942)"/>
</g>
</g>
<path fill="none" stroke-width="0.3985" stroke-linecap="butt" stroke-linejoin="miter" stroke="rgb(94.900513%, 55.683899%, 0%)" stroke-opacity="1" stroke-miterlimit="10" d="M -25.358875 21.258406 C -25.358875 22.91075 -26.694812 24.250594 -28.347156 24.250594 C -29.995594 24.250594 -31.335437 22.91075 -31.335437 21.258406 C -31.335437 19.609969 -29.995594 18.270125 -28.347156 18.270125 C -26.694812 18.270125 -25.358875 19.609969 -25.358875 21.258406 Z M -25.358875 21.258406 " transform="matrix(1, 0, 0, -1, 94.937, 25.942)"/>
<path fill="none" stroke-width="0.79701" stroke-linecap="butt" stroke-linejoin="miter" stroke="rgb(0%, 65.098572%, 92.156982%)" stroke-opacity="1" stroke-miterlimit="10" d="M -14.175281 7.086531 C -14.675281 7.586531 -15.925281 6.836531 -16.429187 7.336531 C -16.792469 7.699813 -16.612781 8.500594 -16.429187 9.340438 C -16.241687 10.180281 -16.065906 10.984969 -16.429187 11.344344 C -16.792469 11.707625 -17.59325 11.531844 -18.433094 11.344344 C -19.272937 11.16075 -20.073719 10.984969 -20.437 11.344344 C -20.800281 11.707625 -20.6245 12.512313 -20.437 13.352156 C -20.2495 14.192 -20.073719 14.992781 -20.437 15.356063 C -20.800281 15.719344 -21.601062 15.539656 -22.440906 15.356063 C -23.28075 15.168563 -24.081531 14.992781 -24.444812 15.356063 C -24.948719 15.856063 -24.194812 17.109969 -24.694812 17.609969 L -26.09325 19.0045 " transform="matrix(1, 0, 0, -1, 94.937, 25.942)"/>
<path fill="none" stroke-width="9.96277" stroke-linecap="butt" stroke-linejoin="miter" stroke="rgb(0%, 65.098572%, 92.156982%)" stroke-opacity="1" stroke-miterlimit="10" d="M -0.0122647 21.41691 L 21.412893 -0.00824825 L 0.00499978 -21.416142 " transform="matrix(-0.11313, -0.11313, -0.11313, 0.11313, 76.83557, 14.92728)"/>
<path fill="none" stroke-width="0.79701" stroke-linecap="butt" stroke-linejoin="miter" stroke="rgb(0%, 65.098572%, 92.156982%)" stroke-opacity="1" stroke-miterlimit="10" d="M 0.0005 21.258406 C -0.4995 20.758406 0.2505 19.5045 -0.2495 19.0045 C -0.612781 18.641219 -1.413562 18.817 -2.253406 19.0045 C -3.09325 19.192 -3.897937 19.367781 -4.261219 19.0045 C -4.620594 18.641219 -4.444812 17.840438 -4.261219 17.000594 C -4.073719 16.16075 -3.897937 15.359969 -4.261219 14.996688 C -4.620594 14.633406 -5.425281 14.809188 -6.265125 14.996688 C -7.104969 15.184188 -7.90575 15.359969 -8.269031 14.996688 C -8.632312 14.633406 -8.452625 13.832625 -8.269031 12.992781 C -8.081531 12.152938 -7.90575 11.352156 -8.269031 10.988875 C -8.632312 10.625594 -9.433094 10.801375 -10.272937 10.988875 C -11.112781 11.172469 -11.913562 11.352156 -12.276844 10.988875 C -12.776844 10.484969 -12.026844 9.234969 -12.526844 8.731063 L -14.175281 7.086531 " transform="matrix(1, 0, 0, -1, 94.937, 25.942)"/>
<path fill="none" stroke-width="9.96277" stroke-linecap="butt" stroke-linejoin="miter" stroke="rgb(0%, 65.098572%, 92.156982%)" stroke-opacity="1" stroke-miterlimit="10" d="M -0.0054307 21.417545 L 21.419727 -0.00761292 L 0.0118337 -21.415506 " transform="matrix(-0.11313, 0.11313, 0.11313, 0.11313, 89.65845, 9.96046)"/>
<path fill="none" stroke-width="0.79701" stroke-linecap="butt" stroke-linejoin="miter" stroke="rgb(0%, 65.098572%, 92.156982%)" stroke-opacity="1" stroke-miterlimit="10" d="M 0.0005 -7.085344 C -0.4995 -6.585344 -1.753406 -7.335344 -2.253406 -6.835344 C -2.616687 -6.472062 -2.440906 -5.671281 -2.253406 -4.831437 C -2.069812 -3.991594 -1.894031 -3.190812 -2.253406 -2.827531 C -2.616687 -2.46425 -3.421375 -2.640031 -4.261219 -2.827531 C -5.101062 -3.015031 -5.901844 -3.190812 -6.265125 -2.827531 C -6.628406 -2.46425 -6.448719 -1.663469 -6.265125 -0.823625 C -6.077625 0.0162188 -5.901844 0.817 -6.265125 1.180281 C -6.628406 1.543563 -7.429187 1.367781 -8.269031 1.180281 C -9.108875 0.996688 -9.909656 0.817 -10.272937 1.180281 C -10.636219 1.543563 -10.460437 2.344344 -10.272937 3.184188 C -10.085437 4.024031 -9.909656 4.828719 -10.272937 5.192 C -10.772937 5.692 -12.026844 4.938094 -12.526844 5.442 L -14.175281 7.086531 " transform="matrix(1, 0, 0, -1, 94.937, 25.942)"/>
<path fill="none" stroke-width="9.96277" stroke-linecap="butt" stroke-linejoin="miter" stroke="rgb(0%, 65.098572%, 92.156982%)" stroke-opacity="1" stroke-miterlimit="10" d="M 0.0104747 21.417042 L 21.418368 0.00914877 L -0.00678976 -21.416009 " transform="matrix(-0.11313, -0.11313, -0.11313, 0.11313, 89.65847, 27.75015)"/>
<path fill="none" stroke-width="0.79701" stroke-linecap="butt" stroke-linejoin="miter" stroke="rgb(0%, 65.098572%, 92.156982%)" stroke-opacity="1" stroke-miterlimit="10" d="M 21.258313 21.258406 C 20.836438 20.692 21.754406 19.559188 21.332531 18.992781 C 21.023938 18.582625 20.203625 18.645125 19.348156 18.707625 C 18.488781 18.774031 17.668469 18.836531 17.363781 18.426375 C 17.055188 18.016219 17.34425 17.246688 17.645031 16.442 C 17.949719 15.637313 18.238781 14.867781 17.930188 14.457625 C 17.621594 14.047469 16.801281 14.109969 15.945813 14.172469 C 15.086438 14.238875 14.270031 14.301375 13.961438 13.891219 C 13.652844 13.481063 13.941906 12.711531 14.242688 11.906844 C 14.547375 11.102156 14.836438 10.332625 14.527844 9.922469 C 14.21925 9.512313 13.402844 9.570906 12.543469 9.637313 C 11.688 9.703719 10.867688 9.766219 10.559094 9.356063 C 10.2505 8.945906 10.539563 8.176375 10.84425 7.371688 C 11.145031 6.567 11.434094 5.797469 11.1255 5.387313 C 10.816906 4.977156 10.0005 5.03575 9.141125 5.102156 C 8.285656 5.168563 7.465344 5.231063 7.15675 4.820906 C 6.852063 4.41075 7.137219 3.641219 7.441906 2.836531 C 7.746594 2.031844 8.03175 1.262313 7.723156 0.852156 C 7.418469 0.442 6.598156 0.500594 5.742688 0.567 C 4.883313 0.633406 4.063 0.695906 3.758313 0.28575 C 3.449719 -0.124406 3.738781 -0.893937 4.039563 -1.698625 C 4.34425 -2.503312 4.633313 -3.272844 4.324719 -3.683 C 4.016125 -4.093156 3.195813 -4.034562 2.340344 -3.968156 C 1.480969 -3.90175 0.664563 -3.83925 0.355969 -4.249406 C -0.0698125 -4.819719 0.852063 -5.952531 0.426281 -6.518937 L 0.0005 -7.085344 " transform="matrix(1, 0, 0, -1, 94.937, 25.942)"/>
<path fill="none" stroke-width="9.96277" stroke-linecap="butt" stroke-linejoin="miter" stroke="rgb(0%, 65.098572%, 92.156982%)" stroke-opacity="1" stroke-miterlimit="10" d="M 0.00144055 21.420684 L 21.409564 -0.000483103 L 0.00304746 -21.428138 " transform="matrix(-0.096, 0.12799, 0.12799, 0.096, 106.18038, 18.03718)"/>
<path fill="none" stroke-width="0.79701" stroke-linecap="butt" stroke-linejoin="miter" stroke="rgb(0%, 65.098572%, 92.156982%)" stroke-opacity="1" stroke-miterlimit="10" d="M 0.0005 -21.261125 C 0.0005 -20.550187 -1.417469 -20.198625 -1.417469 -19.487687 C -1.417469 -18.975969 -0.726062 -18.534562 0.0005 -18.069719 C 0.727063 -17.608781 1.418469 -17.167375 1.418469 -16.655656 C 1.418469 -16.140031 0.727063 -15.698625 0.0005 -15.237687 C -0.726062 -14.772844 -1.417469 -14.331437 -1.417469 -13.819719 C -1.417469 -13.308 -0.726062 -12.862687 0.0005 -12.40175 C 0.727063 -11.940812 1.418469 -11.499406 1.418469 -10.983781 C 1.418469 -10.27675 0.0005 -9.921281 0.0005 -9.21425 L 0.0005 -7.085344 " transform="matrix(1, 0, 0, -1, 94.937, 25.942)"/>
<path fill="none" stroke-width="9.96277" stroke-linecap="butt" stroke-linejoin="miter" stroke="rgb(0%, 65.098572%, 92.156982%)" stroke-opacity="1" stroke-miterlimit="10" d="M -0.00916406 21.408008 L 21.426383 -0.003125 L -0.00916406 -21.414258 " transform="matrix(0, -0.16, -0.16, 0, 94.937, 43.25244)"/>
<path fill-rule="nonzero" fill="rgb(94.900513%, 55.683899%, 0%)" fill-opacity="1" d="M 96.355469 4.683594 C 96.355469 3.898438 95.71875 3.265625 94.9375 3.265625 C 94.152344 3.265625 93.519531 3.898438 93.519531 4.683594 C 93.519531 5.464844 94.152344 6.097656 94.9375 6.097656 C 95.71875 6.097656 96.355469 5.464844 96.355469 4.683594 Z M 96.355469 4.683594 "/>
<path fill-rule="nonzero" fill="rgb(94.900513%, 55.683899%, 0%)" fill-opacity="1" d="M 117.613281 4.683594 C 117.613281 3.898438 116.980469 3.265625 116.195312 3.265625 C 115.414062 3.265625 114.78125 3.898438 114.78125 4.683594 C 114.78125 5.464844 115.414062 6.097656 116.195312 6.097656 C 116.980469 6.097656 117.613281 5.464844 117.613281 4.683594 Z M 117.613281 4.683594 "/>
<path fill-rule="nonzero" fill="rgb(94.900513%, 55.683899%, 0%)" fill-opacity="1" d="M 96.355469 47.203125 C 96.355469 46.417969 95.71875 45.785156 94.9375 45.785156 C 94.152344 45.785156 93.519531 46.417969 93.519531 47.203125 C 93.519531 47.984375 94.152344 48.621094 94.9375 48.621094 C 95.71875 48.621094 96.355469 47.984375 96.355469 47.203125 Z M 96.355469 47.203125 "/>
<g fill="rgb(0%, 0%, 0%)" fill-opacity="1">
<use xlink:href="#glyph-0-1" x="117.715" y="27.548"/>
</g>
<g clip-path="url(#clip-4)">
<g clip-path="url(#clip-5)">
<path fill="none" stroke-width="0.3985" stroke-linecap="butt" stroke-linejoin="miter" stroke="rgb(94.900513%, 55.683899%, 0%)" stroke-opacity="1" stroke-miterlimit="10" d="M 24.247781 18.270125 L 18.271219 24.250594 M 18.271219 18.270125 L 24.247781 24.250594 " transform="matrix(1, 0, 0, -1, 155.428, 25.942)"/>
</g>
</g>
<path fill="none" stroke-width="0.3985" stroke-linecap="butt" stroke-linejoin="miter" stroke="rgb(94.900513%, 55.683899%, 0%)" stroke-opacity="1" stroke-miterlimit="10" d="M 24.247781 21.258406 C 24.247781 22.91075 22.911844 24.250594 21.2595 24.250594 C 19.611063 24.250594 18.271219 22.91075 18.271219 21.258406 C 18.271219 19.609969 19.611063 18.270125 21.2595 18.270125 C 22.911844 18.270125 24.247781 19.609969 24.247781 21.258406 Z M 24.247781 21.258406 " transform="matrix(1, 0, 0, -1, 155.428, 25.942)"/>
<path fill="none" stroke-width="0.79701" stroke-linecap="butt" stroke-linejoin="miter" stroke="rgb(0%, 65.098572%, 92.156982%)" stroke-opacity="1" stroke-miterlimit="10" d="M 0.0016875 -7.085344 C 0.423563 -6.518937 -0.494406 -5.386125 -0.0725312 -4.819719 C 0.236063 -4.409562 1.056375 -4.468156 1.911844 -4.534562 C 2.771219 -4.600969 3.591531 -4.663469 3.896219 -4.253312 C 4.204813 -3.843156 3.91575 -3.073625 3.614969 -2.268937 C 3.310281 -1.46425 3.021219 -0.694719 3.329813 -0.284562 C 3.638406 0.125594 4.458719 0.067 5.314188 0.00059375 C 6.173563 -0.0658125 6.989969 -0.128312 7.298563 0.281844 C 7.607156 0.692 7.318094 1.461531 7.017313 2.266219 C 6.712625 3.070906 6.423563 3.840438 6.732156 4.250594 C 7.04075 4.66075 7.857156 4.602156 8.716531 4.53575 C 9.575906 4.469344 10.392313 4.406844 10.700906 4.817 C 11.0095 5.227156 10.720438 5.996688 10.41575 6.801375 C 10.114969 7.606063 9.825906 8.375594 10.1345 8.78575 C 10.443094 9.195906 11.2595 9.137313 12.118875 9.070906 C 12.974344 9.0045 13.794656 8.942 14.10325 9.352156 C 14.407938 9.762313 14.122781 10.531844 13.818094 11.336531 C 13.513406 12.141219 13.22825 12.91075 13.536844 13.320906 C 13.841531 13.731063 14.661844 13.672469 15.517313 13.606063 C 16.376688 13.539656 17.197 13.477156 17.501688 13.887313 C 17.810281 14.297469 17.525125 15.067 17.220438 15.871688 C 16.91575 16.676375 16.630594 17.445906 16.935281 17.856063 C 17.361063 18.422469 18.708719 17.856063 19.1345 18.422469 L 19.345438 18.711531 " transform="matrix(1, 0, 0, -1, 155.428, 25.942)"/>
<path fill="none" stroke-width="9.96277" stroke-linecap="butt" stroke-linejoin="miter" stroke="rgb(0%, 65.098572%, 92.156982%)" stroke-opacity="1" stroke-miterlimit="10" d="M -0.00585234 21.429521 L 21.416921 -0.0111771 L -0.00424543 -21.419301 " transform="matrix(0.096, -0.12799, -0.12799, -0.096, 164.30192, 21.19711)"/>
<path fill="none" stroke-width="0.79701" stroke-linecap="butt" stroke-linejoin="miter" stroke="rgb(0%, 65.098572%, 92.156982%)" stroke-opacity="1" stroke-miterlimit="10" d="M 0.0016875 21.258406 C -0.502219 20.758406 0.251688 19.5045 -0.252219 19.0045 C -0.611594 18.641219 -1.416281 18.817 -2.256125 19.0045 C -3.095969 19.192 -3.89675 19.367781 -4.260031 19.0045 C -4.623312 18.641219 -4.447531 17.840438 -4.260031 17.000594 C -4.072531 16.16075 -3.89675 15.359969 -4.260031 14.996688 C -4.623312 14.633406 -5.424094 14.809188 -6.263937 14.996688 C -7.103781 15.184188 -7.904562 15.359969 -8.267844 14.996688 C -8.631125 14.633406 -8.455344 13.832625 -8.267844 12.992781 C -8.080344 12.152938 -7.904562 11.352156 -8.267844 10.988875 C -8.631125 10.625594 -9.431906 10.801375 -10.27175 10.988875 C -11.111594 11.172469 -11.912375 11.352156 -12.275656 10.988875 C -12.779562 10.484969 -12.025656 9.234969 -12.525656 8.731063 L -14.174094 7.086531 " transform="matrix(1, 0, 0, -1, 155.428, 25.942)"/>
<path fill="none" stroke-width="9.96277" stroke-linecap="butt" stroke-linejoin="miter" stroke="rgb(0%, 65.098572%, 92.156982%)" stroke-opacity="1" stroke-miterlimit="10" d="M -0.0106791 21.422793 L 21.414479 -0.00236454 L 0.00658534 -21.410258 " transform="matrix(-0.11313, 0.11313, 0.11313, 0.11313, 150.14945, 9.96046)"/>
<path fill="none" stroke-width="0.79701" stroke-linecap="butt" stroke-linejoin="miter" stroke="rgb(0%, 65.098572%, 92.156982%)" stroke-opacity="1" stroke-miterlimit="10" d="M -14.174094 7.086531 C -13.674094 6.586531 -12.420187 7.336531 -11.920187 6.836531 C -11.556906 6.47325 -11.732687 5.672469 -11.920187 4.832625 C -12.103781 3.992781 -12.279562 3.192 -11.920187 2.828719 C -11.556906 2.465438 -10.752219 2.641219 -9.912375 2.828719 C -9.072531 3.012313 -8.27175 3.192 -7.908469 2.828719 C -7.545187 2.465438 -7.724875 1.664656 -7.908469 0.824813 C -8.095969 -0.0150312 -8.27175 -0.819719 -7.908469 -1.183 C -7.545187 -1.542375 -6.744406 -1.366594 -5.904562 -1.183 C -5.064719 -0.9955 -4.263937 -0.819719 -3.900656 -1.183 C -3.537375 -1.542375 -3.713156 -2.347062 -3.900656 -3.186906 C -4.088156 -4.02675 -4.263937 -4.827531 -3.900656 -5.190812 C -3.400656 -5.690812 -2.14675 -4.940812 -1.64675 -5.440812 L 0.0016875 -7.085344 " transform="matrix(1, 0, 0, -1, 155.428, 25.942)"/>
<path fill="none" stroke-width="9.96277" stroke-linecap="butt" stroke-linejoin="miter" stroke="rgb(0%, 65.098572%, 92.156982%)" stroke-opacity="1" stroke-miterlimit="10" d="M 0.00428158 21.421346 L 21.42944 -0.00381199 L 0.00428158 -21.42897 " transform="matrix(0.11313, 0.11313, 0.11313, -0.11313, 146.53315, 24.13385)"/>
<path fill="none" stroke-width="0.79701" stroke-linecap="butt" stroke-linejoin="miter" stroke="rgb(0%, 65.098572%, 92.156982%)" stroke-opacity="1" stroke-miterlimit="10" d="M -28.345969 21.258406 C -27.845969 20.758406 -26.592062 21.512313 -26.092062 21.008406 C -25.728781 20.645125 -25.904562 19.844344 -26.092062 19.0045 C -26.279562 18.164656 -26.455344 17.363875 -26.092062 17.000594 C -25.728781 16.637313 -24.928 16.813094 -24.088156 17.000594 C -23.248312 17.188094 -22.447531 17.363875 -22.08425 17.000594 C -21.720969 16.637313 -21.89675 15.836531 -22.08425 14.996688 C -22.267844 14.156844 -22.447531 13.356063 -22.08425 12.992781 C -21.720969 12.6295 -20.920187 12.805281 -20.080344 12.992781 C -19.2405 13.180281 -18.435812 13.356063 -18.072531 12.992781 C -17.713156 12.6295 -17.888937 11.828719 -18.072531 10.988875 C -18.260031 10.149031 -18.435812 9.344344 -18.072531 8.984969 C -17.572531 8.481063 -16.318625 9.234969 -15.818625 8.731063 L -14.174094 7.086531 " transform="matrix(1, 0, 0, -1, 155.428, 25.942)"/>
<path fill="none" stroke-width="9.96277" stroke-linecap="butt" stroke-linejoin="miter" stroke="rgb(0%, 65.098572%, 92.156982%)" stroke-opacity="1" stroke-miterlimit="10" d="M 0.000453019 21.404126 L 21.408347 -0.00376779 L 0.000453019 -21.411661 " transform="matrix(0.11313, 0.11313, 0.11313, -0.11313, 132.35975, 9.96046)"/>
<path fill="none" stroke-width="0.79701" stroke-linecap="butt" stroke-linejoin="miter" stroke="rgb(0%, 65.098572%, 92.156982%)" stroke-opacity="1" stroke-miterlimit="10" d="M 0.0016875 -21.261125 C 0.0016875 -20.550187 -1.416281 -20.198625 -1.416281 -19.487687 C -1.416281 -18.975969 -0.724875 -18.534562 0.0016875 -18.069719 C 0.724344 -17.608781 1.41575 -17.167375 1.41575 -16.655656 C 1.41575 -16.140031 0.724344 -15.698625 0.0016875 -15.237687 C -0.724875 -14.772844 -1.416281 -14.331437 -1.416281 -13.819719 C -1.416281 -13.308 -0.724875 -12.862687 0.0016875 -12.40175 C 0.724344 -11.940812 1.41575 -11.499406 1.41575 -10.983781 C 1.41575 -10.27675 0.0016875 -9.921281 0.0016875 -9.21425 L 0.0016875 -7.085344 " transform="matrix(1, 0, 0, -1, 155.428, 25.942)"/>
<path fill="none" stroke-width="9.96277" stroke-linecap="butt" stroke-linejoin="miter" stroke="rgb(0%, 65.098572%, 92.156982%)" stroke-opacity="1" stroke-miterlimit="10" d="M -0.00916406 21.425 L 21.426383 -0.0105469 L -0.00916406 -21.42168 " transform="matrix(0, -0.16, -0.16, 0, 155.428, 43.25244)"/>
<path fill-rule="nonzero" fill="rgb(94.900513%, 55.683899%, 0%)" fill-opacity="1" d="M 156.84375 4.683594 C 156.84375 3.898438 156.210938 3.265625 155.429688 3.265625 C 154.644531 3.265625 154.011719 3.898438 154.011719 4.683594 C 154.011719 5.464844 154.644531 6.097656 155.429688 6.097656 C 156.210938 6.097656 156.84375 5.464844 156.84375 4.683594 Z M 156.84375 4.683594 "/>
<path fill-rule="nonzero" fill="rgb(94.900513%, 55.683899%, 0%)" fill-opacity="1" d="M 128.5 4.683594 C 128.5 3.898438 127.863281 3.265625 127.082031 3.265625 C 126.296875 3.265625 125.664062 3.898438 125.664062 4.683594 C 125.664062 5.464844 126.296875 6.097656 127.082031 6.097656 C 127.863281 6.097656 128.5 5.464844 128.5 4.683594 Z M 128.5 4.683594 "/>
<path fill-rule="nonzero" fill="rgb(94.900513%, 55.683899%, 0%)" fill-opacity="1" d="M 156.84375 47.203125 C 156.84375 46.417969 156.210938 45.785156 155.429688 45.785156 C 154.644531 45.785156 154.011719 46.417969 154.011719 47.203125 C 154.011719 47.984375 154.644531 48.621094 155.429688 48.621094 C 156.210938 48.621094 156.84375 47.984375 156.84375 47.203125 Z M 156.84375 47.203125 "/>
<g fill="rgb(0%, 0%, 0%)" fill-opacity="1">
<use xlink:href="#glyph-0-1" x="180.077" y="27.548"/>
</g>
<g clip-path="url(#clip-6)">
<g clip-path="url(#clip-7)">
<path fill="none" stroke-width="0.3985" stroke-linecap="butt" stroke-linejoin="miter" stroke="rgb(94.900513%, 55.683899%, 0%)" stroke-opacity="1" stroke-miterlimit="10" d="M -11.185625 18.270125 L -17.162187 24.250594 M -17.162187 18.270125 L -11.185625 24.250594 " transform="matrix(1, 0, 0, -1, 209.045, 25.942)"/>
</g>
</g>
<path fill="none" stroke-width="0.3985" stroke-linecap="butt" stroke-linejoin="miter" stroke="rgb(94.900513%, 55.683899%, 0%)" stroke-opacity="1" stroke-miterlimit="10" d="M -11.185625 21.258406 C -11.185625 22.91075 -12.521562 24.250594 -14.173906 24.250594 C -15.822344 24.250594 -17.162187 22.91075 -17.162187 21.258406 C -17.162187 19.609969 -15.822344 18.270125 -14.173906 18.270125 C -12.521562 18.270125 -11.185625 19.609969 -11.185625 21.258406 Z M -11.185625 21.258406 " transform="matrix(1, 0, 0, -1, 209.045, 25.942)"/>
<path fill="none" stroke-width="0.79701" stroke-linecap="butt" stroke-linejoin="miter" stroke="rgb(0%, 65.098572%, 92.156982%)" stroke-opacity="1" stroke-miterlimit="10" d="M -14.173906 0.00059375 C -14.173906 0.707625 -15.591875 1.063094 -15.591875 1.770125 C -15.591875 2.28575 -14.900469 2.727156 -14.173906 3.188094 C -13.447344 3.652938 -12.755937 4.094344 -12.755937 4.606063 C -12.755937 5.117781 -13.447344 5.563094 -14.173906 6.024031 C -14.900469 6.484969 -15.591875 6.926375 -15.591875 7.442 C -15.591875 7.953719 -14.900469 8.395125 -14.173906 8.859969 C -13.447344 9.320906 -12.755937 9.762313 -12.755937 10.274031 C -12.755937 10.789656 -13.447344 11.231063 -14.173906 11.692 C -14.900469 12.156844 -15.591875 12.59825 -15.591875 13.109969 C -15.591875 13.621688 -14.900469 14.067 -14.173906 14.527938 C -13.447344 14.988875 -12.755937 15.430281 -12.755937 15.945906 C -12.755937 16.652938 -14.173906 17.008406 -14.173906 17.715438 L -14.173906 18.070906 " transform="matrix(1, 0, 0, -1, 209.045, 25.942)"/>
<path fill="none" stroke-width="9.96277" stroke-linecap="butt" stroke-linejoin="miter" stroke="rgb(0%, 65.098572%, 92.156982%)" stroke-opacity="1" stroke-miterlimit="10" d="M 0.00516406 21.414359 L 21.416297 0.00322656 L 0.00516406 -21.407906 " transform="matrix(0, -0.16, -0.16, 0, 194.87161, 19.65317)"/>
<g clip-path="url(#clip-8)">
<path fill="none" stroke-width="0.79701" stroke-linecap="butt" stroke-linejoin="miter" stroke="rgb(0%, 65.098572%, 92.156982%)" stroke-opacity="1" stroke-miterlimit="10" d="M 14.17375 21.258406 C 14.17375 20.551375 15.591719 20.195906 15.591719 19.488875 C 15.591719 18.977156 14.900313 18.531844 14.17375 18.070906 C 13.447188 17.609969 12.755781 17.168563 12.755781 16.652938 C 12.755781 16.141219 13.447188 15.699813 14.17375 15.234969 C 14.900313 14.774031 15.591719 14.332625 15.591719 13.820906 C 15.591719 13.305281 14.900313 12.863875 14.17375 12.402938 C 13.447188 11.938094 12.755781 11.496688 12.755781 10.984969 C 12.755781 10.47325 13.447188 10.027938 14.17375 9.567 C 14.900313 9.106063 15.591719 8.664656 15.591719 8.149031 C 15.591719 7.637313 14.900313 7.195906 14.17375 6.731063 C 13.447188 6.270125 12.755781 5.828719 12.755781 5.317 C 12.755781 4.801375 13.447188 4.359969 14.17375 3.899031 C 14.900313 3.434188 15.591719 2.992781 15.591719 2.481063 C 15.591719 1.770125 14.17375 1.418563 14.17375 0.707625 L 14.17375 0.00059375 " transform="matrix(1, 0, 0, -1, 209.045, 25.942)"/>
</g>
<g clip-path="url(#clip-9)">
<path fill="none" stroke-width="9.96277" stroke-linecap="butt" stroke-linejoin="miter" stroke="rgb(0%, 65.098572%, 92.156982%)" stroke-opacity="1" stroke-miterlimit="10" d="M -0.00504688 21.413383 L 21.4305 0.00225 L -0.00504688 -21.408883 " transform="matrix(0, 0.16, 0.16, 0, 223.21839, 12.88362)"/>
</g>
<g clip-path="url(#clip-10)">
<path fill="none" stroke-width="0.79701" stroke-linecap="butt" stroke-linejoin="miter" stroke="rgb(0%, 65.098572%, 92.156982%)" stroke-opacity="1" stroke-miterlimit="10" d="M 14.17375 0.00059375 C 13.462813 0.00059375 13.11125 -1.417375 12.400313 -1.417375 C 11.888594 -1.417375 11.447188 -0.725969 10.98625 0.00059375 C 10.521406 0.727156 10.08 1.418563 9.568281 1.418563 C 9.052656 1.418563 8.61125 0.727156 8.150313 0.00059375 C 7.689375 -0.725969 7.244063 -1.417375 6.732344 -1.417375 C 6.220625 -1.417375 5.775313 -0.725969 5.314375 0.00059375 C 4.853438 0.727156 4.412031 1.418563 3.896406 1.418563 C 3.384688 1.418563 2.943281 0.727156 2.482344 0.00059375 C 2.0175 -0.725969 1.576094 -1.417375 1.064375 -1.417375 C 0.54875 -1.417375 0.107344 -0.725969 -0.353594 0.00059375 C -0.814531 0.727156 -1.259844 1.418563 -1.771562 1.418563 C -2.283281 1.418563 -2.728594 0.727156 -3.189531 0.00059375 C -3.650469 -0.725969 -4.091875 -1.417375 -4.6075 -1.417375 C -5.119219 -1.417375 -5.560625 -0.725969 -6.021562 0.00059375 C -6.486406 0.727156 -6.927812 1.418563 -7.439531 1.418563 C -7.955156 1.418563 -8.396562 0.727156 -8.8575 0.00059375 C -9.318437 -0.725969 -9.76375 -1.417375 -10.275469 -1.417375 C -10.9825 -1.417375 -11.337969 0.00059375 -12.048906 0.00059375 L -14.173906 0.00059375 " transform="matrix(1, 0, 0, -1, 209.045, 25.942)"/>
</g>
<g clip-path="url(#clip-11)">
<path fill="none" stroke-width="9.96277" stroke-linecap="butt" stroke-linejoin="miter" stroke="rgb(0%, 65.098572%, 92.156982%)" stroke-opacity="1" stroke-miterlimit="10" d="M -0.00640625 21.431836 L 21.429141 -0.00371094 L -0.00640625 -21.414844 " transform="matrix(-0.16, 0, 0, 0.16, 210.7646, 25.942)"/>
</g>
<path fill="none" stroke-width="0.79701" stroke-linecap="butt" stroke-linejoin="miter" stroke="rgb(0%, 65.098572%, 92.156982%)" stroke-opacity="1" stroke-miterlimit="10" d="M -14.173906 -21.261125 C -14.173906 -20.550187 -15.591875 -20.198625 -15.591875 -19.487687 C -15.591875 -18.975969 -14.900469 -18.534562 -14.173906 -18.069719 C -13.447344 -17.608781 -12.755937 -17.167375 -12.755937 -16.655656 C -12.755937 -16.140031 -13.447344 -15.698625 -14.173906 -15.237687 C -14.900469 -14.772844 -15.591875 -14.331437 -15.591875 -13.819719 C -15.591875 -13.308 -14.900469 -12.862687 -14.173906 -12.40175 C -13.447344 -11.940812 -12.755937 -11.499406 -12.755937 -10.983781 C -12.755937 -10.472062 -13.447344 -10.030656 -14.173906 -9.565812 C -14.900469 -9.104875 -15.591875 -8.663469 -15.591875 -8.15175 C -15.591875 -7.636125 -14.900469 -7.194719 -14.173906 -6.733781 C -13.447344 -6.268937 -12.755937 -5.827531 -12.755937 -5.315812 C -12.755937 -4.800187 -13.447344 -4.358781 -14.173906 -3.897844 C -14.900469 -3.436906 -15.591875 -2.9955 -15.591875 -2.479875 C -15.591875 -1.772844 -14.173906 -1.417375 -14.173906 -0.710344 L -14.173906 0.00059375 " transform="matrix(1, 0, 0, -1, 209.045, 25.942)"/>
<path fill="none" stroke-width="9.96277" stroke-linecap="butt" stroke-linejoin="miter" stroke="rgb(0%, 65.098572%, 92.156982%)" stroke-opacity="1" stroke-miterlimit="10" d="M 0.002375 21.414359 L 21.413508 0.00322656 L 0.002375 -21.407906 " transform="matrix(0, -0.16, -0.16, 0, 194.87161, 39.00038)"/>
<g clip-path="url(#clip-12)">
<path fill="none" stroke-width="0.79701" stroke-linecap="butt" stroke-linejoin="miter" stroke="rgb(0%, 65.098572%, 92.156982%)" stroke-opacity="1" stroke-miterlimit="10" d="M 14.17375 -21.261125 C 14.17375 -20.550187 12.755781 -20.198625 12.755781 -19.487687 C 12.755781 -18.975969 13.447188 -18.534562 14.17375 -18.069719 C 14.900313 -17.608781 15.591719 -17.167375 15.591719 -16.655656 C 15.591719 -16.140031 14.900313 -15.698625 14.17375 -15.237687 C 13.447188 -14.772844 12.755781 -14.331437 12.755781 -13.819719 C 12.755781 -13.308 13.447188 -12.862687 14.17375 -12.40175 C 14.900313 -11.940812 15.591719 -11.499406 15.591719 -10.983781 C 15.591719 -10.472062 14.900313 -10.030656 14.17375 -9.565812 C 13.447188 -9.104875 12.755781 -8.663469 12.755781 -8.15175 C 12.755781 -7.636125 13.447188 -7.194719 14.17375 -6.733781 C 14.900313 -6.268937 15.591719 -5.827531 15.591719 -5.315812 C 15.591719 -4.800187 14.900313 -4.358781 14.17375 -3.897844 C 13.447188 -3.436906 12.755781 -2.9955 12.755781 -2.479875 C 12.755781 -1.772844 14.17375 -1.417375 14.17375 -0.710344 L 14.17375 0.00059375 " transform="matrix(1, 0, 0, -1, 209.045, 25.942)"/>
</g>
<g clip-path="url(#clip-13)">
<path fill="none" stroke-width="9.96277" stroke-linecap="butt" stroke-linejoin="miter" stroke="rgb(0%, 65.098572%, 92.156982%)" stroke-opacity="1" stroke-miterlimit="10" d="M 0.002375 21.408883 L 21.413508 -0.00225 L 0.002375 -21.413383 " transform="matrix(0, -0.16, -0.16, 0, 223.21839, 39.00038)"/>
</g>
<path fill-rule="nonzero" fill="rgb(94.900513%, 55.683899%, 0%)" fill-opacity="1" d="M 224.636719 4.683594 C 224.636719 3.898438 224 3.265625 223.21875 3.265625 C 222.4375 3.265625 221.800781 3.898438 221.800781 4.683594 C 221.800781 5.464844 222.4375 6.097656 223.21875 6.097656 C 224 6.097656 224.636719 5.464844 224.636719 4.683594 Z M 224.636719 4.683594 "/>
<path fill-rule="nonzero" fill="rgb(94.900513%, 55.683899%, 0%)" fill-opacity="1" d="M 196.289062 47.203125 C 196.289062 46.417969 195.65625 45.785156 194.871094 45.785156 C 194.089844 45.785156 193.453125 46.417969 193.453125 47.203125 C 193.453125 47.984375 194.089844 48.621094 194.871094 48.621094 C 195.65625 48.621094 196.289062 47.984375 196.289062 47.203125 Z M 196.289062 47.203125 "/>
<path fill-rule="nonzero" fill="rgb(94.900513%, 55.683899%, 0%)" fill-opacity="1" d="M 224.636719 47.203125 C 224.636719 46.417969 224 45.785156 223.21875 45.785156 C 222.4375 45.785156 221.800781 46.417969 221.800781 47.203125 C 221.800781 47.984375 222.4375 48.621094 223.21875 48.621094 C 224 48.621094 224.636719 47.984375 224.636719 47.203125 Z M 224.636719 47.203125 "/>
<g fill="rgb(0%, 0%, 0%)" fill-opacity="1">
<use xlink:href="#glyph-0-1" x="1.494" y="84.241"/>
</g>
<g clip-path="url(#clip-14)">
<g clip-path="url(#clip-15)">
<path fill="none" stroke-width="0.3985" stroke-linecap="butt" stroke-linejoin="miter" stroke="rgb(94.900513%, 55.683899%, 0%)" stroke-opacity="1" stroke-miterlimit="10" d="M -11.184281 18.271719 L -17.160844 24.248281 M -17.160844 18.271719 L -11.184281 24.248281 " transform="matrix(1, 0, 0, -1, 26.196, 82.635)"/>
</g>
</g>
<path fill="none" stroke-width="0.3985" stroke-linecap="butt" stroke-linejoin="miter" stroke="rgb(94.900513%, 55.683899%, 0%)" stroke-opacity="1" stroke-miterlimit="10" d="M -11.184281 21.26 C -11.184281 22.912344 -12.524125 24.248281 -14.172562 24.248281 C -15.824906 24.248281 -17.160844 22.912344 -17.160844 21.26 C -17.160844 19.607656 -15.824906 18.271719 -14.172562 18.271719 C -12.524125 18.271719 -11.184281 19.607656 -11.184281 21.26 Z M -11.184281 21.26 " transform="matrix(1, 0, 0, -1, 26.196, 82.635)"/>
<path fill="none" stroke-width="0.79701" stroke-linecap="butt" stroke-linejoin="miter" stroke="rgb(0%, 65.098572%, 92.156982%)" stroke-opacity="1" stroke-miterlimit="10" d="M -0.0006875 7.088125 C -0.500687 7.588125 -1.754594 6.834219 -2.254594 7.338125 C -2.617875 7.701406 -2.442094 8.502188 -2.254594 9.342031 C -2.067094 10.181875 -1.891312 10.982656 -2.254594 11.345938 C -2.617875 11.709219 -3.418656 11.533438 -4.2585 11.345938 C -5.098344 11.158438 -5.899125 10.982656 -6.262406 11.345938 C -6.625687 11.709219 -6.449906 12.51 -6.262406 13.349844 C -6.078812 14.189688 -5.899125 14.990469 -6.262406 15.35375 C -6.625687 15.717031 -7.426469 15.54125 -8.266312 15.35375 C -9.106156 15.170156 -9.910844 14.990469 -10.274125 15.35375 C -10.774125 15.857656 -10.020219 17.107656 -10.524125 17.611563 L -11.918656 19.006094 " transform="matrix(1, 0, 0, -1, 26.196, 82.635)"/>
<path fill="none" stroke-width="9.96277" stroke-linecap="butt" stroke-linejoin="miter" stroke="rgb(0%, 65.098572%, 92.156982%)" stroke-opacity="1" stroke-miterlimit="10" d="M 0.00738641 21.422473 L 21.432544 -0.00268496 L 0.00738641 -21.427843 " transform="matrix(-0.11313, -0.11313, -0.11313, 0.11313, 22.26811, 71.62028)"/>
<path fill="none" stroke-width="0.79701" stroke-linecap="butt" stroke-linejoin="miter" stroke="rgb(0%, 65.098572%, 92.156982%)" stroke-opacity="1" stroke-miterlimit="10" d="M 14.175094 21.26 C 13.671188 20.76 14.425094 19.506094 13.921188 19.006094 C 13.561813 18.642813 12.757125 18.818594 11.917281 19.006094 C 11.077438 19.189688 10.276656 19.369375 9.913375 19.006094 C 9.550094 18.642813 9.725875 17.842031 9.913375 17.002188 C 10.100875 16.162344 10.276656 15.357656 9.913375 14.998281 C 9.550094 14.635 8.749313 14.810781 7.909469 14.998281 C 7.069625 15.181875 6.268844 15.357656 5.905563 14.998281 C 5.542281 14.635 5.718063 13.830313 5.905563 12.990469 C 6.093063 12.150625 6.268844 11.349844 5.905563 10.986563 C 5.542281 10.623281 4.7415 10.802969 3.901656 10.986563 C 3.061813 11.174063 2.261031 11.349844 1.89775 10.986563 C 1.393844 10.486563 2.14775 9.232656 1.64775 8.732656 L -0.0006875 7.088125 " transform="matrix(1, 0, 0, -1, 26.196, 82.635)"/>
<path fill="none" stroke-width="9.96277" stroke-linecap="butt" stroke-linejoin="miter" stroke="rgb(0%, 65.098572%, 92.156982%)" stroke-opacity="1" stroke-miterlimit="10" d="M -0.000530363 21.433086 L 21.424628 0.00792783 L -0.000530363 -21.41723 " transform="matrix(-0.11313, 0.11313, 0.11313, 0.11313, 35.09084, 66.65346)"/>
<path fill="none" stroke-width="0.79701" stroke-linecap="butt" stroke-linejoin="miter" stroke="rgb(0%, 65.098572%, 92.156982%)" stroke-opacity="1" stroke-miterlimit="10" d="M -0.0006875 -7.087656 C -0.0006875 -6.376719 -1.418656 -6.025156 -1.418656 -5.314219 C -1.418656 -4.8025 -0.72725 -4.361094 -0.0006875 -3.89625 C 0.725875 -3.435312 1.417281 -2.993906 1.417281 -2.482187 C 1.417281 -1.966562 0.725875 -1.525156 -0.0006875 -1.064219 C -0.72725 -0.599375 -1.418656 -0.157969 -1.418656 0.35375 C -1.418656 0.865469 -0.72725 1.310781 -0.0006875 1.771719 C 0.725875 2.232656 1.417281 2.674063 1.417281 3.189688 C 1.417281 3.896719 -0.0006875 4.252188 -0.0006875 4.959219 L -0.0006875 7.088125 " transform="matrix(1, 0, 0, -1, 26.196, 82.635)"/>
<g clip-path="url(#clip-16)">
<path fill="none" stroke-width="9.96277" stroke-linecap="butt" stroke-linejoin="miter" stroke="rgb(0%, 65.098572%, 92.156982%)" stroke-opacity="1" stroke-miterlimit="10" d="M -0.00873437 21.41543 L 21.426813 0.00429687 L -0.00873437 -21.43125 " transform="matrix(0, -0.16, -0.16, 0, 26.196, 85.77204)"/>
</g>
<g clip-path="url(#clip-17)">
<path fill="none" stroke-width="0.79701" stroke-linecap="butt" stroke-linejoin="miter" stroke="rgb(0%, 65.098572%, 92.156982%)" stroke-opacity="1" stroke-miterlimit="10" d="M -14.172562 -21.259531 C -13.672562 -20.759531 -14.422562 -19.505625 -13.922562 -19.005625 C -13.559281 -18.642344 -12.7585 -18.818125 -11.918656 -19.005625 C -11.078812 -19.193125 -10.278031 -19.368906 -9.91475 -19.005625 C -9.551469 -18.642344 -9.72725 -17.841562 -9.91475 -17.001719 C -10.10225 -16.161875 -10.278031 -15.361094 -9.91475 -14.997812 C -9.551469 -14.634531 -8.750687 -14.810312 -7.910844 -14.997812 C -7.071 -15.181406 -6.266312 -15.361094 -5.906937 -14.997812 C -5.543656 -14.634531 -5.719437 -13.83375 -5.906937 -12.993906 C -6.090531 -12.154062 -6.266312 -11.349375 -5.906937 -10.986094 C -5.543656 -10.626719 -4.738969 -10.8025 -3.899125 -10.986094 C -3.059281 -11.173594 -2.2585 -11.349375 -1.895219 -10.986094 C -1.395219 -10.486094 -2.145219 -9.232187 -1.645219 -8.732187 L -0.0006875 -7.087656 " transform="matrix(1, 0, 0, -1, 26.196, 82.635)"/>
</g>
<path fill="none" stroke-width="9.96277" stroke-linecap="butt" stroke-linejoin="miter" stroke="rgb(0%, 65.098572%, 92.156982%)" stroke-opacity="1" stroke-miterlimit="10" d="M 0.0127287 21.42397 L 21.420622 0.0160766 L -0.00453571 -21.409081 " transform="matrix(0.11313, -0.11313, -0.11313, -0.11313, 17.30116, 98.61654)"/>
<g clip-path="url(#clip-18)">
<path fill="none" stroke-width="0.79701" stroke-linecap="butt" stroke-linejoin="miter" stroke="rgb(0%, 65.098572%, 92.156982%)" stroke-opacity="1" stroke-miterlimit="10" d="M 14.175094 -21.259531 C 13.671188 -20.759531 12.421188 -21.509531 11.917281 -21.009531 C 11.554 -20.64625 11.733688 -19.845469 11.917281 -19.005625 C 12.104781 -18.165781 12.280563 -17.365 11.917281 -17.001719 C 11.554 -16.638437 10.753219 -16.814219 9.913375 -17.001719 C 9.073531 -17.185312 8.27275 -17.365 7.909469 -17.001719 C 7.546188 -16.638437 7.721969 -15.837656 7.909469 -14.997812 C 8.096969 -14.157969 8.27275 -13.353281 7.909469 -12.993906 C 7.546188 -12.630625 6.745406 -12.806406 5.905563 -12.993906 C 5.065719 -13.1775 4.264938 -13.353281 3.901656 -12.993906 C 3.538375 -12.630625 3.714156 -11.825937 3.901656 -10.986094 C 4.089156 -10.14625 4.264938 -9.345469 3.901656 -8.982187 C 3.39775 -8.482187 2.14775 -9.232187 1.64775 -8.732187 L -0.0006875 -7.087656 " transform="matrix(1, 0, 0, -1, 26.196, 82.635)"/>
</g>
<path fill="none" stroke-width="9.96277" stroke-linecap="butt" stroke-linejoin="miter" stroke="rgb(0%, 65.098572%, 92.156982%)" stroke-opacity="1" stroke-miterlimit="10" d="M 0.00154137 21.415158 L 21.426699 -0.00999956 L 0.00154137 -21.435158 " transform="matrix(-0.11313, -0.11313, -0.11313, 0.11313, 35.09084, 98.61654)"/>
<path fill-rule="nonzero" fill="rgb(94.900513%, 55.683899%, 0%)" fill-opacity="1" d="M 41.785156 61.375 C 41.785156 60.59375 41.152344 59.957031 40.371094 59.957031 C 39.585938 59.957031 38.953125 60.59375 38.953125 61.375 C 38.953125 62.15625 39.585938 62.792969 40.371094 62.792969 C 41.152344 62.792969 41.785156 62.15625 41.785156 61.375 Z M 41.785156 61.375 "/>
<path fill-rule="nonzero" fill="rgb(94.900513%, 55.683899%, 0%)" fill-opacity="1" d="M 13.441406 103.894531 C 13.441406 103.113281 12.804688 102.476562 12.023438 102.476562 C 11.238281 102.476562 10.605469 103.113281 10.605469 103.894531 C 10.605469 104.679688 11.238281 105.3125 12.023438 105.3125 C 12.804688 105.3125 13.441406 104.679688 13.441406 103.894531 Z M 13.441406 103.894531 "/>
<path fill-rule="nonzero" fill="rgb(94.900513%, 55.683899%, 0%)" fill-opacity="1" d="M 41.785156 103.894531 C 41.785156 103.113281 41.152344 102.476562 40.371094 102.476562 C 39.585938 102.476562 38.953125 103.113281 38.953125 103.894531 C 38.953125 104.679688 39.585938 105.3125 40.371094 105.3125 C 41.152344 105.3125 41.785156 104.679688 41.785156 103.894531 Z M 41.785156 103.894531 "/>
<g fill="rgb(0%, 0%, 0%)" fill-opacity="1">
<use xlink:href="#glyph-0-1" x="44.014" y="84.241"/>
</g>
<g clip-path="url(#clip-19)">
<g clip-path="url(#clip-20)">
<path fill="none" stroke-width="0.3985" stroke-linecap="butt" stroke-linejoin="miter" stroke="rgb(94.900513%, 55.683899%, 0%)" stroke-opacity="1" stroke-miterlimit="10" d="M 2.987656 18.271719 L -2.988906 24.248281 M -2.988906 18.271719 L 2.987656 24.248281 " transform="matrix(1, 0, 0, -1, 76.235, 82.635)"/>
</g>
</g>
<path fill="none" stroke-width="0.3985" stroke-linecap="butt" stroke-linejoin="miter" stroke="rgb(94.900513%, 55.683899%, 0%)" stroke-opacity="1" stroke-miterlimit="10" d="M 2.987656 21.26 C 2.987656 22.912344 1.651719 24.248281 -0.000625 24.248281 C -1.649062 24.248281 -2.988906 22.912344 -2.988906 21.26 C -2.988906 19.607656 -1.649062 18.271719 -0.000625 18.271719 C 1.651719 18.271719 2.987656 19.607656 2.987656 21.26 Z M 2.987656 21.26 " transform="matrix(1, 0, 0, -1, 76.235, 82.635)"/>
<path fill="none" stroke-width="0.79701" stroke-linecap="butt" stroke-linejoin="miter" stroke="rgb(0%, 65.098572%, 92.156982%)" stroke-opacity="1" stroke-miterlimit="10" d="M -0.000625 -0.00171875 C -0.000625 0.709219 -1.418594 1.064688 -1.418594 1.771719 C -1.418594 2.283438 -0.727187 2.72875 -0.000625 3.189688 C 0.725938 3.650625 1.417344 4.092031 1.417344 4.607656 C 1.417344 5.119375 0.725938 5.560781 -0.000625 6.021719 C -0.727187 6.486563 -1.418594 6.927969 -1.418594 7.439688 C -1.418594 7.955313 -0.727187 8.396719 -0.000625 8.857656 C 0.725938 9.318594 1.417344 9.763906 1.417344 10.275625 C 1.417344 10.787344 0.725938 11.232656 -0.000625 11.693594 C -0.727187 12.154531 -1.418594 12.595938 -1.418594 13.111563 C -1.418594 13.623281 -0.727187 14.064688 -0.000625 14.529531 C 0.725938 14.990469 1.417344 15.431875 1.417344 15.943594 C 1.417344 16.654531 -0.000625 17.006094 -0.000625 17.717031 L -0.000625 18.0725 " transform="matrix(1, 0, 0, -1, 76.235, 82.635)"/>
<path fill="none" stroke-width="9.96277" stroke-linecap="butt" stroke-linejoin="miter" stroke="rgb(0%, 65.098572%, 92.156982%)" stroke-opacity="1" stroke-miterlimit="10" d="M -0.00928906 21.415039 L 21.426258 0.00390625 L -0.00928906 -21.431641 " transform="matrix(0, -0.16, -0.16, 0, 76.235, 76.34617)"/>
<g clip-path="url(#clip-21)">
<path fill="none" stroke-width="0.79701" stroke-linecap="butt" stroke-linejoin="miter" stroke="rgb(0%, 65.098572%, 92.156982%)" stroke-opacity="1" stroke-miterlimit="10" d="M -21.258437 -21.259531 C -20.758437 -20.759531 -21.512344 -19.505625 -21.008437 -19.005625 C -20.645156 -18.642344 -19.844375 -18.818125 -19.004531 -19.005625 C -18.164687 -19.193125 -17.363906 -19.368906 -17.000625 -19.005625 C -16.637344 -18.642344 -16.813125 -17.841562 -17.000625 -17.001719 C -17.188125 -16.161875 -17.363906 -15.361094 -17.000625 -14.997812 C -16.637344 -14.634531 -15.836562 -14.810312 -14.996719 -14.997812 C -14.156875 -15.181406 -13.356094 -15.361094 -12.992812 -14.997812 C -12.629531 -14.634531 -12.805312 -13.83375 -12.992812 -12.993906 C -13.180312 -12.154062 -13.356094 -11.349375 -12.992812 -10.986094 C -12.629531 -10.626719 -11.82875 -10.8025 -10.988906 -10.986094 C -10.149062 -11.173594 -9.344375 -11.349375 -8.985 -10.986094 C -8.621719 -10.626719 -8.7975 -9.822031 -8.985 -8.982187 C -9.168594 -8.142344 -9.344375 -7.341562 -8.985 -6.978281 C -8.621719 -6.615 -7.817031 -6.790781 -6.977187 -6.978281 C -6.137344 -7.165781 -5.336562 -7.341562 -4.973281 -6.978281 C -4.61 -6.615 -4.789687 -5.814219 -4.973281 -4.974375 C -5.160781 -4.134531 -5.336562 -3.33375 -4.973281 -2.970469 C -4.61 -2.607187 -3.809219 -2.782969 -2.969375 -2.970469 C -2.129531 -3.157969 -1.32875 -3.33375 -0.965469 -2.970469 C -0.465469 -2.470469 -1.215469 -1.216562 -0.715469 -0.716562 L -0.000625 -0.00171875 " transform="matrix(1, 0, 0, -1, 76.235, 82.635)"/>
</g>
<path fill="none" stroke-width="9.96277" stroke-linecap="butt" stroke-linejoin="miter" stroke="rgb(0%, 65.098572%, 92.156982%)" stroke-opacity="1" stroke-miterlimit="10" d="M -0.00754663 21.420324 L 21.417611 -0.00483404 L 0.0097178 -21.412728 " transform="matrix(0.11313, -0.11313, -0.11313, -0.11313, 64.50226, 94.36774)"/>
<g clip-path="url(#clip-22)">
<path fill="none" stroke-width="0.79701" stroke-linecap="butt" stroke-linejoin="miter" stroke="rgb(0%, 65.098572%, 92.156982%)" stroke-opacity="1" stroke-miterlimit="10" d="M -0.000625 -21.259531 C -0.000625 -20.5525 -1.418594 -20.197031 -1.418594 -19.49 C -1.418594 -18.974375 -0.727187 -18.532969 -0.000625 -18.072031 C 0.725938 -17.607187 1.417344 -17.165781 1.417344 -16.654062 C 1.417344 -16.142344 0.725938 -15.697031 -0.000625 -15.236094 C -0.727187 -14.775156 -1.418594 -14.33375 -1.418594 -13.818125 C -1.418594 -13.306406 -0.727187 -12.865 -0.000625 -12.400156 C 0.725938 -11.939219 1.417344 -11.497812 1.417344 -10.986094 C 1.417344 -10.470469 0.725938 -10.029062 -0.000625 -9.568125 C -0.727187 -9.103281 -1.418594 -8.661875 -1.418594 -8.150156 C -1.418594 -7.638437 -0.727187 -7.193125 -0.000625 -6.732187 C 0.725938 -6.27125 1.417344 -5.829844 1.417344 -5.314219 C 1.417344 -4.8025 0.725938 -4.361094 -0.000625 -3.89625 C -0.727187 -3.435312 -1.418594 -2.993906 -1.418594 -2.482187 C -1.418594 -1.77125 -0.000625 -1.415781 -0.000625 -0.70875 L -0.000625 -0.00171875 " transform="matrix(1, 0, 0, -1, 76.235, 82.635)"/>
</g>
<g clip-path="url(#clip-23)">
<path fill="none" stroke-width="9.96277" stroke-linecap="butt" stroke-linejoin="miter" stroke="rgb(0%, 65.098572%, 92.156982%)" stroke-opacity="1" stroke-miterlimit="10" d="M -0.0120781 21.415039 L 21.423469 0.00390625 L -0.0120781 -21.431641 " transform="matrix(0, -0.16, -0.16, 0, 76.235, 95.69338)"/>
</g>
<g clip-path="url(#clip-24)">
<path fill="none" stroke-width="0.79701" stroke-linecap="butt" stroke-linejoin="miter" stroke="rgb(0%, 65.098572%, 92.156982%)" stroke-opacity="1" stroke-miterlimit="10" d="M 21.261094 -21.259531 C 20.757188 -20.759531 19.507188 -21.509531 19.003281 -21.009531 C 18.643906 -20.64625 18.819688 -19.845469 19.003281 -19.005625 C 19.190781 -18.165781 19.366563 -17.365 19.003281 -17.001719 C 18.643906 -16.638437 17.839219 -16.814219 16.999375 -17.001719 C 16.159531 -17.185312 15.35875 -17.365 14.995469 -17.001719 C 14.632188 -16.638437 14.811875 -15.837656 14.995469 -14.997812 C 15.182969 -14.157969 15.35875 -13.353281 14.995469 -12.993906 C 14.632188 -12.630625 13.831406 -12.806406 12.991563 -12.993906 C 12.151719 -13.1775 11.350938 -13.353281 10.987656 -12.993906 C 10.624375 -12.630625 10.800156 -11.825937 10.987656 -10.986094 C 11.175156 -10.14625 11.350938 -9.345469 10.987656 -8.982187 C 10.624375 -8.618906 9.823594 -8.798594 8.98375 -8.982187 C 8.143906 -9.169687 7.343125 -9.345469 6.979844 -8.982187 C 6.616563 -8.618906 6.792344 -7.818125 6.979844 -6.978281 C 7.163438 -6.138437 7.343125 -5.337656 6.979844 -4.974375 C 6.616563 -4.611094 5.815781 -4.786875 4.975938 -4.974375 C 4.136094 -5.161875 3.331406 -5.337656 2.972031 -4.974375 C 2.60875 -4.611094 2.784531 -3.810312 2.972031 -2.970469 C 3.155625 -2.130625 3.331406 -1.329844 2.972031 -0.966562 C 2.468125 -0.462656 1.214219 -1.216562 0.714219 -0.716562 L -0.000625 -0.00171875 " transform="matrix(1, 0, 0, -1, 76.235, 82.635)"/>
</g>
<path fill="none" stroke-width="9.96277" stroke-linecap="butt" stroke-linejoin="miter" stroke="rgb(0%, 65.098572%, 92.156982%)" stroke-opacity="1" stroke-miterlimit="10" d="M 0.0152424 21.418252 L 21.423136 0.0103587 L -0.00202201 -21.414799 " transform="matrix(-0.11313, -0.11313, -0.11313, 0.11313, 87.96774, 94.36774)"/>
<path fill-rule="nonzero" fill="rgb(94.900513%, 55.683899%, 0%)" fill-opacity="1" d="M 56.390625 103.894531 C 56.390625 103.113281 55.757812 102.476562 54.976562 102.476562 C 54.191406 102.476562 53.558594 103.113281 53.558594 103.894531 C 53.558594 104.679688 54.191406 105.3125 54.976562 105.3125 C 55.757812 105.3125 56.390625 104.679688 56.390625 103.894531 Z M 56.390625 103.894531 "/>
<path fill-rule="nonzero" fill="rgb(94.900513%, 55.683899%, 0%)" fill-opacity="1" d="M 77.652344 103.894531 C 77.652344 103.113281 77.019531 102.476562 76.234375 102.476562 C 75.453125 102.476562 74.816406 103.113281 74.816406 103.894531 C 74.816406 104.679688 75.453125 105.3125 76.234375 105.3125 C 77.019531 105.3125 77.652344 104.679688 77.652344 103.894531 Z M 77.652344 103.894531 "/>
<path fill-rule="nonzero" fill="rgb(94.900513%, 55.683899%, 0%)" fill-opacity="1" d="M 98.914062 103.894531 C 98.914062 103.113281 98.277344 102.476562 97.496094 102.476562 C 96.710938 102.476562 96.078125 103.113281 96.078125 103.894531 C 96.078125 104.679688 96.710938 105.3125 97.496094 105.3125 C 98.277344 105.3125 98.914062 104.679688 98.914062 103.894531 Z M 98.914062 103.894531 "/>
<g fill="rgb(0%, 0%, 0%)" fill-opacity="1">
<use xlink:href="#glyph-0-1" x="100.707" y="84.241"/>
</g>
<g clip-path="url(#clip-25)">
<g clip-path="url(#clip-26)">
<path fill="none" stroke-width="0.3985" stroke-linecap="butt" stroke-linejoin="miter" stroke="rgb(94.900513%, 55.683899%, 0%)" stroke-opacity="1" stroke-miterlimit="10" d="M -11.186344 18.271719 L -17.162906 24.248281 M -17.162906 18.271719 L -11.186344 24.248281 " transform="matrix(1, 0, 0, -1, 125.409, 82.635)"/>
</g>
</g>
<path fill="none" stroke-width="0.3985" stroke-linecap="butt" stroke-linejoin="miter" stroke="rgb(94.900513%, 55.683899%, 0%)" stroke-opacity="1" stroke-miterlimit="10" d="M -11.186344 21.26 C -11.186344 22.912344 -12.522281 24.248281 -14.174625 24.248281 C -15.823063 24.248281 -17.162906 22.912344 -17.162906 21.26 C -17.162906 19.607656 -15.823063 18.271719 -14.174625 18.271719 C -12.522281 18.271719 -11.186344 19.607656 -11.186344 21.26 Z M -11.186344 21.26 " transform="matrix(1, 0, 0, -1, 125.409, 82.635)"/>
<path fill="none" stroke-width="0.79701" stroke-linecap="butt" stroke-linejoin="miter" stroke="rgb(0%, 65.098572%, 92.156982%)" stroke-opacity="1" stroke-miterlimit="10" d="M 0.00115625 -0.00171875 C -0.393375 0.588125 -1.768375 0.0998438 -2.162906 0.689688 C -2.448063 1.115469 -2.116031 1.865469 -1.768375 2.654531 C -1.420719 3.439688 -1.092594 4.193594 -1.373844 4.619375 C -1.659 5.045156 -2.479313 5.029531 -3.342594 5.01 C -4.201969 4.994375 -5.022281 4.97875 -5.307438 5.404531 C -5.592594 5.830313 -5.260563 6.584219 -4.912906 7.369375 C -4.56525 8.158438 -4.237125 8.908438 -4.518375 9.334219 C -4.803531 9.763906 -5.623844 9.748281 -6.487125 9.72875 C -7.3465 9.709219 -8.166813 9.693594 -8.451969 10.123281 C -8.737125 10.549063 -8.405094 11.299063 -8.057438 12.088125 C -7.709781 12.873281 -7.381656 13.627188 -7.662906 14.052969 C -7.948063 14.47875 -8.768375 14.463125 -9.631656 14.4475 C -10.491031 14.427969 -11.311344 14.412344 -11.5965 14.838125 C -11.987125 15.427969 -11.006656 16.51 -11.401188 17.099844 L -12.405094 18.607656 " transform="matrix(1, 0, 0, -1, 125.409, 82.635)"/>
<path fill="none" stroke-width="9.96277" stroke-linecap="butt" stroke-linejoin="miter" stroke="rgb(0%, 65.098572%, 92.156982%)" stroke-opacity="1" stroke-miterlimit="10" d="M -0.000317541 21.432341 L 21.417798 -0.00683299 L 0.0124828 -21.418178 " transform="matrix(-0.08875, -0.13312, -0.13312, 0.08875, 120.49367, 75.2619)"/>
<path fill="none" stroke-width="0.79701" stroke-linecap="butt" stroke-linejoin="miter" stroke="rgb(0%, 65.098572%, 92.156982%)" stroke-opacity="1" stroke-miterlimit="10" d="M 14.173031 21.26 C 13.7785 20.670156 14.762875 19.588125 14.368344 18.998281 C 14.087094 18.5725 13.262875 18.588125 12.4035 18.607656 C 11.544125 18.623281 10.723812 18.638906 10.438656 18.213125 C 10.1535 17.787344 10.485531 17.033438 10.833187 16.248281 C 11.180844 15.463125 11.508969 14.709219 11.223812 14.283438 C 10.942562 13.857656 10.118344 13.873281 9.258969 13.888906 C 8.399594 13.908438 7.579281 13.924063 7.294125 13.498281 C 7.008969 13.068594 7.341 12.318594 7.688656 11.529531 C 8.036312 10.744375 8.364437 9.994375 8.079281 9.564688 C 7.798031 9.138906 6.973812 9.154531 6.114437 9.174063 C 5.255062 9.189688 4.43475 9.205313 4.149594 8.779531 C 3.864437 8.35375 4.196469 7.599844 4.544125 6.814688 C 4.891781 6.029531 5.219906 5.275625 4.93475 4.849844 C 4.6535 4.424063 3.829281 4.439688 2.969906 4.455313 C 2.110531 4.474844 1.290219 4.490469 1.005062 4.064688 C 0.614437 3.474844 1.594906 2.392813 1.200375 1.802969 L 0.00115625 -0.00171875 " transform="matrix(1, 0, 0, -1, 125.409, 82.635)"/>
<path fill="none" stroke-width="9.96277" stroke-linecap="butt" stroke-linejoin="miter" stroke="rgb(0%, 65.098572%, 92.156982%)" stroke-opacity="1" stroke-miterlimit="10" d="M 0.002452 21.4289 L 21.421311 -0.00275983 L -0.0103483 -21.421619 " transform="matrix(-0.08875, 0.13312, 0.13312, 0.08875, 133.60854, 70.33614)"/>
<g clip-path="url(#clip-27)">
<path fill="none" stroke-width="0.79701" stroke-linecap="butt" stroke-linejoin="miter" stroke="rgb(0%, 65.098572%, 92.156982%)" stroke-opacity="1" stroke-miterlimit="10" d="M -14.174625 -21.259531 C -13.780094 -20.669687 -14.764469 -19.587656 -14.369938 -19.001719 C -14.084781 -18.572031 -13.264469 -18.587656 -12.405094 -18.607187 C -11.545719 -18.626719 -10.725406 -18.642344 -10.44025 -18.212656 C -10.155094 -17.786875 -10.483219 -17.036875 -10.830875 -16.247812 C -11.178531 -15.462656 -11.510563 -14.70875 -11.225406 -14.282969 C -10.94025 -13.857187 -10.119938 -13.872812 -9.260563 -13.888437 C -8.401188 -13.907969 -7.580875 -13.923594 -7.295719 -13.497812 C -7.010563 -13.068125 -7.338688 -12.318125 -7.686344 -11.532969 C -8.034 -10.743906 -8.366031 -9.993906 -8.080875 -9.564219 C -7.795719 -9.138437 -6.975406 -9.154062 -6.116031 -9.173594 C -5.256656 -9.189219 -4.436344 -9.204844 -4.151188 -8.779062 C -3.866031 -8.353281 -4.194156 -7.603281 -4.541813 -6.814219 C -4.889469 -6.029062 -5.2215 -5.275156 -4.936344 -4.849375 C -4.651188 -4.423594 -3.830875 -4.439219 -2.9715 -4.454844 C -2.112125 -4.474375 -1.291813 -4.49 -1.006656 -4.064219 C -0.612125 -3.474375 -1.5965 -2.392344 -1.201969 -1.8025 L 0.00115625 -0.00171875 " transform="matrix(1, 0, 0, -1, 125.409, 82.635)"/>
</g>
<g clip-path="url(#clip-28)">
<path fill="none" stroke-width="9.96277" stroke-linecap="butt" stroke-linejoin="miter" stroke="rgb(0%, 65.098572%, 92.156982%)" stroke-opacity="1" stroke-miterlimit="10" d="M 0.0129075 21.418499 L 21.418223 0.0071537 L 0.000107167 -21.43202 " transform="matrix(0.08875, -0.13312, -0.13312, -0.08875, 117.20946, 94.93386)"/>
</g>
<g clip-path="url(#clip-29)">
<path fill="none" stroke-width="0.79701" stroke-linecap="butt" stroke-linejoin="miter" stroke="rgb(0%, 65.098572%, 92.156982%)" stroke-opacity="1" stroke-miterlimit="10" d="M 14.173031 -21.259531 C 13.7785 -20.669687 12.4035 -21.161875 12.012875 -20.572031 C 11.727719 -20.14625 12.055844 -19.392344 12.4035 -18.607187 C 12.751156 -17.818125 13.083187 -17.068125 12.798031 -16.642344 C 12.512875 -16.212656 11.692562 -16.232187 10.833187 -16.247812 C 9.973812 -16.267344 9.1535 -16.282969 8.868344 -15.857187 C 8.583187 -15.4275 8.911312 -14.6775 9.258969 -13.888437 C 9.606625 -13.103281 9.938656 -12.353281 9.6535 -11.923594 C 9.368344 -11.497812 8.548031 -11.513437 7.688656 -11.532969 C 6.829281 -11.548594 6.008969 -11.564219 5.723812 -11.138437 C 5.438656 -10.712656 5.766781 -9.95875 6.114437 -9.173594 C 6.462094 -8.384531 6.794125 -7.634531 6.508969 -7.20875 C 6.223812 -6.779062 5.4035 -6.794687 4.544125 -6.814219 C 3.68475 -6.83375 2.864437 -6.849375 2.579281 -6.419687 C 2.294125 -5.993906 2.62225 -5.243906 2.969906 -4.454844 C 3.317562 -3.669687 3.649594 -2.915781 3.364437 -2.49 C 2.969906 -1.900156 1.594906 -2.392344 1.200375 -1.8025 L 0.00115625 -0.00171875 " transform="matrix(1, 0, 0, -1, 125.409, 82.635)"/>
</g>
<g clip-path="url(#clip-30)">
<path fill="none" stroke-width="9.96277" stroke-linecap="butt" stroke-linejoin="miter" stroke="rgb(0%, 65.098572%, 92.156982%)" stroke-opacity="1" stroke-miterlimit="10" d="M -0.00791058 21.419994 L 21.423749 0.00113461 L 0.00488974 -21.430525 " transform="matrix(-0.08875, -0.13312, -0.13312, 0.08875, 133.60854, 94.93386)"/>
</g>
<path fill-rule="nonzero" fill="rgb(94.900513%, 55.683899%, 0%)" fill-opacity="1" d="M 141 61.375 C 141 60.59375 140.363281 59.957031 139.582031 59.957031 C 138.800781 59.957031 138.164062 60.59375 138.164062 61.375 C 138.164062 62.15625 138.800781 62.792969 139.582031 62.792969 C 140.363281 62.792969 141 62.15625 141 61.375 Z M 141 61.375 "/>
<path fill-rule="nonzero" fill="rgb(94.900513%, 55.683899%, 0%)" fill-opacity="1" d="M 112.652344 103.894531 C 112.652344 103.113281 112.019531 102.476562 111.234375 102.476562 C 110.453125 102.476562 109.816406 103.113281 109.816406 103.894531 C 109.816406 104.679688 110.453125 105.3125 111.234375 105.3125 C 112.019531 105.3125 112.652344 104.679688 112.652344 103.894531 Z M 112.652344 103.894531 "/>
<path fill-rule="nonzero" fill="rgb(94.900513%, 55.683899%, 0%)" fill-opacity="1" d="M 141 103.894531 C 141 103.113281 140.363281 102.476562 139.582031 102.476562 C 138.800781 102.476562 138.164062 103.113281 138.164062 103.894531 C 138.164062 104.679688 138.800781 105.3125 139.582031 105.3125 C 140.363281 105.3125 141 104.679688 141 103.894531 Z M 141 103.894531 "/>
<g fill="rgb(0%, 0%, 0%)" fill-opacity="1">
<use xlink:href="#glyph-0-1" x="143.227" y="84.241"/>
</g>
<g clip-path="url(#clip-31)">
<g clip-path="url(#clip-32)">
<path fill="none" stroke-width="0.3985" stroke-linecap="butt" stroke-linejoin="miter" stroke="rgb(94.900513%, 55.683899%, 0%)" stroke-opacity="1" stroke-miterlimit="10" d="M -18.269875 18.271719 L -24.250344 24.248281 M -24.250344 18.271719 L -18.269875 24.248281 " transform="matrix(1, 0, 0, -1, 173.598, 82.635)"/>
</g>
</g>
<path fill="none" stroke-width="0.3985" stroke-linecap="butt" stroke-linejoin="miter" stroke="rgb(94.900513%, 55.683899%, 0%)" stroke-opacity="1" stroke-miterlimit="10" d="M -18.269875 21.26 C -18.269875 22.912344 -19.609719 24.248281 -21.258156 24.248281 C -22.9105 24.248281 -24.250344 22.912344 -24.250344 21.26 C -24.250344 19.607656 -22.9105 18.271719 -21.258156 18.271719 C -19.609719 18.271719 -18.269875 19.607656 -18.269875 21.26 Z M -18.269875 21.26 " transform="matrix(1, 0, 0, -1, 173.598, 82.635)"/>
<path fill="none" stroke-width="0.79701" stroke-linecap="butt" stroke-linejoin="miter" stroke="rgb(0%, 65.098572%, 92.156982%)" stroke-opacity="1" stroke-miterlimit="10" d="M -0.00034375 -0.00171875 C -0.500344 0.502188 -1.75425 -0.251719 -2.25425 0.252188 C -2.617531 0.611563 -2.44175 1.41625 -2.25425 2.256094 C -2.06675 3.095938 -1.890969 3.896719 -2.25425 4.26 C -2.617531 4.623281 -3.418313 4.4475 -4.258156 4.26 C -5.098 4.0725 -5.902688 3.896719 -6.262063 4.26 C -6.625344 4.623281 -6.449563 5.424063 -6.262063 6.263906 C -6.078469 7.10375 -5.902688 7.904531 -6.262063 8.267813 C -6.625344 8.631094 -7.430031 8.455313 -8.269875 8.267813 C -9.109719 8.080313 -9.9105 7.904531 -10.273781 8.267813 C -10.637063 8.631094 -10.457375 9.431875 -10.273781 10.271719 C -10.086281 11.111563 -9.9105 11.912344 -10.273781 12.275625 C -10.637063 12.638906 -11.437844 12.463125 -12.277688 12.275625 C -13.117531 12.092031 -13.918313 11.912344 -14.281594 12.275625 C -14.644875 12.638906 -14.469094 13.439688 -14.281594 14.279531 C -14.094094 15.119375 -13.918313 15.924063 -14.281594 16.287344 C -14.644875 16.646719 -15.445656 16.470938 -16.2855 16.287344 C -17.125344 16.099844 -17.926125 15.924063 -18.289406 16.287344 C -18.789406 16.787344 -18.039406 18.04125 -18.539406 18.54125 L -19.00425 19.006094 " transform="matrix(1, 0, 0, -1, 173.598, 82.635)"/>
<path fill="none" stroke-width="9.96277" stroke-linecap="butt" stroke-linejoin="miter" stroke="rgb(0%, 65.098572%, 92.156982%)" stroke-opacity="1" stroke-miterlimit="10" d="M 0.0000276231 21.434274 L 21.425186 0.00911562 L 0.0000276231 -21.416042 " transform="matrix(-0.11313, -0.11313, -0.11313, 0.11313, 165.41705, 74.45405)"/>
<path fill="none" stroke-width="0.79701" stroke-linecap="butt" stroke-linejoin="miter" stroke="rgb(0%, 65.098572%, 92.156982%)" stroke-opacity="1" stroke-miterlimit="10" d="M -0.00034375 21.26 C -0.00034375 20.552969 1.417625 20.1975 1.417625 19.486563 C 1.417625 18.974844 0.726219 18.533438 -0.00034375 18.0725 C -0.726906 17.607656 -1.418313 17.16625 -1.418313 16.654531 C -1.418313 16.138906 -0.726906 15.6975 -0.00034375 15.236563 C 0.726219 14.775625 1.417625 14.330313 1.417625 13.818594 C 1.417625 13.306875 0.726219 12.865469 -0.00034375 12.400625 C -0.726906 11.939688 -1.418313 11.498281 -1.418313 10.982656 C -1.418313 10.470938 -0.726906 10.029531 -0.00034375 9.568594 C 0.726219 9.10375 1.417625 8.662344 1.417625 8.150625 C 1.417625 7.635 0.726219 7.193594 -0.00034375 6.732656 C -0.726906 6.271719 -1.418313 5.826406 -1.418313 5.314688 C -1.418313 4.802969 -0.726906 4.361563 -0.00034375 3.896719 C 0.726219 3.435781 1.417625 2.994375 1.417625 2.47875 C 1.417625 1.771719 -0.00034375 1.41625 -0.00034375 0.709219 L -0.00034375 -0.00171875 " transform="matrix(1, 0, 0, -1, 173.598, 82.635)"/>
<path fill="none" stroke-width="9.96277" stroke-linecap="butt" stroke-linejoin="miter" stroke="rgb(0%, 65.098572%, 92.156982%)" stroke-opacity="1" stroke-miterlimit="10" d="M 0.00940625 21.408984 L 21.420539 -0.00214844 L 0.00940625 -21.413281 " transform="matrix(0, 0.16, 0.16, 0, 173.598, 69.57662)"/>
<path fill="none" stroke-width="0.79701" stroke-linecap="butt" stroke-linejoin="miter" stroke="rgb(0%, 65.098572%, 92.156982%)" stroke-opacity="1" stroke-miterlimit="10" d="M 21.261375 21.26 C 20.757469 20.76 21.511375 19.506094 21.011375 19.006094 C 20.648094 18.642813 19.843406 18.818594 19.003562 19.006094 C 18.163719 19.189688 17.362937 19.369375 16.999656 19.006094 C 16.636375 18.642813 16.816062 17.842031 16.999656 17.002188 C 17.187156 16.162344 17.362937 15.357656 16.999656 14.998281 C 16.636375 14.635 15.835594 14.810781 14.99575 14.998281 C 14.155906 15.181875 13.355125 15.357656 12.991844 14.998281 C 12.628562 14.635 12.804344 13.830313 12.991844 12.990469 C 13.179344 12.150625 13.355125 11.349844 12.991844 10.986563 C 12.628562 10.623281 11.827781 10.802969 10.987937 10.986563 C 10.148094 11.174063 9.347312 11.349844 8.984031 10.986563 C 8.62075 10.623281 8.796531 9.8225 8.984031 8.982656 C 9.171531 8.142813 9.347312 7.342031 8.984031 6.97875 C 8.62075 6.615469 7.819969 6.79125 6.980125 6.97875 C 6.140281 7.16625 5.335594 7.342031 4.976219 6.97875 C 4.612937 6.615469 4.788719 5.814688 4.976219 4.974844 C 5.159812 4.135 5.335594 3.334219 4.976219 2.970938 C 4.612937 2.607656 3.80825 2.783438 2.968406 2.970938 C 2.128562 3.158438 1.327781 3.334219 0.9645 2.970938 C 0.4645 2.467031 1.2145 1.217031 0.7145 0.713125 L -0.00034375 -0.00171875 " transform="matrix(1, 0, 0, -1, 173.598, 82.635)"/>
<path fill="none" stroke-width="9.96277" stroke-linecap="butt" stroke-linejoin="miter" stroke="rgb(0%, 65.098572%, 92.156982%)" stroke-opacity="1" stroke-miterlimit="10" d="M -0.00533678 21.413971 L 21.419821 -0.0111874 L 0.0119276 -21.419081 " transform="matrix(-0.11313, 0.11313, 0.11313, 0.11313, 185.33074, 70.90226)"/>
<g clip-path="url(#clip-33)">
<path fill="none" stroke-width="0.79701" stroke-linecap="butt" stroke-linejoin="miter" stroke="rgb(0%, 65.098572%, 92.156982%)" stroke-opacity="1" stroke-miterlimit="10" d="M -0.00034375 -21.259531 C -0.00034375 -20.5525 -1.418313 -20.197031 -1.418313 -19.49 C -1.418313 -18.974375 -0.726906 -18.532969 -0.00034375 -18.072031 C 0.726219 -17.607187 1.417625 -17.165781 1.417625 -16.654062 C 1.417625 -16.142344 0.726219 -15.697031 -0.00034375 -15.236094 C -0.726906 -14.775156 -1.418313 -14.33375 -1.418313 -13.818125 C -1.418313 -13.306406 -0.726906 -12.865 -0.00034375 -12.400156 C 0.726219 -11.939219 1.417625 -11.497812 1.417625 -10.986094 C 1.417625 -10.470469 0.726219 -10.029062 -0.00034375 -9.568125 C -0.726906 -9.103281 -1.418313 -8.661875 -1.418313 -8.150156 C -1.418313 -7.638437 -0.726906 -7.193125 -0.00034375 -6.732187 C 0.726219 -6.27125 1.417625 -5.829844 1.417625 -5.314219 C 1.417625 -4.8025 0.726219 -4.361094 -0.00034375 -3.89625 C -0.726906 -3.435312 -1.418313 -2.993906 -1.418313 -2.482187 C -1.418313 -1.77125 -0.00034375 -1.415781 -0.00034375 -0.70875 L -0.00034375 -0.00171875 " transform="matrix(1, 0, 0, -1, 173.598, 82.635)"/>
</g>
<g clip-path="url(#clip-34)">
<path fill="none" stroke-width="9.96277" stroke-linecap="butt" stroke-linejoin="miter" stroke="rgb(0%, 65.098572%, 92.156982%)" stroke-opacity="1" stroke-miterlimit="10" d="M -0.0120781 21.413281 L 21.423469 0.00214844 L -0.0120781 -21.408984 " transform="matrix(0, -0.16, -0.16, 0, 173.598, 95.69338)"/>
</g>
<path fill-rule="nonzero" fill="rgb(94.900513%, 55.683899%, 0%)" fill-opacity="1" d="M 175.015625 61.375 C 175.015625 60.59375 174.378906 59.957031 173.597656 59.957031 C 172.816406 59.957031 172.179688 60.59375 172.179688 61.375 C 172.179688 62.15625 172.816406 62.792969 173.597656 62.792969 C 174.378906 62.792969 175.015625 62.15625 175.015625 61.375 Z M 175.015625 61.375 "/>
<path fill-rule="nonzero" fill="rgb(94.900513%, 55.683899%, 0%)" fill-opacity="1" d="M 196.277344 61.375 C 196.277344 60.59375 195.640625 59.957031 194.859375 59.957031 C 194.074219 59.957031 193.441406 60.59375 193.441406 61.375 C 193.441406 62.15625 194.074219 62.792969 194.859375 62.792969 C 195.640625 62.792969 196.277344 62.15625 196.277344 61.375 Z M 196.277344 61.375 "/>
<path fill-rule="nonzero" fill="rgb(94.900513%, 55.683899%, 0%)" fill-opacity="1" d="M 175.015625 103.894531 C 175.015625 103.113281 174.378906 102.476562 173.597656 102.476562 C 172.816406 102.476562 172.179688 103.113281 172.179688 103.894531 C 172.179688 104.679688 172.816406 105.3125 173.597656 105.3125 C 174.378906 105.3125 175.015625 104.679688 175.015625 103.894531 Z M 175.015625 103.894531 "/>
<g fill="rgb(0%, 0%, 0%)" fill-opacity="1">
<use xlink:href="#glyph-0-1" x="198.117" y="84.241"/>
</g>
<g fill="rgb(0%, 0%, 0%)" fill-opacity="1">
<use xlink:href="#glyph-1-1" x="207.526" y="84.241"/>
</g>
<g fill="rgb(0%, 0%, 0%)" fill-opacity="1">
<use xlink:href="#glyph-1-1" x="211.957364" y="84.241"/>
</g>
<g fill="rgb(0%, 0%, 0%)" fill-opacity="1">
<use xlink:href="#glyph-1-1" x="216.378766" y="84.241"/>
</g>
</svg>
